ISO-10303-21;
HEADER;
FILE_DESCRIPTION (( 'STEP AP203' ),
    '1' );
FILE_NAME ('Reset Switch-b3u_B3U-3000P(M)-B.step',
    '2018-08-14T05:19:09',
    ( '' ),
    ( '' ),
    'SwSTEP 2.0',
    'SolidWorks 2018',
    '' );
FILE_SCHEMA (( 'CONFIG_CONTROL_DESIGN' ));
ENDSEC;

DATA;
#1 = EDGE_LOOP ( 'NONE', ( #721, #516, #748, #390, #789, #301, #679, #600 ) ) ;
#2 = EDGE_LOOP ( 'NONE', ( #202, #615, #703, #590 ) ) ;
#3 = EDGE_CURVE ( 'NONE', #205, #778, #538, .T. ) ;
#4 = CARTESIAN_POINT ( 'NONE',  ( 1.500000000000000000, 0.0000000000000000000, -0.6999999999999999556 ) ) ;
#5 = DIRECTION ( 'NONE',  ( 1.084202172485504557E-16, -1.000000000000000000, 0.0000000000000000000 ) ) ;
#6 = DIRECTION ( 'NONE',  ( 1.000000000000000000, 0.0000000000000000000, 0.0000000000000000000 ) ) ;
#7 = PRODUCT_DEFINITION ( 'UNKNOWN', '', #346, #803 ) ;
#8 = EDGE_CURVE ( 'NONE', #517, #582, #12, .T. ) ;
#9 = PLANE ( 'NONE',  #487 ) ;
#10 = DIRECTION ( 'NONE',  ( 0.8479983040050880216, 0.0000000000000000000, 0.5299989400031799303 ) ) ;
#11 = EDGE_LOOP ( 'NONE', ( #318, #666, #783, #852 ) ) ;
#12 = LINE ( 'NONE', #118, #330 ) ;
#13 = ORIENTED_EDGE ( 'NONE', *, *, #73, .T. ) ;
#14 = CARTESIAN_POINT ( 'NONE',  ( -0.4500000000000000111, 1.100000000000000089, 1.949999999999999956 ) ) ;
#15 = DIRECTION ( 'NONE',  ( 0.0000000000000000000, 0.0000000000000000000, 1.000000000000000000 ) ) ;
#16 = LINE ( 'NONE', #755, #773 ) ;
#17 = EDGE_CURVE ( 'NONE', #94, #544, #150, .T. ) ;
#18 = APPLICATION_PROTOCOL_DEFINITION ( 'international standard', 'config_control_design', 1994, #88 ) ;
#19 = EDGE_CURVE ( 'NONE', #859, #140, #665, .T. ) ;
#20 = ORIENTED_EDGE ( 'NONE', *, *, #314, .T. ) ;
#21 = ORIENTED_EDGE ( 'NONE', *, *, #298, .F. ) ;
#22 = VECTOR ( 'NONE', #877, 1000.000000000000000 ) ;
#23 = UNCERTAINTY_MEASURE_WITH_UNIT (LENGTH_MEASURE( 1.000000000000000082E-05 ), #224, 'distance_accuracy_value', 'NONE');
#24 = DIRECTION ( 'NONE',  ( 0.8479983040050877996, 0.0000000000000000000, -0.5299989400031801523 ) ) ;
#25 = DIRECTION ( 'NONE',  ( -0.0000000000000000000, -1.000000000000000000, -0.0000000000000000000 ) ) ;
#26 = ADVANCED_FACE ( 'NONE', ( #505 ), #463, .T. ) ;
#27 = ORIENTED_EDGE ( 'NONE', *, *, #483, .F. ) ;
#28 = ORIENTED_EDGE ( 'NONE', *, *, #8, .F. ) ;
#29 = EDGE_CURVE ( 'NONE', #129, #844, #479, .T. ) ;
#30 = ORIENTED_EDGE ( 'NONE', *, *, #867, .T. ) ;
#31 = LINE ( 'NONE', #476, #496 ) ;
#32 = DIRECTION ( 'NONE',  ( 0.0000000000000000000, 1.000000000000000000, 0.0000000000000000000 ) ) ;
#33 = CARTESIAN_POINT ( 'NONE',  ( -1.500000000000000000, 1.199999999999999956, -1.249999999999999778 ) ) ;
#34 = VECTOR ( 'NONE', #266, 1000.000000000000000 ) ;
#35 = VECTOR ( 'NONE', #59, 1000.000000000000000 ) ;
#36 = DIRECTION ( 'NONE',  ( 0.5299989400031802633, -0.0000000000000000000, 0.8479983040050879106 ) ) ;
#37 = CARTESIAN_POINT ( 'NONE',  ( 1.500000000000000000, 0.0000000000000000000, -1.249999999999999778 ) ) ;
#38 = VERTEX_POINT ( 'NONE', #717 ) ;
#39 = DIRECTION ( 'NONE',  ( -1.000000000000000000, 0.0000000000000000000, 0.0000000000000000000 ) ) ;
#40 = EDGE_LOOP ( 'NONE', ( #561, #67, #91, #442 ) ) ;
#41 = FACE_OUTER_BOUND ( 'NONE', #698, .T. ) ;
#42 = CARTESIAN_POINT ( 'NONE',  ( -1.500000000000000000, 1.199999999999999956, 1.250000000000000222 ) ) ;
#43 = ORIENTED_EDGE ( 'NONE', *, *, #454, .F. ) ;
#44 = CARTESIAN_POINT ( 'NONE',  ( 1.500000000000000000, 0.0000000000000000000, 1.250000000000000222 ) ) ;
#45 = LOCAL_TIME ( 11, 19, 9.000000000000000000, #507 ) ;
#46 = DIRECTION ( 'NONE',  ( 0.0000000000000000000, -1.000000000000000000, 0.0000000000000000000 ) ) ;
#47 = LINE ( 'NONE', #336, #450 ) ;
#48 = CARTESIAN_POINT ( 'NONE',  ( -1.999999999999999556, 0.2500000000000000000, -0.6999999999999999556 ) ) ;
#49 = CARTESIAN_POINT ( 'NONE',  ( 0.0000000000000000000, 0.6000000000000000888, 1.949999999999999956 ) ) ;
#50 = CARTESIAN_POINT ( 'NONE',  ( 0.0000000000000000000, 0.2500000000000000000, 0.0000000000000000000 ) ) ;
#51 = EDGE_CURVE ( 'NONE', #205, #471, #654, .T. ) ;
#52 = CARTESIAN_POINT ( 'NONE',  ( -0.4500000000000000111, 1.100000000000000089, 1.949999999999999956 ) ) ;
#53 = VERTEX_POINT ( 'NONE', #581 ) ;
#54 = FACE_OUTER_BOUND ( 'NONE', #167, .T. ) ;
#55 = AXIS2_PLACEMENT_3D ( 'NONE', #674, #541, #814 ) ;
#56 = PLANE ( 'NONE',  #428 ) ;
#57 = LINE ( 'NONE', #486, #694 ) ;
#58 = EDGE_CURVE ( 'NONE', #68, #478, #515, .T. ) ;
#59 = DIRECTION ( 'NONE',  ( 1.000000000000000000, 0.0000000000000000000, 0.0000000000000000000 ) ) ;
#60 = VERTEX_POINT ( 'NONE', #451 ) ;
#61 = ADVANCED_FACE ( 'NONE', ( #54 ), #132, .T. ) ;
#62 = VECTOR ( 'NONE', #392, 1000.000000000000000 ) ;
#63 = LINE ( 'NONE', #209, #786 ) ;
#64 = DIRECTION ( 'NONE',  ( 0.0000000000000000000, -1.000000000000000000, 0.0000000000000000000 ) ) ;
#65 = ORIENTED_EDGE ( 'NONE', *, *, #411, .F. ) ;
#66 = ADVANCED_FACE ( 'NONE', ( #622 ), #194, .T. ) ;
#67 = ORIENTED_EDGE ( 'NONE', *, *, #510, .T. ) ;
#68 = VERTEX_POINT ( 'NONE', #137 ) ;
#69 = EDGE_CURVE ( 'NONE', #750, #205, #281, .T. ) ;
#70 = LOCAL_TIME ( 11, 19, 9.000000000000000000, #761 ) ;
#71 = FACE_OUTER_BOUND ( 'NONE', #387, .T. ) ;
#72 = CARTESIAN_POINT ( 'NONE',  ( 0.0000000000000000000, -0.5000000000000000000, 0.0000000000000000000 ) ) ;
#73 = EDGE_CURVE ( 'NONE', #140, #859, #881, .T. ) ;
#74 = DIRECTION ( 'NONE',  ( 0.0000000000000000000, 0.7071067811865481278, 0.7071067811865470176 ) ) ;
#75 =( NAMED_UNIT ( * ) PLANE_ANGLE_UNIT ( ) SI_UNIT ( $, .RADIAN. ) );
#76 = ORIENTED_EDGE ( 'NONE', *, *, #619, .T. ) ;
#77 = ORIENTED_EDGE ( 'NONE', *, *, #647, .F. ) ;
#78 = CARTESIAN_POINT ( 'NONE',  ( 0.4500000000000001221, 0.6000000000000000888, 1.949999999999999956 ) ) ;
#79 = VECTOR ( 'NONE', #82, 1000.000000000000000 ) ;
#80 = ORIENTED_EDGE ( 'NONE', *, *, #335, .F. ) ;
#81 = FACE_OUTER_BOUND ( 'NONE', #652, .T. ) ;
#82 = DIRECTION ( 'NONE',  ( -3.097720492815727166E-16, -0.0000000000000000000, 1.000000000000000000 ) ) ;
#83 = EDGE_CURVE ( 'NONE', #858, #273, #262, .T. ) ;
#84 = LINE ( 'NONE', #475, #587 ) ;
#85 = CARTESIAN_POINT ( 'NONE',  ( -1.999999999999999556, 0.2500000000000000000, 0.6999999999999999556 ) ) ;
#86 = CARTESIAN_POINT ( 'NONE',  ( 0.0000000000000000000, 0.6000000000000000888, 1.949999999999999956 ) ) ;
#87 = AXIS2_PLACEMENT_3D ( 'NONE', #729, #866, #660 ) ;
#88 = APPLICATION_CONTEXT ( 'configuration controlled 3d designs of mechanical parts and assemblies' ) ;
#89 = ORIENTED_EDGE ( 'NONE', *, *, #573, .F. ) ;
#90 = VERTEX_POINT ( 'NONE', #254 ) ;
#91 = ORIENTED_EDGE ( 'NONE', *, *, #754, .T. ) ;
#92 = CARTESIAN_POINT ( 'NONE',  ( 0.0000000000000000000, -0.5000000000000000000, 0.0000000000000000000 ) ) ;
#93 = EDGE_LOOP ( 'NONE', ( #307, #405 ) ) ;
#94 = VERTEX_POINT ( 'NONE', #398 ) ;
#95 = CC_DESIGN_PERSON_AND_ORGANIZATION_ASSIGNMENT ( #120, #564, ( #346 ) ) ;
#96 = VECTOR ( 'NONE', #547, 1000.000000000000000 ) ;
#97 = CARTESIAN_POINT ( 'NONE',  ( -1.999999999999999556, -0.0000000000000000000, -0.6999999999999999556 ) ) ;
#98 = ADVANCED_FACE ( 'NONE', ( #781 ), #56, .T. ) ;
#99 = DIRECTION ( 'NONE',  ( -1.000000000000000000, -0.0000000000000000000, -0.0000000000000000000 ) ) ;
#100 = EDGE_CURVE ( 'NONE', #747, #750, #760, .T. ) ;
#101 = ORIENTED_EDGE ( 'NONE', *, *, #172, .F. ) ;
#102 = EDGE_LOOP ( 'NONE', ( #28, #643, #343, #677 ) ) ;
#103 = ORIENTED_EDGE ( 'NONE', *, *, #765, .F. ) ;
#104 = VECTOR ( 'NONE', #836, 1000.000000000000000 ) ;
#105 = CARTESIAN_POINT ( 'NONE',  ( 1.500000000000000000, 0.2500000000000000000, 0.7000000000000000666 ) ) ;
#106 = CARTESIAN_POINT ( 'NONE',  ( -0.8500000000000000888, 1.100000000000000089, 1.699999999999999956 ) ) ;
#107 = LINE ( 'NONE', #327, #508 ) ;
#108 = CC_DESIGN_PERSON_AND_ORGANIZATION_ASSIGNMENT ( #699, #641, ( #173 ) ) ;
#109 = LINE ( 'NONE', #535, #243 ) ;
#110 = CARTESIAN_POINT ( 'NONE',  ( 0.0000000000000000000, -0.3999999999999993561, 0.0000000000000000000 ) ) ;
#111 = DIRECTION ( 'NONE',  ( 1.000000000000000000, 0.0000000000000000000, 0.0000000000000000000 ) ) ;
#112 = CARTESIAN_POINT ( 'NONE',  ( 0.4500000000000000666, -0.3716990566028303689, 1.949999999999999956 ) ) ;
#113 = CARTESIAN_POINT ( 'NONE',  ( -0.4500000000000000111, 1.100000000000000089, 1.949999999999999956 ) ) ;
#114 = VERTEX_POINT ( 'NONE', #801 ) ;
#115 = PLANE ( 'NONE',  #370 ) ;
#116 = ORIENTED_EDGE ( 'NONE', *, *, #878, .F. ) ;
#117 = VECTOR ( 'NONE', #122, 1000.000000000000000 ) ;
#118 = CARTESIAN_POINT ( 'NONE',  ( -0.4500000000000000111, 1.100000000000000089, 1.250000000027284841 ) ) ;
#119 = ORIENTED_EDGE ( 'NONE', *, *, #770, .T. ) ;
#120 = PERSON_AND_ORGANIZATION ( #788, #884 ) ;
#121 = FACE_OUTER_BOUND ( 'NONE', #2, .T. ) ;
#122 = DIRECTION ( 'NONE',  ( -0.0000000000000000000, -0.0000000000000000000, -1.000000000000000000 ) ) ;
#123 = EDGE_CURVE ( 'NONE', #176, #818, #260, .T. ) ;
#124 = PLANE ( 'NONE',  #578 ) ;
#125 = DIRECTION ( 'NONE',  ( 0.0000000000000000000, 0.0000000000000000000, -1.000000000000000000 ) ) ;
#126 = ORIENTED_EDGE ( 'NONE', *, *, #8, .T. ) ;
#127 = AXIS2_PLACEMENT_3D ( 'NONE', #92, #312, #177 ) ;
#128 = DIRECTION ( 'NONE',  ( 0.0000000000000000000, -1.000000000000000000, 0.0000000000000000000 ) ) ;
#129 = VERTEX_POINT ( 'NONE', #44 ) ;
#130 = CONICAL_SURFACE ( 'NONE', #169, 0.2249999999999995060, 0.7853981633974473908 ) ;
#131 = EDGE_LOOP ( 'NONE', ( #536, #872, #831, #344 ) ) ;
#132 = PLANE ( 'NONE',  #182 ) ;
#133 = CARTESIAN_POINT ( 'NONE',  ( -1.500000000000000000, 1.199999999999999956, -1.249999999999999778 ) ) ;
#134 = CIRCLE ( 'NONE', #291, 0.4500000000000001221 ) ;
#135 = DIRECTION ( 'NONE',  ( 1.000000000000000000, 0.0000000000000000000, 0.0000000000000000000 ) ) ;
#136 = VECTOR ( 'NONE', #439, 1000.000000000000000 ) ;
#137 = CARTESIAN_POINT ( 'NONE',  ( 3.367778697655217560E-17, -0.5000000000000000000, -0.2249999999999995060 ) ) ;
#138 = DIRECTION ( 'NONE',  ( -1.000000000000000000, 0.0000000000000000000, -0.0000000000000000000 ) ) ;
#139 = PLANE ( 'NONE',  #246 ) ;
#140 = VERTEX_POINT ( 'NONE', #469 ) ;
#141 = ADVANCED_FACE ( 'NONE', ( #446 ), #130, .T. ) ;
#142 = EDGE_LOOP ( 'NONE', ( #232, #767, #174, #493 ) ) ;
#143 = AXIS2_PLACEMENT_3D ( 'NONE', #328, #395, #796 ) ;
#144 = ORIENTED_EDGE ( 'NONE', *, *, #58, .T. ) ;
#145 = LOCAL_TIME ( 11, 19, 9.000000000000000000, #321 ) ;
#146 = VECTOR ( 'NONE', #586, 1000.000000000000000 ) ;
#147 = DIRECTION ( 'NONE',  ( 1.000000000000000000, 0.0000000000000000000, 0.0000000000000000000 ) ) ;
#148 = ADVANCED_FACE ( 'NONE', ( #302 ), #342, .T. ) ;
#149 = EDGE_LOOP ( 'NONE', ( #157, #225 ) ) ;
#150 = LINE ( 'NONE', #511, #365 ) ;
#151 = ORIENTED_EDGE ( 'NONE', *, *, #851, .T. ) ;
#152 = CARTESIAN_POINT ( 'NONE',  ( 1.500000000000000000, 1.199999999999999956, 1.250000000000000222 ) ) ;
#153 = DATE_AND_TIME ( #846, #145 ) ;
#154 = DIRECTION ( 'NONE',  ( 0.0000000000000000000, -0.0000000000000000000, -1.000000000000000000 ) ) ;
#155 = CC_DESIGN_APPROVAL ( #746, ( #346 ) ) ;
#156 = ORIENTED_EDGE ( 'NONE', *, *, #172, .T. ) ;
#157 = ORIENTED_EDGE ( 'NONE', *, *, #314, .F. ) ;
#158 = VERTEX_POINT ( 'NONE', #626 ) ;
#159 = CARTESIAN_POINT ( 'NONE',  ( -0.8500000000000000888, 0.09999999999999993616, 1.699999999999999956 ) ) ;
#160 = LOCAL_TIME ( 11, 19, 9.000000000000000000, #347 ) ;
#161 = DIRECTION ( 'NONE',  ( 0.0000000000000000000, 0.0000000000000000000, 1.000000000000000000 ) ) ;
#162 = VECTOR ( 'NONE', #598, 1000.000000000000000 ) ;
#163 = ADVANCED_FACE ( 'NONE', ( #537 ), #9, .T. ) ;
#164 = CARTESIAN_POINT ( 'NONE',  ( -1.999999999999999556, 0.2500000000000000000, 0.6999999999999999556 ) ) ;
#165 = APPROVAL_STATUS ( 'not_yet_approved' ) ;
#166 = EDGE_CURVE ( 'NONE', #758, #497, #601, .T. ) ;
#167 = EDGE_LOOP ( 'NONE', ( #30, #144 ) ) ;
#168 = LINE ( 'NONE', #453, #882 ) ;
#169 = AXIS2_PLACEMENT_3D ( 'NONE', #875, #555, #756 ) ;
#170 = VECTOR ( 'NONE', #355, 1000.000000000000000 ) ;
#171 = PLANE ( 'NONE',  #533 ) ;
#172 = EDGE_CURVE ( 'NONE', #68, #859, #305, .T. ) ;
#173 = PRODUCT ( 'Reset Switch-b3u_B3U-3000P(M)-B', 'Reset Switch-b3u_B3U-3000P(M)-B', '', ( #230 ) ) ;
#174 = ORIENTED_EDGE ( 'NONE', *, *, #335, .T. ) ;
#175 = DIRECTION ( 'NONE',  ( 0.8479983040050877996, 0.0000000000000000000, -0.5299989400031801523 ) ) ;
#176 = VERTEX_POINT ( 'NONE', #559 ) ;
#177 = DIRECTION ( 'NONE',  ( 0.0000000000000000000, 0.0000000000000000000, 1.000000000000000000 ) ) ;
#178 = ORIENTED_EDGE ( 'NONE', *, *, #784, .F. ) ;
#179 = ORIENTED_EDGE ( 'NONE', *, *, #714, .F. ) ;
#180 = CARTESIAN_POINT ( 'NONE',  ( -1.500000000000000000, 0.0000000000000000000, -1.249999999999999778 ) ) ;
#181 = VECTOR ( 'NONE', #186, 1000.000000000000000 ) ;
#182 = AXIS2_PLACEMENT_3D ( 'NONE', #72, #199, #683 ) ;
#183 = DIRECTION ( 'NONE',  ( -0.0000000000000000000, 0.0000000000000000000, 1.000000000000000000 ) ) ;
#184 = CARTESIAN_POINT ( 'NONE',  ( 0.8499999999999998668, 1.099999999999999867, -500000.0000000000582 ) ) ;
#185 = CC_DESIGN_PERSON_AND_ORGANIZATION_ASSIGNMENT ( #737, #639, ( #346 ) ) ;
#186 = DIRECTION ( 'NONE',  ( 0.0000000000000000000, -0.0000000000000000000, -1.000000000000000000 ) ) ;
#187 = PLANE ( 'NONE',  #461 ) ;
#188 = ORIENTED_EDGE ( 'NONE', *, *, #591, .F. ) ;
#189 = LINE ( 'NONE', #445, #528 ) ;
#190 = DIRECTION ( 'NONE',  ( 1.000000000000000000, 0.0000000000000000000, 0.0000000000000000000 ) ) ;
#191 = ORIENTED_EDGE ( 'NONE', *, *, #647, .T. ) ;
#192 = CARTESIAN_POINT ( 'NONE',  ( 0.8499999999999998668, 1.099999999999999867, -500000.0000000000582 ) ) ;
#193 = CALENDAR_DATE ( 2018, 14, 8 ) ;
#194 = PLANE ( 'NONE',  #444 ) ;
#195 = CARTESIAN_POINT ( 'NONE',  ( -0.8499999999999999778, 0.09999999999999993616, -500000.0000000000582 ) ) ;
#196 = CARTESIAN_POINT ( 'NONE',  ( 2.000000000000000444, 0.2500000000000000000, 0.6999999999999999556 ) ) ;
#197 = CARTESIAN_POINT ( 'NONE',  ( -1.500000000000000000, 1.199999999999999956, 0.7000000000000000666 ) ) ;
#198 = PRODUCT_RELATED_PRODUCT_CATEGORY ( 'detail', '', ( #173 ) ) ;
#199 = DIRECTION ( 'NONE',  ( 0.0000000000000000000, -1.000000000000000000, 0.0000000000000000000 ) ) ;
#200 = ORIENTED_EDGE ( 'NONE', *, *, #379, .T. ) ;
#201 = AXIS2_PLACEMENT_3D ( 'NONE', #713, #716, #384 ) ;
#202 = ORIENTED_EDGE ( 'NONE', *, *, #253, .F. ) ;
#203 = VECTOR ( 'NONE', #865, 1000.000000000000000 ) ;
#204 = LINE ( 'NONE', #106, #352 ) ;
#205 = VERTEX_POINT ( 'NONE', #78 ) ;
#206 = CARTESIAN_POINT ( 'NONE',  ( 0.0000000000000000000, -0.5000000000000000000, 0.0000000000000000000 ) ) ;
#207 = LINE ( 'NONE', #325, #412 ) ;
#208 = CC_DESIGN_APPROVAL ( #810, ( #550 ) ) ;
#209 = CARTESIAN_POINT ( 'NONE',  ( 2.000000000000000444, 0.2500000000000000000, 0.6999999999999999556 ) ) ;
#210 = ORIENTED_EDGE ( 'NONE', *, *, #438, .F. ) ;
#211 = ADVANCED_FACE ( 'NONE', ( #605 ), #491, .T. ) ;
#212 = EDGE_CURVE ( 'NONE', #582, #552, #57, .T. ) ;
#213 = APPROVAL_PERSON_ORGANIZATION ( #519, #565, #766 ) ;
#214 = AXIS2_PLACEMENT_3D ( 'NONE', #763, #221, #421 ) ;
#215 = DIRECTION ( 'NONE',  ( 0.0000000000000000000, 0.0000000000000000000, 1.000000000000000000 ) ) ;
#216 = CARTESIAN_POINT ( 'NONE',  ( 2.755455298081538307E-17, -0.5000000000000000000, -0.2249999999999995060 ) ) ;
#217 = PLANE ( 'NONE',  #775 ) ;
#218 = ORIENTED_EDGE ( 'NONE', *, *, #837, .F. ) ;
#219 = ORIENTED_EDGE ( 'NONE', *, *, #837, .T. ) ;
#220 = VERTEX_POINT ( 'NONE', #828 ) ;
#221 = DIRECTION ( 'NONE',  ( -0.0000000000000000000, 0.0000000000000000000, 1.000000000000000000 ) ) ;
#222 = EDGE_CURVE ( 'NONE', #362, #129, #685, .T. ) ;
#223 = APPROVAL_PERSON_ORGANIZATION ( #751, #810, #300 ) ;
#224 =( LENGTH_UNIT ( ) NAMED_UNIT ( * ) SI_UNIT ( .MILLI., .METRE. ) );
#225 = ORIENTED_EDGE ( 'NONE', *, *, #279, .F. ) ;
#226 = FACE_OUTER_BOUND ( 'NONE', #416, .T. ) ;
#227 = CYLINDRICAL_SURFACE ( 'NONE', #127, 0.3250000000000000111 ) ;
#228 = DATE_TIME_ROLE ( 'creation_date' ) ;
#229 = AXIS2_PLACEMENT_3D ( 'NONE', #876, #805, #530 ) ;
#230 = MECHANICAL_CONTEXT ( 'NONE', #566, 'mechanical' ) ;
#231 = ORIENTED_EDGE ( 'NONE', *, *, #589, .F. ) ;
#232 = ORIENTED_EDGE ( 'NONE', *, *, #851, .F. ) ;
#233 = FACE_BOUND ( 'NONE', #149, .T. ) ;
#234 = PERSON_AND_ORGANIZATION_ROLE ( 'classification_officer' ) ;
#235 = CARTESIAN_POINT ( 'NONE',  ( -0.8499999999999999778, 0.09999999999999982514, 1.250000000000000222 ) ) ;
#236 = LINE ( 'NONE', #744, #96 ) ;
#237 = EDGE_CURVE ( 'NONE', #220, #818, #808, .T. ) ;
#238 = ORIENTED_EDGE ( 'NONE', *, *, #591, .T. ) ;
#239 = CARTESIAN_POINT ( 'NONE',  ( -1.999999999999999556, -0.0000000000000000000, -0.6999999999999999556 ) ) ;
#240 = ORIENTED_EDGE ( 'NONE', *, *, #83, .T. ) ;
#241 = DIRECTION ( 'NONE',  ( -0.0000000000000000000, -0.0000000000000000000, -1.000000000000000000 ) ) ;
#242 = CARTESIAN_POINT ( 'NONE',  ( -0.8500000000000000888, 0.09999999999999993616, 1.699999999999999956 ) ) ;
#243 = VECTOR ( 'NONE', #730, 1000.000000000000000 ) ;
#244 = CARTESIAN_POINT ( 'NONE',  ( -0.4499999999999999556, 0.6000000000000000888, 1.949999999999999956 ) ) ;
#245 = CARTESIAN_POINT ( 'NONE',  ( 1.500000000000000000, 0.2500000000000000000, -0.6999999999999999556 ) ) ;
#246 = AXIS2_PLACEMENT_3D ( 'NONE', #268, #358, #742 ) ;
#247 = CARTESIAN_POINT ( 'NONE',  ( -0.8500000000000000888, 1.099999999999999867, -500000.0000000000582 ) ) ;
#248 = ORIENTED_EDGE ( 'NONE', *, *, #267, .T. ) ;
#249 = VERTEX_POINT ( 'NONE', #886 ) ;
#250 = DIRECTION ( 'NONE',  ( 1.000000000000000000, 0.0000000000000000000, 0.0000000000000000000 ) ) ;
#251 = CARTESIAN_POINT ( 'NONE',  ( 0.4500000000000001221, 0.09999999999999993616, 1.949999999999999956 ) ) ;
#252 = VECTOR ( 'NONE', #701, 1000.000000000000000 ) ;
#253 = EDGE_CURVE ( 'NONE', #582, #351, #460, .T. ) ;
#254 = CARTESIAN_POINT ( 'NONE',  ( -1.500000000000000000, 0.0000000000000000000, -0.6999999999999999556 ) ) ;
#255 = CARTESIAN_POINT ( 'NONE',  ( 0.4500000000000000666, 1.100000000000000089, 1.949999999999999956 ) ) ;
#256 = CC_DESIGN_APPROVAL ( #565, ( #7 ) ) ;
#257 = DIRECTION ( 'NONE',  ( 0.0000000000000000000, 1.000000000000000000, 0.0000000000000000000 ) ) ;
#258 = AXIS2_PLACEMENT_3D ( 'NONE', #283, #840, #15 ) ;
#259 = ORIENTED_EDGE ( 'NONE', *, *, #394, .T. ) ;
#260 = LINE ( 'NONE', #329, #830 ) ;
#261 = ORIENTED_EDGE ( 'NONE', *, *, #619, .F. ) ;
#262 = LINE ( 'NONE', #534, #732 ) ;
#263 = CARTESIAN_POINT ( 'NONE',  ( -1.999999999999999556, 0.2500000000000000000, -0.6999999999999999556 ) ) ;
#264 = VECTOR ( 'NONE', #689, 1000.000000000000000 ) ;
#265 = LINE ( 'NONE', #334, #181 ) ;
#266 = DIRECTION ( 'NONE',  ( 0.0000000000000000000, -1.000000000000000000, 0.0000000000000000000 ) ) ;
#267 = EDGE_CURVE ( 'NONE', #552, #841, #31, .T. ) ;
#268 = CARTESIAN_POINT ( 'NONE',  ( -1.500000000000000000, 1.199999999999999956, 1.250000000000000222 ) ) ;
#269 = ADVANCED_FACE ( 'NONE', ( #549 ), #624, .T. ) ;
#270 = EDGE_CURVE ( 'NONE', #750, #249, #332, .T. ) ;
#271 = EDGE_LOOP ( 'NONE', ( #179, #367, #119, #20 ) ) ;
#272 = ORIENTED_EDGE ( 'NONE', *, *, #504, .F. ) ;
#273 = VERTEX_POINT ( 'NONE', #105 ) ;
#274 = ORIENTED_EDGE ( 'NONE', *, *, #664, .F. ) ;
#275 = LINE ( 'NONE', #845, #572 ) ;
#276 = DIRECTION ( 'NONE',  ( -1.000000000000000000, -0.0000000000000000000, -0.0000000000000000000 ) ) ;
#277 = CARTESIAN_POINT ( 'NONE',  ( 0.0000000000000000000, 1.199999999999999956, 0.0000000000000000000 ) ) ;
#278 = VERTEX_POINT ( 'NONE', #632 ) ;
#279 = EDGE_CURVE ( 'NONE', #791, #887, #792, .T. ) ;
#280 = ORIENTED_EDGE ( 'NONE', *, *, #604, .F. ) ;
#281 = LINE ( 'NONE', #662, #402 ) ;
#282 = DIRECTION ( 'NONE',  ( 1.000000000000000000, 0.0000000000000000000, 0.0000000000000000000 ) ) ;
#283 = CARTESIAN_POINT ( 'NONE',  ( -1.999999999999999556, 0.2500000000000000000, 0.6999999999999999556 ) ) ;
#284 = VECTOR ( 'NONE', #663, 1000.000000000000000 ) ;
#285 = DIRECTION ( 'NONE',  ( 0.0000000000000000000, 0.0000000000000000000, 1.000000000000000000 ) ) ;
#286 = LINE ( 'NONE', #667, #885 ) ;
#287 = CARTESIAN_POINT ( 'NONE',  ( 3.980102097228897738E-17, 0.0000000000000000000, -0.3250000000000000111 ) ) ;
#288 = AXIS2_PLACEMENT_3D ( 'NONE', #247, #794, #457 ) ;
#289 = CARTESIAN_POINT ( 'NONE',  ( 3.980102097228897738E-17, -0.3999999999999993561, -0.3250000000000000111 ) ) ;
#290 = VERTEX_POINT ( 'NONE', #592 ) ;
#291 = AXIS2_PLACEMENT_3D ( 'NONE', #86, #154, #282 ) ;
#292 = EDGE_LOOP ( 'NONE', ( #431, #642, #819, #548, #514, #594, #21, #389, #341, #76, #456, #888 ) ) ;
#293 = ORIENTED_EDGE ( 'NONE', *, *, #556, .F. ) ;
#294 = CARTESIAN_POINT ( 'NONE',  ( 1.500000000000000000, 1.199999999999999956, -1.249999999999999778 ) ) ;
#295 = LINE ( 'NONE', #180, #310 ) ;
#296 = DIRECTION ( 'NONE',  ( 0.0000000000000000000, -1.000000000000000000, 0.0000000000000000000 ) ) ;
#297 =( NAMED_UNIT ( * ) SI_UNIT ( $, .STERADIAN. ) SOLID_ANGLE_UNIT ( ) );
#298 = EDGE_CURVE ( 'NONE', #848, #176, #735, .T. ) ;
#299 = DIRECTION ( 'NONE',  ( -3.097720492815727166E-16, -0.0000000000000000000, 1.000000000000000000 ) ) ;
#300 = APPROVAL_ROLE ( '' ) ;
#301 = ORIENTED_EDGE ( 'NONE', *, *, #364, .F. ) ;
#302 = FACE_OUTER_BOUND ( 'NONE', #567, .T. ) ;
#303 = APPROVAL_STATUS ( 'not_yet_approved' ) ;
#304 =( GEOMETRIC_REPRESENTATION_CONTEXT ( 3 ) GLOBAL_UNCERTAINTY_ASSIGNED_CONTEXT ( ( #23 ) ) GLOBAL_UNIT_ASSIGNED_CONTEXT ( ( #224, #75, #297 ) ) REPRESENTATION_CONTEXT ( 'NONE', 'WORKASPACE' ) );
#305 = LINE ( 'NONE', #216, #104 ) ;
#306 = EDGE_LOOP ( 'NONE', ( #210, #261, #736, #240 ) ) ;
#307 = ORIENTED_EDGE ( 'NONE', *, *, #51, .F. ) ;
#308 = CONICAL_SURFACE ( 'NONE', #883, 0.2249999999999995060, 0.7853981633974473908 ) ;
#309 = ADVANCED_FACE ( 'NONE', ( #568 ), #115, .T. ) ;
#310 = VECTOR ( 'NONE', #315, 1000.000000000000000 ) ;
#311 = DIRECTION ( 'NONE',  ( -0.0000000000000000000, -0.0000000000000000000, -1.000000000000000000 ) ) ;
#312 = DIRECTION ( 'NONE',  ( -0.0000000000000000000, 1.000000000000000000, -0.0000000000000000000 ) ) ;
#313 = CARTESIAN_POINT ( 'NONE',  ( 2.000000000000000888, 0.2500000000000000000, -0.6999999999999999556 ) ) ;
#314 = EDGE_CURVE ( 'NONE', #887, #791, #616, .T. ) ;
#315 = DIRECTION ( 'NONE',  ( 0.0000000000000000000, 0.0000000000000000000, 1.000000000000000000 ) ) ;
#316 = DIRECTION ( 'NONE',  ( 0.0000000000000000000, -1.000000000000000000, 0.0000000000000000000 ) ) ;
#317 = ORIENTED_EDGE ( 'NONE', *, *, #529, .F. ) ;
#318 = ORIENTED_EDGE ( 'NONE', *, *, #123, .T. ) ;
#319 = CARTESIAN_POINT ( 'NONE',  ( 0.0000000000000000000, -0.5000000000000000000, 0.2249999999999995060 ) ) ;
#320 = AXIS2_PLACEMENT_3D ( 'NONE', #655, #579, #659 ) ;
#321 = COORDINATED_UNIVERSAL_TIME_OFFSET ( 6, 0, .AHEAD. ) ;
#322 = LINE ( 'NONE', #452, #146 ) ;
#323 = CARTESIAN_POINT ( 'NONE',  ( -1.999999999999999556, 0.0000000000000000000, 0.6999999999999999556 ) ) ;
#324 = CARTESIAN_POINT ( 'NONE',  ( 0.0000000000000000000, -0.5000000000000000000, 0.3250000000000000111 ) ) ;
#325 = CARTESIAN_POINT ( 'NONE',  ( -1.999999999999999556, 0.2500000000000000000, 0.6999999999999999556 ) ) ;
#326 = DIRECTION ( 'NONE',  ( 0.0000000000000000000, -0.0000000000000000000, 1.000000000000000000 ) ) ;
#327 = CARTESIAN_POINT ( 'NONE',  ( 1.500000000000000000, 1.199999999999999956, -1.249999999999999778 ) ) ;
#328 = CARTESIAN_POINT ( 'NONE',  ( 1.500000000000000000, 1.199999999999999956, -1.249999999999999778 ) ) ;
#329 = CARTESIAN_POINT ( 'NONE',  ( -1.500000000000000000, 0.0000000000000000000, -1.249999999999999778 ) ) ;
#330 = VECTOR ( 'NONE', #39, 1000.000000000000000 ) ;
#331 = DIRECTION ( 'NONE',  ( 1.000000000000000000, 1.084202172485504557E-16, -0.0000000000000000000 ) ) ;
#332 = LINE ( 'NONE', #443, #696 ) ;
#333 = ORIENTED_EDGE ( 'NONE', *, *, #253, .T. ) ;
#334 = CARTESIAN_POINT ( 'NONE',  ( -1.999999999999999556, 0.2500000000000000000, 0.6999999999999999556 ) ) ;
#335 = EDGE_CURVE ( 'NONE', #517, #38, #391, .T. ) ;
#336 = CARTESIAN_POINT ( 'NONE',  ( -1.999999999999999556, 0.2500000000000000000, -0.6999999999999999556 ) ) ;
#337 = DIRECTION ( 'NONE',  ( 0.0000000000000000000, 1.000000000000000000, 0.0000000000000000000 ) ) ;
#338 = DIRECTION ( 'NONE',  ( -1.084202172485504557E-16, 1.000000000000000000, 0.0000000000000000000 ) ) ;
#339 = ADVANCED_FACE ( 'NONE', ( #233, #860 ), #646, .F. ) ;
#340 = DIRECTION ( 'NONE',  ( 0.0000000000000000000, -0.0000000000000000000, -1.000000000000000000 ) ) ;
#341 = ORIENTED_EDGE ( 'NONE', *, *, #166, .T. ) ;
#342 = CYLINDRICAL_SURFACE ( 'NONE', #611, 0.3250000000000000111 ) ;
#343 = ORIENTED_EDGE ( 'NONE', *, *, #267, .F. ) ;
#344 = ORIENTED_EDGE ( 'NONE', *, *, #100, .T. ) ;
#345 = ORIENTED_EDGE ( 'NONE', *, *, #824, .T. ) ;
#346 = PRODUCT_DEFINITION_FORMATION_WITH_SPECIFIED_SOURCE ( 'ANY', '', #173, .NOT_KNOWN. ) ;
#347 = COORDINATED_UNIVERSAL_TIME_OFFSET ( 6, 0, .AHEAD. ) ;
#348 = VECTOR ( 'NONE', #727, 1000.000000000000114 ) ;
#349 = ADVANCED_FACE ( 'NONE', ( #41 ), #651, .F. ) ;
#350 = EDGE_CURVE ( 'NONE', #278, #758, #723, .T. ) ;
#351 = VERTEX_POINT ( 'NONE', #707 ) ;
#352 = VECTOR ( 'NONE', #583, 1000.000000000000000 ) ;
#353 = ADVANCED_FACE ( 'NONE', ( #889 ), #380, .T. ) ;
#354 = DATE_AND_TIME ( #873, #70 ) ;
#355 = DIRECTION ( 'NONE',  ( 1.084202172485504434E-16, -1.000000000000000000, 0.0000000000000000000 ) ) ;
#356 = DATE_AND_TIME ( #863, #160 ) ;
#357 = CC_DESIGN_DATE_AND_TIME_ASSIGNMENT ( #596, #577, ( #550 ) ) ;
#358 = DIRECTION ( 'NONE',  ( 0.0000000000000000000, 0.0000000000000000000, -1.000000000000000000 ) ) ;
#359 = DIRECTION ( 'NONE',  ( -0.0000000000000000000, 1.000000000000000000, -0.0000000000000000000 ) ) ;
#360 = CARTESIAN_POINT ( 'NONE',  ( -1.500000000000000000, 0.2500000000000000000, 0.7000000000000000666 ) ) ;
#361 = DIRECTION ( 'NONE',  ( 0.0000000000000000000, 0.0000000000000000000, 1.000000000000000000 ) ) ;
#362 = VERTEX_POINT ( 'NONE', #857 ) ;
#363 = DIRECTION ( 'NONE',  ( 0.0000000000000000000, -1.000000000000000000, 0.0000000000000000000 ) ) ;
#364 = EDGE_CURVE ( 'NONE', #114, #544, #189, .T. ) ;
#365 = VECTOR ( 'NONE', #862, 1000.000000000000000 ) ;
#366 = CARTESIAN_POINT ( 'NONE',  ( -1.999999999999999556, 0.0000000000000000000, 0.6999999999999999556 ) ) ;
#367 = ORIENTED_EDGE ( 'NONE', *, *, #19, .T. ) ;
#368 = FACE_BOUND ( 'NONE', #102, .T. ) ;
#369 = VECTOR ( 'NONE', #690, 1000.000000000000000 ) ;
#370 = AXIS2_PLACEMENT_3D ( 'NONE', #518, #183, #777 ) ;
#371 = ORIENTED_EDGE ( 'NONE', *, *, #804, .F. ) ;
#372 = CARTESIAN_POINT ( 'NONE',  ( 0.0000000000000000000, 0.0000000000000000000, 1.949999999999999956 ) ) ;
#373 = PRODUCT_DEFINITION_SHAPE ( 'NONE', 'NONE',  #7 ) ;
#374 = ORIENTED_EDGE ( 'NONE', *, *, #438, .T. ) ;
#375 = ORIENTED_EDGE ( 'NONE', *, *, #222, .T. ) ;
#376 = CARTESIAN_POINT ( 'NONE',  ( 2.000000000000000444, 0.0000000000000000000, 0.6999999999999999556 ) ) ;
#377 = ORIENTED_EDGE ( 'NONE', *, *, #631, .F. ) ;
#378 = VECTOR ( 'NONE', #316, 1000.000000000000000 ) ;
#379 = EDGE_CURVE ( 'NONE', #351, #485, #204, .T. ) ;
#380 = PLANE ( 'NONE',  #776 ) ;
#381 = EDGE_LOOP ( 'NONE', ( #668, #425, #870, #238 ) ) ;
#382 = VECTOR ( 'NONE', #477, 1000.000000000000000 ) ;
#383 = LINE ( 'NONE', #432, #252 ) ;
#384 = DIRECTION ( 'NONE',  ( 0.0000000000000000000, -0.0000000000000000000, -1.000000000000000000 ) ) ;
#385 = DIRECTION ( 'NONE',  ( 0.0000000000000000000, 1.000000000000000000, 0.0000000000000000000 ) ) ;
#386 = CARTESIAN_POINT ( 'NONE',  ( -0.4499999999999999001, 0.09999999999999993616, 1.949999999999999956 ) ) ;
#387 = EDGE_LOOP ( 'NONE', ( #377, #542, #708, #103, #293, #375, #849, #374 ) ) ;
#388 = DIRECTION ( 'NONE',  ( -1.000000000000000000, 0.0000000000000000000, -0.0000000000000000000 ) ) ;
#389 = ORIENTED_EDGE ( 'NONE', *, *, #411, .T. ) ;
#390 = ORIENTED_EDGE ( 'NONE', *, *, #704, .T. ) ;
#391 = LINE ( 'NONE', #184, #749 ) ;
#392 = DIRECTION ( 'NONE',  ( -0.0000000000000000000, 1.000000000000000000, -0.0000000000000000000 ) ) ;
#393 = ORIENTED_EDGE ( 'NONE', *, *, #279, .T. ) ;
#394 = EDGE_CURVE ( 'NONE', #820, #158, #168, .T. ) ;
#395 = DIRECTION ( 'NONE',  ( -1.000000000000000000, 0.0000000000000000000, 0.0000000000000000000 ) ) ;
#396 = CALENDAR_DATE ( 2018, 14, 8 ) ;
#397 = DIRECTION ( 'NONE',  ( -1.000000000000000000, -0.0000000000000000000, -0.0000000000000000000 ) ) ;
#398 = CARTESIAN_POINT ( 'NONE',  ( -1.500000000000000000, 0.0000000000000000000, 0.6999999999999999556 ) ) ;
#399 = AXIS2_PLACEMENT_3D ( 'NONE', #49, #799, #726 ) ;
#400 = PLANE ( 'NONE',  #87 ) ;
#401 = ORIENTED_EDGE ( 'NONE', *, *, #861, .T. ) ;
#402 = VECTOR ( 'NONE', #607, 1000.000000000000000 ) ;
#403 = CARTESIAN_POINT ( 'NONE',  ( -1.999999999999999556, 0.2500000000000000000, -0.6999999999999999556 ) ) ;
#404 = ORIENTED_EDGE ( 'NONE', *, *, #589, .T. ) ;
#405 = ORIENTED_EDGE ( 'NONE', *, *, #817, .F. ) ;
#406 = LINE ( 'NONE', #239, #539 ) ;
#407 = EDGE_LOOP ( 'NONE', ( #188, #806, #80, #126, #333, #200 ) ) ;
#408 = ORIENTED_EDGE ( 'NONE', *, *, #855, .F. ) ;
#409 = DIRECTION ( 'NONE',  ( -0.0000000000000000000, 0.0000000000000000000, 1.000000000000000000 ) ) ;
#410 = VECTOR ( 'NONE', #340, 1000.000000000000000 ) ;
#411 = EDGE_CURVE ( 'NONE', #848, #758, #406, .T. ) ;
#412 = VECTOR ( 'NONE', #869, 1000.000000000000000 ) ;
#413 = ADVANCED_FACE ( 'NONE', ( #681 ), #171, .F. ) ;
#414 = VERTEX_POINT ( 'NONE', #242 ) ;
#415 = CARTESIAN_POINT ( 'NONE',  ( -1.500000000000000000, 1.199999999999999956, -1.249999999999999778 ) ) ;
#416 = EDGE_LOOP ( 'NONE', ( #27, #317, #408, #433 ) ) ;
#417 = VERTEX_POINT ( 'NONE', #245 ) ;
#418 = LINE ( 'NONE', #720, #823 ) ;
#419 = ADVANCED_FACE ( 'NONE', ( #500 ), #187, .T. ) ;
#420 = CARTESIAN_POINT ( 'NONE',  ( -1.500000000000000000, 1.199999999999999956, -1.249999999999999778 ) ) ;
#421 = DIRECTION ( 'NONE',  ( 1.000000000000000000, 0.0000000000000000000, 0.0000000000000000000 ) ) ;
#422 = EDGE_CURVE ( 'NONE', #820, #644, #207, .T. ) ;
#423 = CARTESIAN_POINT ( 'NONE',  ( 0.8499999999999999778, 0.09999999999999993616, 1.249999999913598003 ) ) ;
#424 = ORIENTED_EDGE ( 'NONE', *, *, #573, .T. ) ;
#425 = ORIENTED_EDGE ( 'NONE', *, *, #817, .T. ) ;
#426 = VECTOR ( 'NONE', #620, 1000.000000000000000 ) ;
#427 = LINE ( 'NONE', #692, #410 ) ;
#428 = AXIS2_PLACEMENT_3D ( 'NONE', #277, #337, #326 ) ;
#429 = DIRECTION ( 'NONE',  ( -1.084202172485504434E-16, 1.000000000000000000, -0.0000000000000000000 ) ) ;
#430 = DIRECTION ( 'NONE',  ( 1.000000000000000000, 0.0000000000000000000, -0.0000000000000000000 ) ) ;
#431 = ORIENTED_EDGE ( 'NONE', *, *, #17, .F. ) ;
#432 = CARTESIAN_POINT ( 'NONE',  ( -1.500000000000000000, 0.0000000000000000000, 1.250000000000000222 ) ) ;
#433 = ORIENTED_EDGE ( 'NONE', *, *, #691, .T. ) ;
#434 = ADVANCED_FACE ( 'NONE', ( #835 ), #124, .T. ) ;
#435 = APPROVAL_DATE_TIME ( #637, #810 ) ;
#436 = LINE ( 'NONE', #403, #35 ) ;
#437 = APPROVAL_STATUS ( 'not_yet_approved' ) ;
#438 = EDGE_CURVE ( 'NONE', #844, #273, #418, .T. ) ;
#439 = DIRECTION ( 'NONE',  ( 1.000000000000000000, 0.0000000000000000000, 0.0000000000000000000 ) ) ;
#440 = CARTESIAN_POINT ( 'NONE',  ( 1.500000000000000000, 1.199999999999999956, -0.6999999999999999556 ) ) ;
#441 = SECURITY_CLASSIFICATION_LEVEL ( 'unclassified' ) ;
#442 = ORIENTED_EDGE ( 'NONE', *, *, #454, .T. ) ;
#443 = CARTESIAN_POINT ( 'NONE',  ( 0.4500000000000000666, 0.09999999999999993616, 1.949999999999999956 ) ) ;
#444 = AXIS2_PLACEMENT_3D ( 'NONE', #196, #482, #553 ) ;
#445 = CARTESIAN_POINT ( 'NONE',  ( -1.500000000000000000, 1.199999999999999956, 1.250000000000000222 ) ) ;
#446 = FACE_OUTER_BOUND ( 'NONE', #560, .T. ) ;
#447 = EDGE_LOOP ( 'NONE', ( #527, #259, #712, #77 ) ) ;
#448 = DIRECTION ( 'NONE',  ( 0.0000000000000000000, 0.0000000000000000000, 1.000000000000000000 ) ) ;
#449 = LINE ( 'NONE', #324, #62 ) ;
#450 = VECTOR ( 'NONE', #135, 1000.000000000000000 ) ;
#451 = CARTESIAN_POINT ( 'NONE',  ( -1.999999999999999556, -0.0000000000000000000, -0.6999999999999999556 ) ) ;
#452 = CARTESIAN_POINT ( 'NONE',  ( 0.8499999999999998668, 1.099999999999999867, 1.250000000027284841 ) ) ;
#453 = CARTESIAN_POINT ( 'NONE',  ( -1.500000000000000000, 0.2500000000000000000, -1.249999999999999778 ) ) ;
#454 = EDGE_CURVE ( 'NONE', #114, #362, #813, .T. ) ;
#455 = CARTESIAN_POINT ( 'NONE',  ( 0.0000000000000000000, 0.0000000000000000000, 0.0000000000000000000 ) ) ;
#456 = ORIENTED_EDGE ( 'NONE', *, *, #29, .F. ) ;
#457 = DIRECTION ( 'NONE',  ( 1.084202172485504557E-16, -1.000000000000000000, 0.0000000000000000000 ) ) ;
#458 = ORIENTED_EDGE ( 'NONE', *, *, #350, .F. ) ;
#459 = VERTEX_POINT ( 'NONE', #323 ) ;
#460 = LINE ( 'NONE', #816, #850 ) ;
#461 = AXIS2_PLACEMENT_3D ( 'NONE', #724, #525, #465 ) ;
#462 = ORIENTED_EDGE ( 'NONE', *, *, #867, .F. ) ;
#463 = PLANE ( 'NONE',  #597 ) ;
#464 = LINE ( 'NONE', #502, #864 ) ;
#465 = DIRECTION ( 'NONE',  ( 0.8479983040050880216, 0.0000000000000000000, 0.5299989400031799303 ) ) ;
#466 = AXIS2_PLACEMENT_3D ( 'NONE', #263, #125, #138 ) ;
#467 = PLANE ( 'NONE',  #842 ) ;
#468 = DIRECTION ( 'NONE',  ( 0.0000000000000000000, 1.000000000000000000, 0.0000000000000000000 ) ) ;
#469 = CARTESIAN_POINT ( 'NONE',  ( 0.0000000000000000000, -0.3999999999999993561, 0.3250000000000000111 ) ) ;
#470 = ORIENTED_EDGE ( 'NONE', *, *, #504, .T. ) ;
#471 = VERTEX_POINT ( 'NONE', #244 ) ;
#472 = EDGE_CURVE ( 'NONE', #818, #90, #295, .T. ) ;
#473 = VECTOR ( 'NONE', #64, 1000.000000000000000 ) ;
#474 = LINE ( 'NONE', #440, #369 ) ;
#475 = CARTESIAN_POINT ( 'NONE',  ( -0.8500000000000000888, 1.099999999999999867, 1.699999999999999956 ) ) ;
#476 = CARTESIAN_POINT ( 'NONE',  ( -0.4499999999999999001, 0.09999999999999993616, 1.250000000027284841 ) ) ;
#477 = DIRECTION ( 'NONE',  ( 0.0000000000000000000, 0.0000000000000000000, 1.000000000000000000 ) ) ;
#478 = VERTEX_POINT ( 'NONE', #319 ) ;
#479 = LINE ( 'NONE', #649, #117 ) ;
#480 = FACE_OUTER_BOUND ( 'NONE', #447, .T. ) ;
#481 = ADVANCED_FACE ( 'NONE', ( #121 ), #653, .T. ) ;
#482 = DIRECTION ( 'NONE',  ( 1.000000000000000000, 0.0000000000000000000, 3.097720492815727166E-16 ) ) ;
#483 = EDGE_CURVE ( 'NONE', #90, #158, #638, .T. ) ;
#484 = ADVANCED_BREP_SHAPE_REPRESENTATION ( 'Reset Switch-b3u_B3U-3000P(M)-B', ( #779, #706 ), #304 ) ;
#485 = VERTEX_POINT ( 'NONE', #113 ) ;
#486 = CARTESIAN_POINT ( 'NONE',  ( -0.8500000000000000888, 1.099999999999999867, 1.250000000027284841 ) ) ;
#487 = AXIS2_PLACEMENT_3D ( 'NONE', #759, #363, #753 ) ;
#488 = LINE ( 'NONE', #133, #284 ) ;
#489 = LINE ( 'NONE', #97, #136 ) ;
#490 = CARTESIAN_POINT ( 'NONE',  ( -1.500000000000000000, 0.0000000000000000000, -1.249999999999999778 ) ) ;
#491 = PLANE ( 'NONE',  #214 ) ;
#492 = EDGE_CURVE ( 'NONE', #841, #517, #322, .T. ) ;
#493 = ORIENTED_EDGE ( 'NONE', *, *, #861, .F. ) ;
#494 = EDGE_LOOP ( 'NONE', ( #603, #738, #470, #178 ) ) ;
#495 = EDGE_LOOP ( 'NONE', ( #116, #272, #191, #606 ) ) ;
#496 = VECTOR ( 'NONE', #147, 1000.000000000000000 ) ;
#497 = VERTEX_POINT ( 'NONE', #376 ) ;
#498 = DIRECTION ( 'NONE',  ( 1.000000000000000000, 0.0000000000000000000, 0.0000000000000000000 ) ) ;
#499 = PERSON_AND_ORGANIZATION ( #788, #884 ) ;
#500 = FACE_OUTER_BOUND ( 'NONE', #879, .T. ) ;
#501 = EDGE_CURVE ( 'NONE', #544, #129, #383, .T. ) ;
#502 = CARTESIAN_POINT ( 'NONE',  ( -1.999999999999999556, 0.2500000000000000000, 0.6999999999999999556 ) ) ;
#503 = CC_DESIGN_DATE_AND_TIME_ASSIGNMENT ( #153, #228, ( #7 ) ) ;
#504 = EDGE_CURVE ( 'NONE', #644, #459, #464, .T. ) ;
#505 = FACE_OUTER_BOUND ( 'NONE', #551, .T. ) ;
#506 = VECTOR ( 'NONE', #743, 1000.000000000000000 ) ;
#507 = COORDINATED_UNIVERSAL_TIME_OFFSET ( 6, 0, .AHEAD. ) ;
#508 = VECTOR ( 'NONE', #531, 1000.000000000000000 ) ;
#509 = DIRECTION ( 'NONE',  ( 0.0000000000000000000, 0.0000000000000000000, -1.000000000000000000 ) ) ;
#510 = EDGE_CURVE ( 'NONE', #53, #220, #275, .T. ) ;
#511 = CARTESIAN_POINT ( 'NONE',  ( -1.500000000000000000, 0.0000000000000000000, -1.249999999999999778 ) ) ;
#512 = DIRECTION ( 'NONE',  ( 1.000000000000000000, 0.0000000000000000000, 0.0000000000000000000 ) ) ;
#513 = DIRECTION ( 'NONE',  ( -0.0000000000000000000, 1.000000000000000000, 0.0000000000000000000 ) ) ;
#514 = ORIENTED_EDGE ( 'NONE', *, *, #472, .F. ) ;
#515 = CIRCLE ( 'NONE', #229, 0.2249999999999995060 ) ;
#516 = ORIENTED_EDGE ( 'NONE', *, *, #483, .T. ) ;
#517 = VERTEX_POINT ( 'NONE', #636 ) ;
#518 = CARTESIAN_POINT ( 'NONE',  ( 0.0000000000000000000, 0.0000000000000000000, 1.949999999999999956 ) ) ;
#519 = PERSON_AND_ORGANIZATION ( #788, #884 ) ;
#520 = LINE ( 'NONE', #52, #162 ) ;
#521 = CC_DESIGN_PERSON_AND_ORGANIZATION_ASSIGNMENT ( #499, #774, ( #7 ) ) ;
#522 = DIRECTION ( 'NONE',  ( -0.0000000000000000000, 0.0000000000000000000, 1.000000000000000000 ) ) ;
#523 = CARTESIAN_POINT ( 'NONE',  ( 0.4500000000000000666, 1.100000000000000089, 1.949999999999999956 ) ) ;
#524 = CARTESIAN_POINT ( 'NONE',  ( 2.000000000000000888, 0.0000000000000000000, -0.6999999999999999556 ) ) ;
#525 = DIRECTION ( 'NONE',  ( -0.5299989400031799303, 0.0000000000000000000, 0.8479983040050880216 ) ) ;
#526 = CARTESIAN_POINT ( 'NONE',  ( -0.4499999999999999001, 0.09999999999999993616, 1.949999999999999956 ) ) ;
#527 = ORIENTED_EDGE ( 'NONE', *, *, #422, .F. ) ;
#528 = VECTOR ( 'NONE', #25, 1000.000000000000000 ) ;
#529 = EDGE_CURVE ( 'NONE', #60, #90, #489, .T. ) ;
#530 = DIRECTION ( 'NONE',  ( 0.0000000000000000000, 0.0000000000000000000, -1.000000000000000000 ) ) ;
#531 = DIRECTION ( 'NONE',  ( -0.0000000000000000000, -1.000000000000000000, -0.0000000000000000000 ) ) ;
#532 = SHAPE_DEFINITION_REPRESENTATION ( #373, #484 ) ;
#533 = AXIS2_PLACEMENT_3D ( 'NONE', #33, #111, #588 ) ;
#534 = CARTESIAN_POINT ( 'NONE',  ( -1.999999999999999556, 0.2500000000000000000, 0.6999999999999999556 ) ) ;
#535 = CARTESIAN_POINT ( 'NONE',  ( 1.500000000000000000, 0.2500000000000000000, -1.249999999999999778 ) ) ;
#536 = ORIENTED_EDGE ( 'NONE', *, *, #69, .T. ) ;
#537 = FACE_OUTER_BOUND ( 'NONE', #676, .T. ) ;
#538 = LINE ( 'NONE', #523, #203 ) ;
#539 = VECTOR ( 'NONE', #512, 1000.000000000000000 ) ;
#540 = ADVANCED_FACE ( 'NONE', ( #648 ), #574, .T. ) ;
#541 = DIRECTION ( 'NONE',  ( 0.0000000000000000000, -1.000000000000000000, 0.0000000000000000000 ) ) ;
#542 = ORIENTED_EDGE ( 'NONE', *, *, #604, .T. ) ;
#543 = EDGE_CURVE ( 'NONE', #478, #140, #16, .T. ) ;
#544 = VERTEX_POINT ( 'NONE', #825 ) ;
#545 = LINE ( 'NONE', #563, #473 ) ;
#546 = VECTOR ( 'NONE', #595, 1000.000000000000000 ) ;
#547 = DIRECTION ( 'NONE',  ( -1.000000000000000000, -0.0000000000000000000, -0.0000000000000000000 ) ) ;
#548 = ORIENTED_EDGE ( 'NONE', *, *, #529, .T. ) ;
#549 = FACE_OUTER_BOUND ( 'NONE', #495, .T. ) ;
#550 = SECURITY_CLASSIFICATION ( '', '', #441 ) ;
#551 = EDGE_LOOP ( 'NONE', ( #633, #614, #401, #274, #684 ) ) ;
#552 = VERTEX_POINT ( 'NONE', #235 ) ;
#553 = DIRECTION ( 'NONE',  ( 3.097720492815727166E-16, 0.0000000000000000000, -1.000000000000000000 ) ) ;
#554 = CARTESIAN_POINT ( 'NONE',  ( 2.000000000000000444, 0.2500000000000000000, 0.6999999999999999556 ) ) ;
#555 = DIRECTION ( 'NONE',  ( 0.0000000000000000000, 1.000000000000000000, 0.0000000000000000000 ) ) ;
#556 = EDGE_CURVE ( 'NONE', #362, #53, #715, .T. ) ;
#557 = CARTESIAN_POINT ( 'NONE',  ( 0.0000000000000000000, 0.0000000000000000000, 0.0000000000000000000 ) ) ;
#558 = ORIENTED_EDGE ( 'NONE', *, *, #166, .F. ) ;
#559 = CARTESIAN_POINT ( 'NONE',  ( 1.500000000000000000, 0.0000000000000000000, -1.249999999999999778 ) ) ;
#560 = EDGE_LOOP ( 'NONE', ( #101, #462, #725, #711 ) ) ;
#561 = ORIENTED_EDGE ( 'NONE', *, *, #556, .T. ) ;
#562 = LINE ( 'NONE', #14, #170 ) ;
#563 = CARTESIAN_POINT ( 'NONE',  ( 2.000000000000000444, 0.2500000000000000000, 0.6999999999999999556 ) ) ;
#564 = PERSON_AND_ORGANIZATION_ROLE ( 'creator' ) ;
#565 = APPROVAL ( #303, 'UNSPECIFIED' ) ;
#566 = APPLICATION_CONTEXT ( 'configuration controlled 3d designs of mechanical parts and assemblies' ) ;
#567 = EDGE_LOOP ( 'NONE', ( #13, #625, #393, #634 ) ) ;
#568 = FACE_OUTER_BOUND ( 'NONE', #381, .T. ) ;
#569 = ORIENTED_EDGE ( 'NONE', *, *, #719, .F. ) ;
#570 = APPROVAL_ROLE ( '' ) ;
#571 = ORIENTED_EDGE ( 'NONE', *, *, #631, .T. ) ;
#572 = VECTOR ( 'NONE', #99, 1000.000000000000000 ) ;
#573 = EDGE_CURVE ( 'NONE', #278, #858, #63, .T. ) ;
#574 = PLANE ( 'NONE',  #670 ) ;
#575 = APPLICATION_PROTOCOL_DEFINITION ( 'international standard', 'config_control_design', 1994, #566 ) ;
#576 = ADVANCED_FACE ( 'NONE', ( #71 ), #821, .F. ) ;
#577 = DATE_TIME_ROLE ( 'classification_date' ) ;
#578 = AXIS2_PLACEMENT_3D ( 'NONE', #48, #661, #388 ) ;
#579 = DIRECTION ( 'NONE',  ( -0.0000000000000000000, -1.000000000000000000, -0.0000000000000000000 ) ) ;
#580 = ORIENTED_EDGE ( 'NONE', *, *, #675, .T. ) ;
#581 = CARTESIAN_POINT ( 'NONE',  ( 1.500000000000000000, 1.199999999999999956, -1.249999999999999778 ) ) ;
#582 = VERTEX_POINT ( 'NONE', #650 ) ;
#583 = DIRECTION ( 'NONE',  ( 0.8479983040050880216, 0.0000000000000000000, 0.5299989400031799303 ) ) ;
#584 = ORIENTED_EDGE ( 'NONE', *, *, #379, .F. ) ;
#585 = LINE ( 'NONE', #839, #705 ) ;
#586 = DIRECTION ( 'NONE',  ( -1.084202172485504557E-16, 1.000000000000000000, 0.0000000000000000000 ) ) ;
#587 = VECTOR ( 'NONE', #800, 1000.000000000000000 ) ;
#588 = DIRECTION ( 'NONE',  ( 0.0000000000000000000, 0.0000000000000000000, -1.000000000000000000 ) ) ;
#589 = EDGE_CURVE ( 'NONE', #417, #278, #47, .T. ) ;
#590 = ORIENTED_EDGE ( 'NONE', *, *, #675, .F. ) ;
#591 = EDGE_CURVE ( 'NONE', #778, #485, #236, .T. ) ;
#592 = CARTESIAN_POINT ( 'NONE',  ( -1.999999999999999556, 0.2500000000000000000, -0.6999999999999999556 ) ) ;
#593 = EDGE_LOOP ( 'NONE', ( #280, #404, #695, #65 ) ) ;
#594 = ORIENTED_EDGE ( 'NONE', *, *, #123, .F. ) ;
#595 = DIRECTION ( 'NONE',  ( 1.000000000000000000, 0.0000000000000000000, 0.0000000000000000000 ) ) ;
#596 = DATE_AND_TIME ( #193, #822 ) ;
#597 = AXIS2_PLACEMENT_3D ( 'NONE', #112, #36, #175 ) ;
#598 = DIRECTION ( 'NONE',  ( 1.084202172485504434E-16, -1.000000000000000000, 0.0000000000000000000 ) ) ;
#599 = DIRECTION ( 'NONE',  ( 0.0000000000000000000, 0.0000000000000000000, -1.000000000000000000 ) ) ;
#600 = ORIENTED_EDGE ( 'NONE', *, *, #237, .T. ) ;
#601 = LINE ( 'NONE', #832, #79 ) ;
#602 = DIRECTION ( 'NONE',  ( -0.0000000000000000000, 1.000000000000000000, -0.0000000000000000000 ) ) ;
#603 = ORIENTED_EDGE ( 'NONE', *, *, #704, .F. ) ;
#604 = EDGE_CURVE ( 'NONE', #417, #848, #474, .T. ) ;
#605 = FACE_OUTER_BOUND ( 'NONE', #131, .T. ) ;
#606 = ORIENTED_EDGE ( 'NONE', *, *, #855, .T. ) ;
#607 = DIRECTION ( 'NONE',  ( -5.421010862427522170E-17, 1.000000000000000000, -0.0000000000000000000 ) ) ;
#608 = FACE_OUTER_BOUND ( 'NONE', #623, .T. ) ;
#609 = FACE_OUTER_BOUND ( 'NONE', #271, .T. ) ;
#610 = ADVANCED_FACE ( 'NONE', ( #629 ), #745, .F. ) ;
#611 = AXIS2_PLACEMENT_3D ( 'NONE', #630, #359, #285 ) ;
#612 = ADVANCED_FACE ( 'NONE', ( #609 ), #227, .T. ) ;
#613 = ORIENTED_EDGE ( 'NONE', *, *, #501, .T. ) ;
#614 = ORIENTED_EDGE ( 'NONE', *, *, #270, .T. ) ;
#615 = ORIENTED_EDGE ( 'NONE', *, *, #212, .T. ) ;
#616 = CIRCLE ( 'NONE', #635, 0.3250000000000000111 ) ;
#617 = DIRECTION ( 'NONE',  ( 1.000000000000000000, 0.0000000000000000000, 0.0000000000000000000 ) ) ;
#618 = ADVANCED_FACE ( 'NONE', ( #798 ), #807, .T. ) ;
#619 = EDGE_CURVE ( 'NONE', #497, #844, #286, .T. ) ;
#620 = DIRECTION ( 'NONE',  ( -0.0000000000000000000, -1.000000000000000000, -0.0000000000000000000 ) ) ;
#621 = DIRECTION ( 'NONE',  ( 0.0000000000000000000, 1.000000000000000000, 0.0000000000000000000 ) ) ;
#622 = FACE_OUTER_BOUND ( 'NONE', #768, .T. ) ;
#623 = EDGE_LOOP ( 'NONE', ( #613, #731, #43, #686 ) ) ;
#624 = PLANE ( 'NONE',  #258 ) ;
#625 = ORIENTED_EDGE ( 'NONE', *, *, #714, .T. ) ;
#626 = CARTESIAN_POINT ( 'NONE',  ( -1.500000000000000000, 0.2500000000000000000, -0.6999999999999999556 ) ) ;
#627 = CARTESIAN_POINT ( 'NONE',  ( 0.8499999999999999778, 0.09999999999999993616, -500000.0000000000582 ) ) ;
#628 = VECTOR ( 'NONE', #46, 1000.000000000000000 ) ;
#629 = FACE_OUTER_BOUND ( 'NONE', #11, .T. ) ;
#630 = CARTESIAN_POINT ( 'NONE',  ( 0.0000000000000000000, -0.5000000000000000000, 0.0000000000000000000 ) ) ;
#631 = EDGE_CURVE ( 'NONE', #417, #273, #109, .T. ) ;
#632 = CARTESIAN_POINT ( 'NONE',  ( 2.000000000000000888, 0.2500000000000000000, -0.6999999999999999556 ) ) ;
#633 = ORIENTED_EDGE ( 'NONE', *, *, #69, .F. ) ;
#634 = ORIENTED_EDGE ( 'NONE', *, *, #770, .F. ) ;
#635 = AXIS2_PLACEMENT_3D ( 'NONE', #455, #782, #790 ) ;
#636 = CARTESIAN_POINT ( 'NONE',  ( 0.8499999999999998668, 1.099999999999999867, 1.249999999913598003 ) ) ;
#637 = DATE_AND_TIME ( #396, #45 ) ;
#638 = LINE ( 'NONE', #856, #752 ) ;
#639 = PERSON_AND_ORGANIZATION_ROLE ( 'design_supplier' ) ;
#640 = AXIS2_PLACEMENT_3D ( 'NONE', #853, #385, #709 ) ;
#641 = PERSON_AND_ORGANIZATION_ROLE ( 'design_owner' ) ;
#642 = ORIENTED_EDGE ( 'NONE', *, *, #784, .T. ) ;
#643 = ORIENTED_EDGE ( 'NONE', *, *, #492, .F. ) ;
#644 = VERTEX_POINT ( 'NONE', #795 ) ;
#645 = ADVANCED_FACE ( 'NONE', ( #480 ), #467, .F. ) ;
#646 = PLANE ( 'NONE',  #640 ) ;
#647 = EDGE_CURVE ( 'NONE', #644, #290, #265, .T. ) ;
#648 = FACE_OUTER_BOUND ( 'NONE', #494, .T. ) ;
#649 = CARTESIAN_POINT ( 'NONE',  ( 1.500000000000000000, 0.0000000000000000000, -1.249999999999999778 ) ) ;
#650 = CARTESIAN_POINT ( 'NONE',  ( -0.8500000000000000888, 1.099999999999999867, 1.250000000000000222 ) ) ;
#651 = PLANE ( 'NONE',  #201 ) ;
#652 = EDGE_LOOP ( 'NONE', ( #673, #156, #780, #733 ) ) ;
#653 = PLANE ( 'NONE',  #288 ) ;
#654 = CIRCLE ( 'NONE', #399, 0.4500000000000001221 ) ;
#655 = CARTESIAN_POINT ( 'NONE',  ( 0.0000000000000000000, 0.0000000000000000000, 0.0000000000000000000 ) ) ;
#656 = LINE ( 'NONE', #195, #22 ) ;
#657 = DIRECTION ( 'NONE',  ( 0.0000000000000000000, -0.0000000000000000000, -1.000000000000000000 ) ) ;
#658 = VECTOR ( 'NONE', #241, 1000.000000000000000 ) ;
#659 = DIRECTION ( 'NONE',  ( 0.0000000000000000000, 0.0000000000000000000, 1.000000000000000000 ) ) ;
#660 = DIRECTION ( 'NONE',  ( 0.0000000000000000000, -0.0000000000000000000, 1.000000000000000000 ) ) ;
#661 = DIRECTION ( 'NONE',  ( 0.0000000000000000000, 0.0000000000000000000, -1.000000000000000000 ) ) ;
#662 = CARTESIAN_POINT ( 'NONE',  ( 0.4500000000000000666, 1.100000000000000089, 1.949999999999999956 ) ) ;
#663 = DIRECTION ( 'NONE',  ( 0.0000000000000000000, 0.0000000000000000000, 1.000000000000000000 ) ) ;
#664 = EDGE_CURVE ( 'NONE', #778, #38, #764, .T. ) ;
#665 = CIRCLE ( 'NONE', #827, 0.3250000000000000111 ) ;
#666 = ORIENTED_EDGE ( 'NONE', *, *, #237, .F. ) ;
#667 = CARTESIAN_POINT ( 'NONE',  ( -1.999999999999999556, 0.0000000000000000000, 0.6999999999999999556 ) ) ;
#668 = ORIENTED_EDGE ( 'NONE', *, *, #804, .T. ) ;
#669 = LINE ( 'NONE', #159, #728 ) ;
#670 = AXIS2_PLACEMENT_3D ( 'NONE', #164, #771, #617 ) ;
#671 = PLANE ( 'NONE',  #466 ) ;
#672 = CARTESIAN_POINT ( 'NONE',  ( -1.999999999999999556, 0.2500000000000000000, -0.6999999999999999556 ) ) ;
#673 = ORIENTED_EDGE ( 'NONE', *, *, #58, .F. ) ;
#674 = CARTESIAN_POINT ( 'NONE',  ( 0.0000000000000000000, -0.5000000000000000000, 0.0000000000000000000 ) ) ;
#675 = EDGE_CURVE ( 'NONE', #351, #414, #84, .T. ) ;
#676 = EDGE_LOOP ( 'NONE', ( #843, #734, #218, #569, #248, #151 ) ) ;
#677 = ORIENTED_EDGE ( 'NONE', *, *, #212, .F. ) ;
#678 = ADVANCED_FACE ( 'NONE', ( #740 ), #400, .T. ) ;
#679 = ORIENTED_EDGE ( 'NONE', *, *, #754, .F. ) ;
#680 = APPROVAL_DATE_TIME ( #356, #565 ) ;
#681 = FACE_OUTER_BOUND ( 'NONE', #1, .T. ) ;
#682 = AXIS2_PLACEMENT_3D ( 'NONE', #415, #161, #430 ) ;
#683 = DIRECTION ( 'NONE',  ( 0.0000000000000000000, -0.0000000000000000000, -1.000000000000000000 ) ) ;
#684 = ORIENTED_EDGE ( 'NONE', *, *, #3, .F. ) ;
#685 = LINE ( 'NONE', #152, #506 ) ;
#686 = ORIENTED_EDGE ( 'NONE', *, *, #364, .T. ) ;
#687 = APPROVAL_DATE_TIME ( #354, #746 ) ;
#688 = LINE ( 'NONE', #718, #739 ) ;
#689 = DIRECTION ( 'NONE',  ( -1.000000000000000000, -0.0000000000000000000, -0.0000000000000000000 ) ) ;
#690 = DIRECTION ( 'NONE',  ( 0.0000000000000000000, -1.000000000000000000, 0.0000000000000000000 ) ) ;
#691 = EDGE_CURVE ( 'NONE', #290, #158, #436, .T. ) ;
#692 = CARTESIAN_POINT ( 'NONE',  ( -1.999999999999999556, 0.0000000000000000000, 0.6999999999999999556 ) ) ;
#693 = CLOSED_SHELL ( 'NONE', ( #815, #148, #211, #309, #576, #610, #413, #880, #98, #339, #269, #645, #540, #741, #349, #434, #847, #66, #163, #353, #678, #481, #618, #419, #26, #612, #61, #141 ) ) ;
#694 = VECTOR ( 'NONE', #5, 1000.000000000000000 ) ;
#695 = ORIENTED_EDGE ( 'NONE', *, *, #350, .T. ) ;
#696 = VECTOR ( 'NONE', #24, 1000.000000000000114 ) ;
#697 = EDGE_CURVE ( 'NONE', #471, #747, #520, .T. ) ;
#698 = EDGE_LOOP ( 'NONE', ( #231, #571, #702, #89 ) ) ;
#699 = PERSON_AND_ORGANIZATION ( #788, #884 ) ;
#700 = LINE ( 'NONE', #197, #628 ) ;
#701 = DIRECTION ( 'NONE',  ( 1.000000000000000000, 0.0000000000000000000, 0.0000000000000000000 ) ) ;
#702 = ORIENTED_EDGE ( 'NONE', *, *, #83, .F. ) ;
#703 = ORIENTED_EDGE ( 'NONE', *, *, #719, .T. ) ;
#704 = EDGE_CURVE ( 'NONE', #820, #94, #700, .T. ) ;
#705 = VECTOR ( 'NONE', #429, 1000.000000000000000 ) ;
#706 = AXIS2_PLACEMENT_3D ( 'NONE', #557, #838, #498 ) ;
#707 = CARTESIAN_POINT ( 'NONE',  ( -0.8500000000000000888, 1.099999999999999867, 1.699999999999999956 ) ) ;
#708 = ORIENTED_EDGE ( 'NONE', *, *, #298, .T. ) ;
#709 = DIRECTION ( 'NONE',  ( 0.0000000000000000000, -0.0000000000000000000, 1.000000000000000000 ) ) ;
#710 = VECTOR ( 'NONE', #190, 1000.000000000000000 ) ;
#711 = ORIENTED_EDGE ( 'NONE', *, *, #19, .F. ) ;
#712 = ORIENTED_EDGE ( 'NONE', *, *, #691, .F. ) ;
#713 = CARTESIAN_POINT ( 'NONE',  ( 0.0000000000000000000, 0.2500000000000000000, 0.0000000000000000000 ) ) ;
#714 = EDGE_CURVE ( 'NONE', #859, #791, #688, .T. ) ;
#715 = LINE ( 'NONE', #294, #658 ) ;
#716 = DIRECTION ( 'NONE',  ( 0.0000000000000000000, -1.000000000000000000, 0.0000000000000000000 ) ) ;
#717 = CARTESIAN_POINT ( 'NONE',  ( 0.8499999999999998668, 1.100000000000000089, 1.699999999999999956 ) ) ;
#718 = CARTESIAN_POINT ( 'NONE',  ( 3.980102097228897738E-17, -0.5000000000000000000, -0.3250000000000000111 ) ) ;
#719 = EDGE_CURVE ( 'NONE', #552, #414, #656, .T. ) ;
#720 = CARTESIAN_POINT ( 'NONE',  ( 1.500000000000000000, 1.199999999999999956, 0.7000000000000000666 ) ) ;
#721 = ORIENTED_EDGE ( 'NONE', *, *, #472, .T. ) ;
#722 = CARTESIAN_POINT ( 'NONE',  ( 0.4500000000000000666, 1.100000000000000089, 1.949999999999999956 ) ) ;
#723 = LINE ( 'NONE', #313, #378 ) ;
#724 = CARTESIAN_POINT ( 'NONE',  ( -0.8500000000000000888, -0.3716990566028303689, 1.699999999999999956 ) ) ;
#725 = ORIENTED_EDGE ( 'NONE', *, *, #543, .T. ) ;
#726 = DIRECTION ( 'NONE',  ( 1.000000000000000000, 0.0000000000000000000, 0.0000000000000000000 ) ) ;
#727 = DIRECTION ( 'NONE',  ( 0.8479983040050877996, 0.0000000000000000000, -0.5299989400031801523 ) ) ;
#728 = VECTOR ( 'NONE', #10, 1000.000000000000000 ) ;
#729 = CARTESIAN_POINT ( 'NONE',  ( -0.4500000000000000111, 1.100000000000000089, -500000.0000000000582 ) ) ;
#730 = DIRECTION ( 'NONE',  ( 0.0000000000000000000, 0.0000000000000000000, 1.000000000000000000 ) ) ;
#731 = ORIENTED_EDGE ( 'NONE', *, *, #222, .F. ) ;
#732 = VECTOR ( 'NONE', #276, 1000.000000000000000 ) ;
#733 = ORIENTED_EDGE ( 'NONE', *, *, #543, .F. ) ;
#734 = ORIENTED_EDGE ( 'NONE', *, *, #100, .F. ) ;
#735 = LINE ( 'NONE', #37, #769 ) ;
#736 = ORIENTED_EDGE ( 'NONE', *, *, #824, .F. ) ;
#737 = PERSON_AND_ORGANIZATION ( #788, #884 ) ;
#738 = ORIENTED_EDGE ( 'NONE', *, *, #422, .T. ) ;
#739 = VECTOR ( 'NONE', #602, 1000.000000000000000 ) ;
#740 = FACE_OUTER_BOUND ( 'NONE', #407, .T. ) ;
#741 = ADVANCED_FACE ( 'NONE', ( #226 ), #671, .T. ) ;
#742 = DIRECTION ( 'NONE',  ( -1.000000000000000000, 0.0000000000000000000, -0.0000000000000000000 ) ) ;
#743 = DIRECTION ( 'NONE',  ( -0.0000000000000000000, -1.000000000000000000, -0.0000000000000000000 ) ) ;
#744 = CARTESIAN_POINT ( 'NONE',  ( -0.4500000000000000111, 1.100000000000000089, 1.949999999999999956 ) ) ;
#745 = PLANE ( 'NONE',  #682 ) ;
#746 = APPROVAL ( #165, 'UNSPECIFIED' ) ;
#747 = VERTEX_POINT ( 'NONE', #386 ) ;
#748 = ORIENTED_EDGE ( 'NONE', *, *, #394, .F. ) ;
#749 = VECTOR ( 'NONE', #448, 1000.000000000000000 ) ;
#750 = VERTEX_POINT ( 'NONE', #251 ) ;
#751 = PERSON_AND_ORGANIZATION ( #788, #884 ) ;
#752 = VECTOR ( 'NONE', #513, 1000.000000000000000 ) ;
#753 = DIRECTION ( 'NONE',  ( 0.0000000000000000000, -0.0000000000000000000, -1.000000000000000000 ) ) ;
#754 = EDGE_CURVE ( 'NONE', #220, #114, #488, .T. ) ;
#755 = CARTESIAN_POINT ( 'NONE',  ( 0.0000000000000000000, -0.5000000000000000000, 0.2249999999999995060 ) ) ;
#756 = DIRECTION ( 'NONE',  ( 0.0000000000000000000, 0.0000000000000000000, 1.000000000000000000 ) ) ;
#757 = CARTESIAN_POINT ( 'NONE',  ( 1.500000000000000000, 0.0000000000000000000, 0.7000000000000000666 ) ) ;
#758 = VERTEX_POINT ( 'NONE', #524 ) ;
#759 = CARTESIAN_POINT ( 'NONE',  ( -0.4499999999999999001, 0.09999999999999993616, -500000.0000000000582 ) ) ;
#760 = LINE ( 'NONE', #526, #710 ) ;
#761 = COORDINATED_UNIVERSAL_TIME_OFFSET ( 6, 0, .AHEAD. ) ;
#762 = LINE ( 'NONE', #627, #382 ) ;
#763 = CARTESIAN_POINT ( 'NONE',  ( 0.0000000000000000000, 0.0000000000000000000, 1.949999999999999956 ) ) ;
#764 = LINE ( 'NONE', #255, #348 ) ;
#765 = EDGE_CURVE ( 'NONE', #53, #176, #107, .T. ) ;
#766 = APPROVAL_ROLE ( '' ) ;
#767 = ORIENTED_EDGE ( 'NONE', *, *, #492, .T. ) ;
#768 = EDGE_LOOP ( 'NONE', ( #558, #458, #424, #345 ) ) ;
#769 = VECTOR ( 'NONE', #311, 1000.000000000000000 ) ;
#770 = EDGE_CURVE ( 'NONE', #140, #887, #449, .T. ) ;
#771 = DIRECTION ( 'NONE',  ( -0.0000000000000000000, 0.0000000000000000000, 1.000000000000000000 ) ) ;
#772 = APPROVAL_PERSON_ORGANIZATION ( #854, #746, #570 ) ;
#773 = VECTOR ( 'NONE', #74, 1000.000000000000000 ) ;
#774 = PERSON_AND_ORGANIZATION_ROLE ( 'creator' ) ;
#775 = AXIS2_PLACEMENT_3D ( 'NONE', #85, #409, #6 ) ;
#776 = AXIS2_PLACEMENT_3D ( 'NONE', #372, #522, #250 ) ;
#777 = DIRECTION ( 'NONE',  ( 1.000000000000000000, 0.0000000000000000000, 0.0000000000000000000 ) ) ;
#778 = VERTEX_POINT ( 'NONE', #722 ) ;
#779 = MANIFOLD_SOLID_BREP ( 'Chamfer1', #693 ) ;
#780 = ORIENTED_EDGE ( 'NONE', *, *, #73, .F. ) ;
#781 = FACE_OUTER_BOUND ( 'NONE', #40, .T. ) ;
#782 = DIRECTION ( 'NONE',  ( -0.0000000000000000000, -1.000000000000000000, -0.0000000000000000000 ) ) ;
#783 = ORIENTED_EDGE ( 'NONE', *, *, #510, .F. ) ;
#784 = EDGE_CURVE ( 'NONE', #94, #459, #874, .T. ) ;
#785 = LINE ( 'NONE', #672, #34 ) ;
#786 = VECTOR ( 'NONE', #299, 1000.000000000000000 ) ;
#787 = AXIS2_PLACEMENT_3D ( 'NONE', #192, #331, #338 ) ;
#788 = PERSON ( 'UNSPECIFIED', 'UNSPECIFIED', 'UNSPECIFIED', ('UNSPECIFIED'), ('UNSPECIFIED'), ('UNSPECIFIED') ) ;
#789 = ORIENTED_EDGE ( 'NONE', *, *, #17, .T. ) ;
#790 = DIRECTION ( 'NONE',  ( 0.0000000000000000000, 0.0000000000000000000, 1.000000000000000000 ) ) ;
#791 = VERTEX_POINT ( 'NONE', #287 ) ;
#792 = CIRCLE ( 'NONE', #320, 0.3250000000000000111 ) ;
#793 = DIRECTION ( 'NONE',  ( 0.0000000000000000000, 0.0000000000000000000, -1.000000000000000000 ) ) ;
#794 = DIRECTION ( 'NONE',  ( -1.000000000000000000, -1.084202172485504557E-16, 0.0000000000000000000 ) ) ;
#795 = CARTESIAN_POINT ( 'NONE',  ( -1.999999999999999556, 0.2500000000000000000, 0.6999999999999999556 ) ) ;
#796 = DIRECTION ( 'NONE',  ( 0.0000000000000000000, 0.0000000000000000000, 1.000000000000000000 ) ) ;
#797 = PERSON_AND_ORGANIZATION ( #788, #884 ) ;
#798 = FACE_OUTER_BOUND ( 'NONE', #142, .T. ) ;
#799 = DIRECTION ( 'NONE',  ( 0.0000000000000000000, -0.0000000000000000000, -1.000000000000000000 ) ) ;
#800 = DIRECTION ( 'NONE',  ( 1.084202172485504434E-16, -1.000000000000000000, 0.0000000000000000000 ) ) ;
#801 = CARTESIAN_POINT ( 'NONE',  ( -1.500000000000000000, 1.199999999999999956, 1.250000000000000222 ) ) ;
#802 = DIRECTION ( 'NONE',  ( -1.000000000000000000, -0.0000000000000000000, -0.0000000000000000000 ) ) ;
#803 = DESIGN_CONTEXT ( 'detailed design', #88, 'design' ) ;
#804 = EDGE_CURVE ( 'NONE', #485, #471, #562, .T. ) ;
#805 = DIRECTION ( 'NONE',  ( 0.0000000000000000000, -1.000000000000000000, 0.0000000000000000000 ) ) ;
#806 = ORIENTED_EDGE ( 'NONE', *, *, #664, .T. ) ;
#807 = PLANE ( 'NONE',  #787 ) ;
#808 = LINE ( 'NONE', #420, #426 ) ;
#809 = ORIENTED_EDGE ( 'NONE', *, *, #697, .F. ) ;
#810 = APPROVAL ( #437, 'UNSPECIFIED' ) ;
#811 = AXIS2_PLACEMENT_3D ( 'NONE', #868, #257, #599 ) ;
#812 = CIRCLE ( 'NONE', #55, 0.2249999999999995060 ) ;
#813 = LINE ( 'NONE', #42, #546 ) ;
#814 = DIRECTION ( 'NONE',  ( 0.0000000000000000000, 0.0000000000000000000, -1.000000000000000000 ) ) ;
#815 = ADVANCED_FACE ( 'NONE', ( #81 ), #308, .T. ) ;
#816 = CARTESIAN_POINT ( 'NONE',  ( -0.8500000000000000888, 1.099999999999999867, -500000.0000000000582 ) ) ;
#817 = EDGE_CURVE ( 'NONE', #471, #205, #134, .T. ) ;
#818 = VERTEX_POINT ( 'NONE', #490 ) ;
#819 = ORIENTED_EDGE ( 'NONE', *, *, #878, .T. ) ;
#820 = VERTEX_POINT ( 'NONE', #360 ) ;
#821 = PLANE ( 'NONE',  #143 ) ;
#822 = LOCAL_TIME ( 11, 19, 9.000000000000000000, #833 ) ;
#823 = VECTOR ( 'NONE', #468, 1000.000000000000000 ) ;
#824 = EDGE_CURVE ( 'NONE', #858, #497, #545, .T. ) ;
#825 = CARTESIAN_POINT ( 'NONE',  ( -1.500000000000000000, 0.0000000000000000000, 1.250000000000000222 ) ) ;
#826 = CC_DESIGN_PERSON_AND_ORGANIZATION_ASSIGNMENT ( #797, #234, ( #550 ) ) ;
#827 = AXIS2_PLACEMENT_3D ( 'NONE', #110, #32, #793 ) ;
#828 = CARTESIAN_POINT ( 'NONE',  ( -1.500000000000000000, 1.199999999999999956, -1.249999999999999778 ) ) ;
#829 = CARTESIAN_POINT ( 'NONE',  ( 0.0000000000000000000, 0.0000000000000000000, 0.3250000000000000111 ) ) ;
#830 = VECTOR ( 'NONE', #397, 1000.000000000000000 ) ;
#831 = ORIENTED_EDGE ( 'NONE', *, *, #697, .T. ) ;
#832 = CARTESIAN_POINT ( 'NONE',  ( 2.000000000000000444, 0.0000000000000000000, 0.6999999999999999556 ) ) ;
#833 = COORDINATED_UNIVERSAL_TIME_OFFSET ( 6, 0, .AHEAD. ) ;
#834 = FACE_OUTER_BOUND ( 'NONE', #306, .T. ) ;
#835 = FACE_OUTER_BOUND ( 'NONE', #593, .T. ) ;
#836 = DIRECTION ( 'NONE',  ( 8.659560562354926695E-17, 0.7071067811865481278, -0.7071067811865470176 ) ) ;
#837 = EDGE_CURVE ( 'NONE', #414, #747, #669, .T. ) ;
#838 = DIRECTION ( 'NONE',  ( 0.0000000000000000000, 0.0000000000000000000, 1.000000000000000000 ) ) ;
#839 = CARTESIAN_POINT ( 'NONE',  ( 0.8499999999999998668, 1.099999999999999867, 1.699999999999999956 ) ) ;
#840 = DIRECTION ( 'NONE',  ( -1.000000000000000000, -0.0000000000000000000, 0.0000000000000000000 ) ) ;
#841 = VERTEX_POINT ( 'NONE', #423 ) ;
#842 = AXIS2_PLACEMENT_3D ( 'NONE', #50, #128, #657 ) ;
#843 = ORIENTED_EDGE ( 'NONE', *, *, #270, .F. ) ;
#844 = VERTEX_POINT ( 'NONE', #757 ) ;
#845 = CARTESIAN_POINT ( 'NONE',  ( -1.500000000000000000, 1.199999999999999956, -1.249999999999999778 ) ) ;
#846 = CALENDAR_DATE ( 2018, 14, 8 ) ;
#847 = ADVANCED_FACE ( 'NONE', ( #834 ), #217, .T. ) ;
#848 = VERTEX_POINT ( 'NONE', #4 ) ;
#849 = ORIENTED_EDGE ( 'NONE', *, *, #29, .T. ) ;
#850 = VECTOR ( 'NONE', #361, 1000.000000000000000 ) ;
#851 = EDGE_CURVE ( 'NONE', #841, #249, #762, .T. ) ;
#852 = ORIENTED_EDGE ( 'NONE', *, *, #765, .T. ) ;
#853 = CARTESIAN_POINT ( 'NONE',  ( 0.0000000000000000000, 0.0000000000000000000, 0.0000000000000000000 ) ) ;
#854 = PERSON_AND_ORGANIZATION ( #788, #884 ) ;
#855 = EDGE_CURVE ( 'NONE', #290, #60, #785, .T. ) ;
#856 = CARTESIAN_POINT ( 'NONE',  ( -1.500000000000000000, 1.199999999999999956, -0.6999999999999999556 ) ) ;
#857 = CARTESIAN_POINT ( 'NONE',  ( 1.500000000000000000, 1.199999999999999956, 1.250000000000000222 ) ) ;
#858 = VERTEX_POINT ( 'NONE', #554 ) ;
#859 = VERTEX_POINT ( 'NONE', #289 ) ;
#860 = FACE_OUTER_BOUND ( 'NONE', #292, .T. ) ;
#861 = EDGE_CURVE ( 'NONE', #249, #38, #585, .T. ) ;
#862 = DIRECTION ( 'NONE',  ( 0.0000000000000000000, 0.0000000000000000000, 1.000000000000000000 ) ) ;
#863 = CALENDAR_DATE ( 2018, 14, 8 ) ;
#864 = VECTOR ( 'NONE', #296, 1000.000000000000000 ) ;
#865 = DIRECTION ( 'NONE',  ( -5.421010862427522170E-17, 1.000000000000000000, -0.0000000000000000000 ) ) ;
#866 = DIRECTION ( 'NONE',  ( 0.0000000000000000000, 1.000000000000000000, 0.0000000000000000000 ) ) ;
#867 = EDGE_CURVE ( 'NONE', #478, #68, #812, .T. ) ;
#868 = CARTESIAN_POINT ( 'NONE',  ( 0.0000000000000000000, -0.3999999999999993561, 0.0000000000000000000 ) ) ;
#869 = DIRECTION ( 'NONE',  ( -1.000000000000000000, -0.0000000000000000000, -0.0000000000000000000 ) ) ;
#870 = ORIENTED_EDGE ( 'NONE', *, *, #3, .T. ) ;
#871 = CC_DESIGN_SECURITY_CLASSIFICATION ( #550, ( #346 ) ) ;
#872 = ORIENTED_EDGE ( 'NONE', *, *, #51, .T. ) ;
#873 = CALENDAR_DATE ( 2018, 14, 8 ) ;
#874 = LINE ( 'NONE', #366, #264 ) ;
#875 = CARTESIAN_POINT ( 'NONE',  ( 0.0000000000000000000, -0.5000000000000000000, 0.0000000000000000000 ) ) ;
#876 = CARTESIAN_POINT ( 'NONE',  ( 0.0000000000000000000, -0.5000000000000000000, 0.0000000000000000000 ) ) ;
#877 = DIRECTION ( 'NONE',  ( 0.0000000000000000000, 0.0000000000000000000, 1.000000000000000000 ) ) ;
#878 = EDGE_CURVE ( 'NONE', #459, #60, #427, .T. ) ;
#879 = EDGE_LOOP ( 'NONE', ( #580, #219, #809, #371, #584 ) ) ;
#880 = ADVANCED_FACE ( 'NONE', ( #368, #608 ), #139, .F. ) ;
#881 = CIRCLE ( 'NONE', #811, 0.3250000000000000111 ) ;
#882 = VECTOR ( 'NONE', #509, 1000.000000000000000 ) ;
#883 = AXIS2_PLACEMENT_3D ( 'NONE', #206, #621, #215 ) ;
#884 = ORGANIZATION ( 'UNSPECIFIED', 'UNSPECIFIED', '' ) ;
#885 = VECTOR ( 'NONE', #802, 1000.000000000000000 ) ;
#886 = CARTESIAN_POINT ( 'NONE',  ( 0.8499999999999999778, 0.09999999999999993616, 1.699999999999999956 ) ) ;
#887 = VERTEX_POINT ( 'NONE', #829 ) ;
#888 = ORIENTED_EDGE ( 'NONE', *, *, #501, .F. ) ;
#889 = FACE_OUTER_BOUND ( 'NONE', #93, .T. ) ;
ENDSEC;
END-ISO-10303-21;
