EESchema Schematic File Version 4
EELAYER 30 0
EELAYER END
$Descr A4 11693 8268
encoding utf-8
Sheet 4 5
Title "Power"
Date ""
Rev ""
Comp ""
Comment1 ""
Comment2 ""
Comment3 ""
Comment4 ""
$EndDescr
$Comp
L power:+3.3V #PWR0134
U 1 1 5E1343B9
P 6150 2800
F 0 "#PWR0134" H 6150 2650 50  0001 C CNN
F 1 "+3.3V" H 6165 2973 50  0000 C CNN
F 2 "" H 6150 2800 50  0001 C CNN
F 3 "" H 6150 2800 50  0001 C CNN
	1    6150 2800
	1    0    0    -1  
$EndComp
Wire Wire Line
	6150 3100 6150 2800
Wire Wire Line
	6150 3100 6150 3250
Connection ~ 6150 3100
Wire Wire Line
	4650 3100 5150 3100
$Comp
L Device:C C3
U 1 1 5E13977A
P 6150 3400
F 0 "C3" H 6265 3446 50  0000 L CNN
F 1 "2.2u" H 6265 3355 50  0000 L CNN
F 2 "Capacitor_SMD:C_0603_1608Metric" H 6188 3250 50  0001 C CNN
F 3 "~" H 6150 3400 50  0001 C CNN
	1    6150 3400
	1    0    0    -1  
$EndComp
Wire Wire Line
	5750 3100 6150 3100
Wire Wire Line
	6150 3550 6150 3600
Wire Wire Line
	6150 3600 5450 3600
$Comp
L power:GND #PWR0135
U 1 1 5E1344CD
P 5450 3650
F 0 "#PWR0135" H 5450 3400 50  0001 C CNN
F 1 "GND" H 5455 3477 50  0000 C CNN
F 2 "" H 5450 3650 50  0001 C CNN
F 3 "" H 5450 3650 50  0001 C CNN
	1    5450 3650
	1    0    0    -1  
$EndComp
Wire Wire Line
	5450 3400 5450 3600
Connection ~ 5450 3600
Wire Wire Line
	5450 3600 5450 3650
$Comp
L power:+5V #PWR0133
U 1 1 5E133A65
P 4650 2800
F 0 "#PWR0133" H 4650 2650 50  0001 C CNN
F 1 "+5V" H 4665 2973 50  0000 C CNN
F 2 "" H 4650 2800 50  0001 C CNN
F 3 "" H 4650 2800 50  0001 C CNN
	1    4650 2800
	1    0    0    -1  
$EndComp
Wire Wire Line
	4650 2800 4650 3100
$Comp
L Device:C C2
U 1 1 5EBC6BBC
P 4650 3400
F 0 "C2" H 4765 3446 50  0000 L CNN
F 1 "4.7u" H 4765 3355 50  0000 L CNN
F 2 "Capacitor_SMD:C_0805_2012Metric" H 4688 3250 50  0001 C CNN
F 3 "~" H 4650 3400 50  0001 C CNN
	1    4650 3400
	1    0    0    -1  
$EndComp
Wire Wire Line
	4650 3100 4650 3250
Connection ~ 4650 3100
Wire Wire Line
	4650 3550 4650 3600
Wire Wire Line
	4650 3600 5450 3600
$Comp
L resplit66:MCP1812BT-033_SOT23 U4
U 1 1 5FC68116
P 5450 3100
F 0 "U4" H 5450 3342 50  0000 C CNN
F 1 "MCP1812BT-033_SOT23" H 5450 3251 50  0000 C CNN
F 2 "Package_TO_SOT_SMD:SOT-23" H 5450 3300 50  0001 C CNN
F 3 "http://ww1.microchip.com/downloads/en/DeviceDoc/MCP1811A-11B-12A-12B-Family-Data-Sheet-DS20006088C.pdf" H 5450 3050 50  0001 C CNN
	1    5450 3100
	1    0    0    -1  
$EndComp
$EndSCHEMATC
