EESchema Schematic File Version 4
EELAYER 30 0
EELAYER END
$Descr A4 11693 8268
encoding utf-8
Sheet 1 5
Title "ReloadedSplit66"
Date ""
Rev ""
Comp ""
Comment1 ""
Comment2 ""
Comment3 ""
Comment4 ""
$EndDescr
$Comp
L Mechanical:MountingHole MK6
U 1 1 5AFD4177
P 10750 5450
F 0 "MK6" H 10750 5650 50  0000 C BNN
F 1 "Mounting_Hole" H 10750 5575 50  0000 C CNN
F 2 "MountingHole:MountingHole_2.2mm_M2" H 10750 5450 50  0001 C CNN
F 3 "" H 10750 5450 50  0001 C CNN
	1    10750 5450
	1    0    0    -1  
$EndComp
$Comp
L Mechanical:MountingHole MK3
U 1 1 5AFD44A2
P 10750 5100
F 0 "MK3" H 10750 5300 50  0000 C BNN
F 1 "Mounting_Hole" H 10750 5225 50  0000 C CNN
F 2 "MountingHole:MountingHole_2.2mm_M2" H 10750 5100 50  0001 C CNN
F 3 "" H 10750 5100 50  0001 C CNN
	1    10750 5100
	1    0    0    -1  
$EndComp
$Comp
L Mechanical:MountingHole MK8
U 1 1 5AFD47BD
P 10200 5800
F 0 "MK8" H 10200 6000 50  0000 C BNN
F 1 "Mounting_Hole" H 10200 5925 50  0000 C CNN
F 2 "MountingHole:MountingHole_2.2mm_M2" H 10200 5800 50  0001 C CNN
F 3 "" H 10200 5800 50  0001 C CNN
	1    10200 5800
	1    0    0    -1  
$EndComp
$Comp
L Mechanical:MountingHole MK5
U 1 1 5AFD4B28
P 10200 5450
F 0 "MK5" H 10200 5650 50  0000 C BNN
F 1 "Mounting_Hole" H 10200 5575 50  0000 C CNN
F 2 "MountingHole:MountingHole_2.2mm_M2" H 10200 5450 50  0001 C CNN
F 3 "" H 10200 5450 50  0001 C CNN
	1    10200 5450
	1    0    0    -1  
$EndComp
$Comp
L Mechanical:MountingHole MK9
U 1 1 5E1E462B
P 10750 5800
F 0 "MK9" H 10750 6000 50  0000 C BNN
F 1 "Mounting_Hole" H 10750 5925 50  0000 C CNN
F 2 "MountingHole:MountingHole_2.2mm_M2" H 10750 5800 50  0001 C CNN
F 3 "" H 10750 5800 50  0001 C CNN
	1    10750 5800
	1    0    0    -1  
$EndComp
$Comp
L Mechanical:MountingHole MK7
U 1 1 5AFD4314
P 9650 5800
F 0 "MK7" H 9650 6000 50  0000 C BNN
F 1 "Mounting_Hole" H 9650 5925 50  0000 C CNN
F 2 "MountingHole:MountingHole_2.2mm_M2" H 9650 5800 50  0001 C CNN
F 3 "" H 9650 5800 50  0001 C CNN
	1    9650 5800
	1    0    0    -1  
$EndComp
$Comp
L Mechanical:MountingHole MK4
U 1 1 5AFD462B
P 9650 5450
F 0 "MK4" H 9650 5650 50  0000 C BNN
F 1 "Mounting_Hole" H 9650 5575 50  0000 C CNN
F 2 "MountingHole:MountingHole_2.2mm_M2" H 9650 5450 50  0001 C CNN
F 3 "" H 9650 5450 50  0001 C CNN
	1    9650 5450
	1    0    0    -1  
$EndComp
$Comp
L Mechanical:MountingHole MK2
U 1 1 5AFD3B40
P 10200 5100
F 0 "MK2" H 10200 5300 50  0000 C BNN
F 1 "Mounting_Hole" H 10200 5225 50  0000 C CNN
F 2 "MountingHole:MountingHole_2.2mm_M2" H 10200 5100 50  0001 C CNN
F 3 "" H 10200 5100 50  0001 C CNN
	1    10200 5100
	1    0    0    -1  
$EndComp
$Comp
L Mechanical:MountingHole MK1
U 1 1 5AFD4950
P 9650 5100
F 0 "MK1" H 9650 5300 50  0000 C BNN
F 1 "Mounting_Hole" H 9650 5225 50  0000 C CNN
F 2 "MountingHole:MountingHole_2.2mm_M2" H 9650 5100 50  0001 C CNN
F 3 "" H 9650 5100 50  0001 C CNN
	1    9650 5100
	1    0    0    -1  
$EndComp
Connection ~ 8050 4600
Text Notes 7000 6050 0    50   ~ 0
Led 2.4V / 10 mA Max\n-> Ur = 5 - 2.4 = 2.6V\n-> Ir = 5mA \n-> R = 2.6/5e-3 = 520 Ohms
Connection ~ 7250 4600
Wire Wire Line
	7250 4600 8050 4600
Wire Wire Line
	8850 3900 9650 3900
$Comp
L Switch:SW_Push SW30
U 1 1 5AECC116
P 9450 3500
F 0 "SW30" H 9450 3650 50  0000 C BNN
F 1 "SW_Push" H 9450 3440 50  0001 C CNN
F 2 "ReSplit66:SW_Cherry_MX1A_1.50u_PCB_BothSides" H 9450 3700 50  0001 C CNN
F 3 "" H 9450 3700 50  0001 C CNN
	1    9450 3500
	-1   0    0    -1  
$EndComp
$Comp
L Device:D D30
U 1 1 5AECC11C
P 9650 3750
F 0 "D30" H 9650 3850 50  0000 C BNN
F 1 "D" H 9650 3650 50  0001 C CNN
F 2 "ReSplit66:D_SOD-123_BothSides" H 9650 3750 50  0001 C CNN
F 3 "" H 9650 3750 50  0001 C CNN
	1    9650 3750
	0    -1   -1   0   
$EndComp
$Comp
L Device:D D29
U 1 1 5AECC09D
P 8850 3750
F 0 "D29" H 8850 3850 50  0000 C BNN
F 1 "D" H 8850 3650 50  0001 C CNN
F 2 "ReSplit66:D_SOD-123_BothSides" H 8850 3750 50  0001 C CNN
F 3 "" H 8850 3750 50  0001 C CNN
	1    8850 3750
	0    -1   -1   0   
$EndComp
Wire Wire Line
	9650 3600 9650 3500
Wire Wire Line
	8850 4300 8850 4200
$Comp
L Device:D D37
U 1 1 5AECC0B5
P 8850 4450
F 0 "D37" H 8850 4550 50  0000 C BNN
F 1 "D" H 8850 4350 50  0001 C CNN
F 2 "ReSplit66:D_SOD-123_BothSides" H 8850 4450 50  0001 C CNN
F 3 "" H 8850 4450 50  0001 C CNN
	1    8850 4450
	0    -1   -1   0   
$EndComp
$Comp
L Device:D D36
U 1 1 5AECB1EE
P 8050 4450
F 0 "D36" H 8050 4550 50  0000 C BNN
F 1 "D" H 8050 4350 50  0001 C CNN
F 2 "ReSplit66:D_SOD-123_BothSides" H 8050 4450 50  0001 C CNN
F 3 "" H 8050 4450 50  0001 C CNN
	1    8050 4450
	0    -1   -1   0   
$EndComp
Wire Wire Line
	8050 4300 8050 4200
Wire Wire Line
	8050 3900 8850 3900
Wire Wire Line
	8050 4600 8850 4600
$Comp
L Device:D D35
U 1 1 5AECB16F
P 7250 4450
F 0 "D35" H 7250 4550 50  0000 C BNN
F 1 "D" H 7250 4350 50  0001 C CNN
F 2 "ReSplit66:D_SOD-123_BothSides" H 7250 4450 50  0001 C CNN
F 3 "" H 7250 4450 50  0001 C CNN
	1    7250 4450
	0    -1   -1   0   
$EndComp
Wire Wire Line
	7250 3900 8050 3900
$Comp
L Switch:SW_Push SW36
U 1 1 5AECB1E8
P 7850 4200
F 0 "SW36" H 7850 4350 50  0000 C BNN
F 1 "SW_Push" H 7850 4140 50  0001 C CNN
F 2 "ReSplit66:SW_Cherry_MX1A_1.50u_PCB_BothSides" H 7850 4400 50  0001 C CNN
F 3 "" H 7850 4400 50  0001 C CNN
	1    7850 4200
	1    0    0    -1  
$EndComp
Connection ~ 7250 3900
Connection ~ 8050 3900
Wire Wire Line
	7250 4300 7250 4200
Connection ~ 8850 3900
$Comp
L Switch:SW_Push SW37
U 1 1 5AECC0AF
P 8650 4200
F 0 "SW37" H 8650 4350 50  0000 C BNN
F 1 "SW_Push" H 8650 4140 50  0001 C CNN
F 2 "ReSplit66:SW_Cherry_MX1A_1.50u_PCB_BothSides" H 8650 4400 50  0001 C CNN
F 3 "" H 8650 4400 50  0001 C CNN
	1    8650 4200
	1    0    0    -1  
$EndComp
$Comp
L Switch:SW_Push SW29
U 1 1 5AECC097
P 8650 3500
F 0 "SW29" H 8650 3650 50  0000 C BNN
F 1 "SW_Push" H 8650 3440 50  0001 C CNN
F 2 "ReSplit66:SW_Cherry_MX1A_1.00u_PCB_BothSides" H 8650 3700 50  0001 C CNN
F 3 "" H 8650 3700 50  0001 C CNN
	1    8650 3500
	1    0    0    -1  
$EndComp
Wire Wire Line
	8050 3200 8850 3200
Connection ~ 8450 3500
$Comp
L Device:D D28
U 1 1 5AECB1D6
P 8050 3750
F 0 "D28" H 8050 3850 50  0000 C BNN
F 1 "D" H 8050 3650 50  0001 C CNN
F 2 "ReSplit66:D_SOD-123_BothSides" H 8050 3750 50  0001 C CNN
F 3 "" H 8050 3750 50  0001 C CNN
	1    8050 3750
	0    -1   -1   0   
$EndComp
Wire Wire Line
	7650 3500 7650 4200
Wire Wire Line
	8450 3500 8450 4200
Wire Wire Line
	8050 3600 8050 3500
$Comp
L Switch:SW_Push SW28
U 1 1 5AECB1D0
P 7850 3500
F 0 "SW28" H 7850 3650 50  0000 C BNN
F 1 "SW_Push" H 7850 3440 50  0001 C CNN
F 2 "ReSplit66:SW_Cherry_MX1A_1.00u_PCB_BothSides" H 7850 3700 50  0001 C CNN
F 3 "" H 7850 3700 50  0001 C CNN
	1    7850 3500
	1    0    0    -1  
$EndComp
$Comp
L Switch:SW_Push SW20
U 1 1 5AECB1B8
P 7850 2800
F 0 "SW20" H 7850 2950 50  0000 C BNN
F 1 "SW_Push" H 7850 2740 50  0001 C CNN
F 2 "ReSplit66:SW_Cherry_MX1A_1.00u_PCB_BothSides" H 7850 3000 50  0001 C CNN
F 3 "" H 7850 3000 50  0001 C CNN
	1    7850 2800
	1    0    0    -1  
$EndComp
$Comp
L Device:D D27
U 1 1 5AECB157
P 7250 3750
F 0 "D27" H 7250 3850 50  0000 C BNN
F 1 "D" H 7250 3650 50  0001 C CNN
F 2 "ReSplit66:D_SOD-123_BothSides" H 7250 3750 50  0001 C CNN
F 3 "" H 7250 3750 50  0001 C CNN
	1    7250 3750
	0    -1   -1   0   
$EndComp
Connection ~ 8050 3200
Connection ~ 7650 3500
Wire Wire Line
	7250 3200 8050 3200
Wire Wire Line
	7250 2900 7250 2800
Wire Wire Line
	8050 2900 8050 2800
Wire Wire Line
	9250 2100 9250 3500
$Comp
L Device:D D21
U 1 1 5AECC085
P 8850 3050
F 0 "D21" H 8850 3150 50  0000 C BNN
F 1 "D" H 8850 2950 50  0001 C CNN
F 2 "ReSplit66:D_SOD-123_BothSides" H 8850 3050 50  0001 C CNN
F 3 "" H 8850 3050 50  0001 C CNN
	1    8850 3050
	0    -1   -1   0   
$EndComp
Wire Wire Line
	8450 2100 8450 2800
Wire Wire Line
	8450 2800 8450 3500
Wire Wire Line
	8850 3600 8850 3500
Wire Wire Line
	8850 2900 8850 2800
Connection ~ 8850 2500
Wire Wire Line
	8850 2200 8850 2100
Wire Wire Line
	9650 2200 9650 2100
$Comp
L Device:D D14
U 1 1 5AECC0EC
P 9650 2350
F 0 "D14" H 9650 2450 50  0000 C BNN
F 1 "D" H 9650 2250 50  0001 C CNN
F 2 "ReSplit66:D_SOD-123_BothSides" H 9650 2350 50  0001 C CNN
F 3 "" H 9650 2350 50  0001 C CNN
	1    9650 2350
	0    -1   -1   0   
$EndComp
Connection ~ 9250 2100
Wire Wire Line
	8850 1800 9650 1800
$Comp
L Switch:SW_Push SW14
U 1 1 5AECC0E6
P 9450 2100
F 0 "SW14" H 9450 2250 50  0000 C BNN
F 1 "SW_Push" H 9450 2040 50  0001 C CNN
F 2 "ReSplit66:SW_Cherry_MX1A_1.50u_PCB_BothSides" H 9450 2300 50  0001 C CNN
F 3 "" H 9450 2300 50  0001 C CNN
	1    9450 2100
	-1   0    0    -1  
$EndComp
Wire Wire Line
	9650 1500 9650 1400
$Comp
L Device:D D6
U 1 1 5AECC0D4
P 9650 1650
F 0 "D6" H 9650 1750 50  0000 C BNN
F 1 "D" H 9650 1550 50  0001 C CNN
F 2 "ReSplit66:D_SOD-123_BothSides" H 9650 1650 50  0001 C CNN
F 3 "" H 9650 1650 50  0001 C CNN
	1    9650 1650
	0    -1   -1   0   
$EndComp
$Comp
L Switch:SW_Push SW6
U 1 1 5AECC0CE
P 9450 1400
F 0 "SW6" H 9450 1550 50  0000 C BNN
F 1 "SW_Push" H 9450 1340 50  0001 C CNN
F 2 "ReSplit66:SW_Cherry_MX1A_1.00u_PCB_BothSides" H 9450 1600 50  0001 C CNN
F 3 "" H 9450 1600 50  0001 C CNN
	1    9450 1400
	1    0    0    -1  
$EndComp
Connection ~ 8450 1400
$Comp
L Switch:SW_Push SW21
U 1 1 5AECC07F
P 8650 2800
F 0 "SW21" H 8650 2950 50  0000 C BNN
F 1 "SW_Push" H 8650 2740 50  0001 C CNN
F 2 "ReSplit66:SW_Cherry_MX1A_1.00u_PCB_BothSides" H 8650 3000 50  0001 C CNN
F 3 "" H 8650 3000 50  0001 C CNN
	1    8650 2800
	1    0    0    -1  
$EndComp
$Comp
L Device:D D20
U 1 1 5AECB1BE
P 8050 3050
F 0 "D20" H 8050 3150 50  0000 C BNN
F 1 "D" H 8050 2950 50  0001 C CNN
F 2 "ReSplit66:D_SOD-123_BothSides" H 8050 3050 50  0001 C CNN
F 3 "" H 8050 3050 50  0001 C CNN
	1    8050 3050
	0    -1   -1   0   
$EndComp
Wire Wire Line
	8050 2500 8850 2500
Wire Wire Line
	8850 2500 9650 2500
Connection ~ 8450 2800
Connection ~ 8050 2500
Wire Wire Line
	7650 2800 7650 3500
$Comp
L Device:D D12
U 1 1 5AECB1A6
P 8050 2350
F 0 "D12" H 8050 2450 50  0000 C BNN
F 1 "D" H 8050 2250 50  0001 C CNN
F 2 "ReSplit66:D_SOD-123_BothSides" H 8050 2350 50  0001 C CNN
F 3 "" H 8050 2350 50  0001 C CNN
	1    8050 2350
	0    -1   -1   0   
$EndComp
$Comp
L Switch:SW_Push SW13
U 1 1 5AECC067
P 8650 2100
F 0 "SW13" H 8650 2250 50  0000 C BNN
F 1 "SW_Push" H 8650 2040 50  0001 C CNN
F 2 "ReSplit66:SW_Cherry_MX1A_1.00u_PCB_BothSides" H 8650 2300 50  0001 C CNN
F 3 "" H 8650 2300 50  0001 C CNN
	1    8650 2100
	1    0    0    -1  
$EndComp
Wire Wire Line
	8050 1800 8850 1800
$Comp
L Device:D D13
U 1 1 5AECC06D
P 8850 2350
F 0 "D13" H 8850 2450 50  0000 C BNN
F 1 "D" H 8850 2250 50  0001 C CNN
F 2 "ReSplit66:D_SOD-123_BothSides" H 8850 2350 50  0001 C CNN
F 3 "" H 8850 2350 50  0001 C CNN
	1    8850 2350
	0    -1   -1   0   
$EndComp
Wire Wire Line
	7650 2100 7650 2800
Connection ~ 8450 2100
Wire Wire Line
	9250 1400 9250 2100
Connection ~ 9250 1400
$Comp
L Device:D D5
U 1 1 5AECC055
P 8850 1650
F 0 "D5" H 8850 1750 50  0000 C BNN
F 1 "D" H 8850 1550 50  0001 C CNN
F 2 "ReSplit66:D_SOD-123_BothSides" H 8850 1650 50  0001 C CNN
F 3 "" H 8850 1650 50  0001 C CNN
	1    8850 1650
	0    -1   -1   0   
$EndComp
Connection ~ 8850 1800
Wire Wire Line
	8850 1500 8850 1400
Wire Wire Line
	8050 2200 8050 2100
$Comp
L Switch:SW_Push SW5
U 1 1 5AECC04F
P 8650 1400
F 0 "SW5" H 8650 1550 50  0000 C BNN
F 1 "SW_Push" H 8650 1340 50  0001 C CNN
F 2 "ReSplit66:SW_Cherry_MX1A_1.00u_PCB_BothSides" H 8650 1600 50  0001 C CNN
F 3 "" H 8650 1600 50  0001 C CNN
	1    8650 1400
	1    0    0    -1  
$EndComp
Wire Wire Line
	8050 1500 8050 1400
$Comp
L Device:D D4
U 1 1 5AECB18E
P 8050 1650
F 0 "D4" H 8050 1750 50  0000 C BNN
F 1 "D" H 8050 1550 50  0001 C CNN
F 2 "ReSplit66:D_SOD-123_BothSides" H 8050 1650 50  0001 C CNN
F 3 "" H 8050 1650 50  0001 C CNN
	1    8050 1650
	0    -1   -1   0   
$EndComp
Connection ~ 8050 1800
Wire Wire Line
	8450 1400 8450 2100
Text Label 9250 950  0    60   ~ 0
col6
Text Label 8450 950  0    60   ~ 0
col5
Wire Wire Line
	9250 850  9250 1400
Wire Wire Line
	8450 850  8450 1400
Text Label 7650 950  0    60   ~ 0
col4
Wire Wire Line
	7650 850  7650 1400
$Comp
L Switch:SW_Push SW4
U 1 1 5AECB188
P 7850 1400
F 0 "SW4" H 7850 1550 50  0000 C BNN
F 1 "SW_Push" H 7850 1340 50  0001 C CNN
F 2 "ReSplit66:SW_Cherry_MX1A_1.00u_PCB_BothSides" H 7850 1600 50  0001 C CNN
F 3 "" H 7850 1600 50  0001 C CNN
	1    7850 1400
	1    0    0    -1  
$EndComp
Wire Wire Line
	6850 850  6850 1400
Text Label 6850 950  0    60   ~ 0
col3
$Comp
L Switch:SW_Push SW12
U 1 1 5AECB1A0
P 7850 2100
F 0 "SW12" H 7850 2250 50  0000 C BNN
F 1 "SW_Push" H 7850 2040 50  0001 C CNN
F 2 "ReSplit66:SW_Cherry_MX1A_1.00u_PCB_BothSides" H 7850 2300 50  0001 C CNN
F 3 "" H 7850 2300 50  0001 C CNN
	1    7850 2100
	1    0    0    -1  
$EndComp
Wire Wire Line
	6850 1400 6850 2100
Wire Wire Line
	7250 2200 7250 2100
$Comp
L Device:D D3
U 1 1 5AECB10F
P 7250 1650
F 0 "D3" H 7250 1750 50  0000 C BNN
F 1 "D" H 7250 1550 50  0001 C CNN
F 2 "ReSplit66:D_SOD-123_BothSides" H 7250 1650 50  0001 C CNN
F 3 "" H 7250 1650 50  0001 C CNN
	1    7250 1650
	0    -1   -1   0   
$EndComp
Wire Wire Line
	7250 2500 8050 2500
Wire Wire Line
	7250 1800 8050 1800
Wire Wire Line
	7650 1400 7650 2100
Wire Wire Line
	7250 1500 7250 1400
Connection ~ 7250 2500
$Comp
L Device:D D11
U 1 1 5AECB127
P 7250 2350
F 0 "D11" H 7250 2450 50  0000 C BNN
F 1 "D" H 7250 2250 50  0001 C CNN
F 2 "ReSplit66:D_SOD-123_BothSides" H 7250 2350 50  0001 C CNN
F 3 "" H 7250 2350 50  0001 C CNN
	1    7250 2350
	0    -1   -1   0   
$EndComp
Connection ~ 7650 2800
Wire Wire Line
	6850 2100 6850 2800
Connection ~ 7650 2100
$Comp
L Device:D D10
U 1 1 5AECAB64
P 6450 2350
F 0 "D10" H 6450 2450 50  0000 C BNN
F 1 "D" H 6450 2250 50  0001 C CNN
F 2 "ReSplit66:D_SOD-123_BothSides" H 6450 2350 50  0001 C CNN
F 3 "" H 6450 2350 50  0001 C CNN
	1    6450 2350
	0    -1   -1   0   
$EndComp
Wire Wire Line
	6050 2100 6050 2800
Connection ~ 6850 2800
Wire Wire Line
	6450 2900 6450 2800
Wire Wire Line
	6450 3200 7250 3200
Wire Wire Line
	6450 2200 6450 2100
Wire Wire Line
	6450 2500 7250 2500
$Comp
L Switch:SW_Push SW11
U 1 1 5AECB121
P 7050 2100
F 0 "SW11" H 7050 2250 50  0000 C BNN
F 1 "SW_Push" H 7050 2040 50  0001 C CNN
F 2 "ReSplit66:SW_Cherry_MX1A_1.00u_PCB_BothSides" H 7050 2300 50  0001 C CNN
F 3 "" H 7050 2300 50  0001 C CNN
	1    7050 2100
	1    0    0    -1  
$EndComp
$Comp
L Switch:SW_Push SW3
U 1 1 5AECB109
P 7050 1400
F 0 "SW3" H 7050 1550 50  0000 C BNN
F 1 "SW_Push" H 7050 1340 50  0001 C CNN
F 2 "ReSplit66:SW_Cherry_MX1A_1.00u_PCB_BothSides" H 7050 1600 50  0001 C CNN
F 3 "" H 7050 1600 50  0001 C CNN
	1    7050 1400
	1    0    0    -1  
$EndComp
$Comp
L Device:D D2
U 1 1 5AECAB4C
P 6450 1650
F 0 "D2" H 6450 1750 50  0000 C BNN
F 1 "D" H 6450 1550 50  0001 C CNN
F 2 "ReSplit66:D_SOD-123_BothSides" H 6450 1650 50  0001 C CNN
F 3 "" H 6450 1650 50  0001 C CNN
	1    6450 1650
	0    -1   -1   0   
$EndComp
Connection ~ 7650 1400
Connection ~ 7250 1800
Wire Wire Line
	6450 1800 7250 1800
Wire Wire Line
	6050 1400 6050 2100
Connection ~ 6850 1400
Connection ~ 6450 1800
Wire Wire Line
	6450 1500 6450 1400
$Comp
L Switch:SW_Push SW2
U 1 1 5AECAB46
P 6250 1400
F 0 "SW2" H 6250 1550 50  0000 C BNN
F 1 "SW_Push" H 6250 1340 50  0001 C CNN
F 2 "ReSplit66:SW_Cherry_MX1A_1.00u_PCB_BothSides" H 6250 1600 50  0001 C CNN
F 3 "" H 6250 1600 50  0001 C CNN
	1    6250 1400
	1    0    0    -1  
$EndComp
Connection ~ 6050 1400
Connection ~ 6850 2100
$Comp
L Switch:SW_Push SW10
U 1 1 5AECAB5E
P 6250 2100
F 0 "SW10" H 6250 2250 50  0000 C BNN
F 1 "SW_Push" H 6250 2040 50  0001 C CNN
F 2 "ReSplit66:SW_Cherry_MX1A_1.00u_PCB_BothSides" H 6250 2300 50  0001 C CNN
F 3 "" H 6250 2300 50  0001 C CNN
	1    6250 2100
	1    0    0    -1  
$EndComp
Wire Wire Line
	5650 2500 6450 2500
Wire Wire Line
	5650 1800 6450 1800
Connection ~ 6050 2100
$Comp
L Switch:SW_Push SW18
U 1 1 5AECAB76
P 6250 2800
F 0 "SW18" H 6250 2950 50  0000 C BNN
F 1 "SW_Push" H 6250 2740 50  0001 C CNN
F 2 "ReSplit66:SW_Cherry_MX1A_1.00u_PCB_BothSides" H 6250 3000 50  0001 C CNN
F 3 "" H 6250 3000 50  0001 C CNN
	1    6250 2800
	1    0    0    -1  
$EndComp
Text Label 6050 950  0    60   ~ 0
col2
Wire Wire Line
	6050 850  6050 1400
Wire Wire Line
	5250 850  5250 1400
Connection ~ 5650 1800
Text Label 5250 950  0    60   ~ 0
col1
$Comp
L Device:D D1
U 1 1 5AECA81D
P 5650 1650
F 0 "D1" H 5650 1750 50  0000 C BNN
F 1 "D" H 5650 1550 50  0001 C CNN
F 2 "ReSplit66:D_SOD-123_BothSides" H 5650 1650 50  0001 C CNN
F 3 "" H 5650 1650 50  0001 C CNN
	1    5650 1650
	0    -1   -1   0   
$EndComp
Wire Wire Line
	5250 1400 5250 2100
Connection ~ 5250 2100
Wire Wire Line
	5650 2200 5650 2100
Connection ~ 5250 1400
Wire Wire Line
	5650 1500 5650 1400
Connection ~ 5250 3500
Wire Wire Line
	5250 2800 5250 3500
Connection ~ 5650 3200
Connection ~ 6050 3500
Wire Wire Line
	5650 3200 6450 3200
Connection ~ 6050 2800
$Comp
L Device:D D19
U 1 1 5AECB13F
P 7250 3050
F 0 "D19" H 7250 3150 50  0000 C BNN
F 1 "D" H 7250 2950 50  0001 C CNN
F 2 "ReSplit66:D_SOD-123_BothSides" H 7250 3050 50  0001 C CNN
F 3 "" H 7250 3050 50  0001 C CNN
	1    7250 3050
	0    -1   -1   0   
$EndComp
Wire Wire Line
	7250 3600 7250 3500
$Comp
L Switch:SW_Push SW19
U 1 1 5AECB139
P 7050 2800
F 0 "SW19" H 7050 2950 50  0000 C BNN
F 1 "SW_Push" H 7050 2740 50  0001 C CNN
F 2 "ReSplit66:SW_Cherry_MX1A_1.00u_PCB_BothSides" H 7050 3000 50  0001 C CNN
F 3 "" H 7050 3000 50  0001 C CNN
	1    7050 2800
	1    0    0    -1  
$EndComp
$Comp
L Switch:SW_Push SW27
U 1 1 5AECB151
P 7050 3500
F 0 "SW27" H 7050 3650 50  0000 C BNN
F 1 "SW_Push" H 7050 3440 50  0001 C CNN
F 2 "ReSplit66:SW_Cherry_MX1A_1.00u_PCB_BothSides" H 7050 3700 50  0001 C CNN
F 3 "" H 7050 3700 50  0001 C CNN
	1    7050 3500
	1    0    0    -1  
$EndComp
$Comp
L Device:D D18
U 1 1 5AECAB7C
P 6450 3050
F 0 "D18" H 6450 3150 50  0000 C BNN
F 1 "D" H 6450 2950 50  0001 C CNN
F 2 "ReSplit66:D_SOD-123_BothSides" H 6450 3050 50  0001 C CNN
F 3 "" H 6450 3050 50  0001 C CNN
	1    6450 3050
	0    -1   -1   0   
$EndComp
$Comp
L Switch:SW_Push SW35
U 1 1 5AECB169
P 7050 4200
F 0 "SW35" H 7050 4350 50  0000 C BNN
F 1 "SW_Push" H 7050 4140 50  0001 C CNN
F 2 "ReSplit66:SW_Cherry_MX1A_1.00u_PCB_BothSides" H 7050 4400 50  0001 C CNN
F 3 "" H 7050 4400 50  0001 C CNN
	1    7050 4200
	1    0    0    -1  
$EndComp
Wire Wire Line
	6450 4600 7250 4600
Wire Wire Line
	6450 3900 7250 3900
Connection ~ 7250 3200
Wire Wire Line
	6850 2800 6850 3500
Connection ~ 6450 2500
Wire Wire Line
	6050 2800 6050 3500
Connection ~ 6450 3200
$Comp
L Device:D D17
U 1 1 5AECA84D
P 5650 3050
F 0 "D17" H 5650 3150 50  0000 C BNN
F 1 "D" H 5650 2950 50  0001 C CNN
F 2 "ReSplit66:D_SOD-123_BothSides" H 5650 3050 50  0001 C CNN
F 3 "" H 5650 3050 50  0001 C CNN
	1    5650 3050
	0    -1   -1   0   
$EndComp
Connection ~ 6850 3500
$Comp
L Device:D D26
U 1 1 5AECAB94
P 6450 3750
F 0 "D26" H 6450 3850 50  0000 C BNN
F 1 "D" H 6450 3650 50  0001 C CNN
F 2 "ReSplit66:D_SOD-123_BothSides" H 6450 3750 50  0001 C CNN
F 3 "" H 6450 3750 50  0001 C CNN
	1    6450 3750
	0    -1   -1   0   
$EndComp
Wire Wire Line
	6850 3500 6850 4200
Connection ~ 6450 3900
Wire Wire Line
	6450 3600 6450 3500
Wire Wire Line
	6050 3500 6050 4200
Wire Wire Line
	5650 3600 5650 3500
$Comp
L Switch:SW_Push SW26
U 1 1 5AECAB8E
P 6250 3500
F 0 "SW26" H 6250 3650 50  0000 C BNN
F 1 "SW_Push" H 6250 3440 50  0001 C CNN
F 2 "ReSplit66:SW_Cherry_MX1A_1.00u_PCB_BothSides" H 6250 3700 50  0001 C CNN
F 3 "" H 6250 3700 50  0001 C CNN
	1    6250 3500
	1    0    0    -1  
$EndComp
$Comp
L Device:D D25
U 1 1 5AECA865
P 5650 3750
F 0 "D25" H 5650 3850 50  0000 C BNN
F 1 "D" H 5650 3650 50  0001 C CNN
F 2 "ReSplit66:D_SOD-123_BothSides" H 5650 3750 50  0001 C CNN
F 3 "" H 5650 3750 50  0001 C CNN
	1    5650 3750
	0    -1   -1   0   
$EndComp
$Comp
L Switch:SW_Push SW25
U 1 1 5AECA85F
P 5450 3500
F 0 "SW25" H 5450 3650 50  0000 C BNN
F 1 "SW_Push" H 5450 3440 50  0001 C CNN
F 2 "ReSplit66:SW_Cherry_MX1A_1.00u_PCB_BothSides" H 5450 3700 50  0001 C CNN
F 3 "" H 5450 3700 50  0001 C CNN
	1    5450 3500
	1    0    0    -1  
$EndComp
Connection ~ 4850 3900
Connection ~ 5650 3900
Wire Wire Line
	4850 3900 5650 3900
$Comp
L Switch:SW_Push SW33
U 1 1 5E167ED6
P 5450 4200
F 0 "SW33" H 5450 4350 50  0000 C BNN
F 1 "SW_Push" H 5450 4140 50  0001 C CNN
F 2 "ReSplit66:SW_Cherry_MX1A_1.00u_PCB_BothSides" H 5450 4400 50  0001 C CNN
F 3 "" H 5450 4400 50  0001 C CNN
	1    5450 4200
	1    0    0    -1  
$EndComp
Wire Wire Line
	4850 4600 5650 4600
$Comp
L Device:D D24
U 1 1 5AEC96A0
P 4850 3750
F 0 "D24" H 4850 3850 50  0000 C BNN
F 1 "D" H 4850 3650 50  0001 C CNN
F 2 "ReSplit66:D_SOD-123_BothSides" H 4850 3750 50  0001 C CNN
F 3 "" H 4850 3750 50  0001 C CNN
	1    4850 3750
	0    -1   -1   0   
$EndComp
Wire Wire Line
	5250 3500 5250 4200
Wire Wire Line
	4450 3500 4450 4200
Text Label 4100 3900 0    60   ~ 0
row3
$Comp
L Switch:SW_Push SW32
U 1 1 5E1C5788
P 4650 4200
F 0 "SW32" H 4650 4350 50  0000 C BNN
F 1 "SW_Push" H 4650 4140 50  0001 C CNN
F 2 "ReSplit66:SW_Cherry_MX1A_1.00u_PCB_BothSides" H 4650 4400 50  0001 C CNN
F 3 "" H 4650 4400 50  0001 C CNN
	1    4650 4200
	1    0    0    -1  
$EndComp
$Comp
L Switch:SW_Push SW24
U 1 1 5AEC969A
P 4650 3500
F 0 "SW24" H 4650 3650 50  0000 C BNN
F 1 "SW_Push" H 4650 3440 50  0001 C CNN
F 2 "ReSplit66:SW_Cherry_MX1A_1.00u_PCB_BothSides" H 4650 3700 50  0001 C CNN
F 3 "" H 4650 3700 50  0001 C CNN
	1    4650 3500
	1    0    0    -1  
$EndComp
Wire Wire Line
	4850 4200 4850 4300
$Comp
L Device:D D32
U 1 1 5E167EC4
P 4850 4450
F 0 "D32" H 4850 4500 50  0000 C BNN
F 1 "D" H 4850 4350 50  0001 C CNN
F 2 "ReSplit66:D_SOD-123_BothSides" H 4850 4450 50  0001 C CNN
F 3 "" H 4850 4450 50  0001 C CNN
	1    4850 4450
	0    -1   -1   0   
$EndComp
Connection ~ 4850 4600
Wire Wire Line
	4100 3900 4850 3900
Wire Wire Line
	4100 4600 4850 4600
Text Label 4100 4600 0    60   ~ 0
row4
Connection ~ 4850 3200
Wire Wire Line
	4850 3600 4850 3500
Text Label 4100 3200 0    60   ~ 0
row2
Connection ~ 4450 3500
Wire Wire Line
	4100 3200 4850 3200
Wire Wire Line
	5650 4300 5650 4200
Wire Wire Line
	5650 3900 6450 3900
$Comp
L Device:D D34
U 1 1 5AECABAC
P 6450 4450
F 0 "D34" H 6450 4550 50  0000 C BNN
F 1 "D" H 6450 4350 50  0001 C CNN
F 2 "ReSplit66:D_SOD-123_BothSides" H 6450 4450 50  0001 C CNN
F 3 "" H 6450 4450 50  0001 C CNN
	1    6450 4450
	0    -1   -1   0   
$EndComp
Wire Wire Line
	6450 4300 6450 4200
$Comp
L Switch:SW_Push SW34
U 1 1 5AECABA6
P 6250 4200
F 0 "SW34" H 6250 4350 50  0000 C BNN
F 1 "SW_Push" H 6250 4140 50  0001 C CNN
F 2 "ReSplit66:SW_Cherry_MX1A_1.00u_PCB_BothSides" H 6250 4400 50  0001 C CNN
F 3 "" H 6250 4400 50  0001 C CNN
	1    6250 4200
	1    0    0    -1  
$EndComp
Wire Wire Line
	5650 4600 6450 4600
$Comp
L Device:D D33
U 1 1 5E167EE7
P 5650 4450
F 0 "D33" H 5650 4550 50  0000 C BNN
F 1 "D" H 5650 4350 50  0001 C CNN
F 2 "ReSplit66:D_SOD-123_BothSides" H 5650 4450 50  0001 C CNN
F 3 "" H 5650 4450 50  0001 C CNN
	1    5650 4450
	0    -1   -1   0   
$EndComp
Connection ~ 6450 4600
Wire Wire Line
	6600 5100 6600 5250
Connection ~ 5650 4600
Text Label 6150 6250 0    50   ~ 0
led2
$Comp
L power:+5V #PWR0101
U 1 1 5E0F10E6
P 6600 5000
F 0 "#PWR0101" H 6600 4850 50  0001 C CNN
F 1 "+5V" H 6600 5000 50  0000 L CNN
F 2 "" H 6600 5000 50  0001 C CNN
F 3 "" H 6600 5000 50  0001 C CNN
	1    6600 5000
	1    0    0    -1  
$EndComp
Wire Wire Line
	6600 5000 6600 5100
Connection ~ 6600 5100
Wire Wire Line
	5450 5100 6600 5100
Wire Wire Line
	5450 5250 5450 5100
Connection ~ 5450 5100
Wire Wire Line
	6150 6250 6300 6250
$Comp
L Device:LED D81
U 1 1 5E1C81D3
P 5450 5800
F 0 "D81" V 5489 5682 50  0000 R CNN
F 1 "GREEN" V 5398 5682 50  0000 R CNN
F 2 "LED_THT:LED_D3.0mm" H 5450 5800 50  0001 C CNN
F 3 "~" H 5450 5800 50  0001 C CNN
	1    5450 5800
	0    -1   -1   0   
$EndComp
Wire Wire Line
	5450 6600 6600 6600
Wire Wire Line
	5450 6450 5450 6600
Wire Wire Line
	5450 5550 5450 5650
Connection ~ 5450 6600
$Comp
L Device:R R82
U 1 1 5E13052A
P 6600 5400
F 0 "R82" H 6670 5446 50  0000 L CNN
F 1 "520" H 6670 5355 50  0000 L CNN
F 2 "Resistor_SMD:R_0603_1608Metric" V 6530 5400 50  0001 C CNN
F 3 "~" H 6600 5400 50  0001 C CNN
	1    6600 5400
	1    0    0    -1  
$EndComp
Wire Wire Line
	6600 5550 6600 5650
$Comp
L power:GND #PWR0102
U 1 1 5E16FE42
P 6600 6850
F 0 "#PWR0102" H 6600 6600 50  0001 C CNN
F 1 "GND" H 6605 6677 50  0000 C CNN
F 2 "" H 6600 6850 50  0001 C CNN
F 3 "" H 6600 6850 50  0001 C CNN
	1    6600 6850
	1    0    0    -1  
$EndComp
$Comp
L Device:LED D82
U 1 1 5E1C699E
P 6600 5800
F 0 "D82" V 6639 5682 50  0000 R CNN
F 1 "GREEN" V 6548 5682 50  0000 R CNN
F 2 "LED_THT:LED_D3.0mm" H 6600 5800 50  0001 C CNN
F 3 "~" H 6600 5800 50  0001 C CNN
	1    6600 5800
	0    -1   -1   0   
$EndComp
Wire Wire Line
	6600 6600 6600 6850
Wire Wire Line
	6600 6450 6600 6600
Connection ~ 6600 6600
$Comp
L Device:R R81
U 1 1 5E1301DB
P 5450 5400
F 0 "R81" H 5520 5446 50  0000 L CNN
F 1 "520" H 5520 5355 50  0000 L CNN
F 2 "Resistor_SMD:R_0603_1608Metric" V 5380 5400 50  0001 C CNN
F 3 "~" H 5450 5400 50  0001 C CNN
	1    5450 5400
	1    0    0    -1  
$EndComp
Text Label 5000 6250 0    50   ~ 0
led1
Wire Wire Line
	5000 6250 5150 6250
$Comp
L Device:D D9
U 1 1 5AECA835
P 5650 2350
F 0 "D9" H 5650 2450 50  0000 C BNN
F 1 "D" H 5650 2250 50  0001 C CNN
F 2 "ReSplit66:D_SOD-123_BothSides" H 5650 2350 50  0001 C CNN
F 3 "" H 5650 2350 50  0001 C CNN
	1    5650 2350
	0    -1   -1   0   
$EndComp
Connection ~ 5650 2500
$Comp
L Switch:SW_Push SW9
U 1 1 5AECA82F
P 5450 2100
F 0 "SW9" H 5450 2250 50  0000 C BNN
F 1 "SW_Push" H 5450 2040 50  0001 C CNN
F 2 "ReSplit66:SW_Cherry_MX1A_1.00u_PCB_BothSides" H 5450 2300 50  0001 C CNN
F 3 "" H 5450 2300 50  0001 C CNN
	1    5450 2100
	1    0    0    -1  
$EndComp
$Comp
L Switch:SW_Push SW17
U 1 1 5AECA847
P 5450 2800
F 0 "SW17" H 5450 2950 50  0000 C BNN
F 1 "SW_Push" H 5450 2740 50  0001 C CNN
F 2 "ReSplit66:SW_Cherry_MX1A_1.00u_PCB_BothSides" H 5450 3000 50  0001 C CNN
F 3 "" H 5450 3000 50  0001 C CNN
	1    5450 2800
	1    0    0    -1  
$EndComp
$Comp
L Device:D D8
U 1 1 5AEC9326
P 4850 2350
F 0 "D8" H 4850 2450 50  0000 C BNN
F 1 "D" H 4850 2250 50  0001 C CNN
F 2 "ReSplit66:D_SOD-123_BothSides" H 4850 2350 50  0001 C CNN
F 3 "" H 4850 2350 50  0001 C CNN
	1    4850 2350
	0    -1   -1   0   
$EndComp
Wire Wire Line
	4850 1800 5650 1800
$Comp
L Switch:SW_Push SW1
U 1 1 5AECA817
P 5450 1400
F 0 "SW1" H 5450 1550 50  0000 C BNN
F 1 "SW_Push" H 5450 1340 50  0001 C CNN
F 2 "ReSplit66:SW_Cherry_MX1A_1.00u_PCB_BothSides" H 5450 1600 50  0001 C CNN
F 3 "" H 5450 1600 50  0001 C CNN
	1    5450 1400
	1    0    0    -1  
$EndComp
$Comp
L Device:D D0
U 1 1 5AD20A4D
P 4850 1650
F 0 "D0" H 4850 1700 50  0000 C BNN
F 1 "D" H 4850 1550 50  0001 C CNN
F 2 "ReSplit66:D_SOD-123_BothSides" H 4850 1650 50  0001 C CNN
F 3 "" H 4850 1650 50  0001 C CNN
	1    4850 1650
	0    -1   -1   0   
$EndComp
Wire Wire Line
	5650 2900 5650 2800
Connection ~ 5250 2800
Wire Wire Line
	4850 3200 5650 3200
Wire Wire Line
	4850 2500 5650 2500
Wire Wire Line
	5250 2100 5250 2800
Connection ~ 4850 2500
Wire Wire Line
	4450 2100 4450 2800
Wire Wire Line
	4850 2200 4850 2100
Connection ~ 4450 2100
Wire Wire Line
	4850 2800 4850 2900
$Comp
L Device:D D16
U 1 1 5AEC9687
P 4850 3050
F 0 "D16" H 4850 3100 50  0000 C BNN
F 1 "D" H 4850 2950 50  0001 C CNN
F 2 "ReSplit66:D_SOD-123_BothSides" H 4850 3050 50  0001 C CNN
F 3 "" H 4850 3050 50  0001 C CNN
	1    4850 3050
	0    -1   -1   0   
$EndComp
Wire Wire Line
	4450 2800 4450 3500
Connection ~ 4450 2800
Wire Wire Line
	4850 1400 4850 1500
Wire Wire Line
	4450 850  4450 1400
Wire Wire Line
	4450 1400 4450 2100
Connection ~ 4850 1800
Text Label 4450 950  0    60   ~ 0
col0
$Comp
L Switch:SW_Push SW16
U 1 1 5E1C5145
P 4650 2800
F 0 "SW16" H 4650 2950 50  0000 C BNN
F 1 "SW_Push" H 4650 2740 50  0001 C CNN
F 2 "ReSplit66:SW_Cherry_MX1A_1.00u_PCB_BothSides" H 4650 3000 50  0001 C CNN
F 3 "" H 4650 3000 50  0001 C CNN
	1    4650 2800
	1    0    0    -1  
$EndComp
Text Label 4100 2500 0    60   ~ 0
row1
Wire Wire Line
	4100 2500 4850 2500
$Comp
L Switch:SW_Push SW8
U 1 1 5AEC9320
P 4650 2100
F 0 "SW8" H 4650 2250 50  0000 C BNN
F 1 "SW_Push" H 4650 2040 50  0001 C CNN
F 2 "ReSplit66:SW_Cherry_MX1A_1.00u_PCB_BothSides" H 4650 2300 50  0001 C CNN
F 3 "" H 4650 2300 50  0001 C CNN
	1    4650 2100
	1    0    0    -1  
$EndComp
Wire Wire Line
	4100 1800 4850 1800
$Comp
L Switch:SW_Push SW0
U 1 1 5E1C4AC1
P 4650 1400
F 0 "SW0" H 4650 1550 50  0000 C BNN
F 1 "SW_Push" H 4650 1340 50  0001 C CNN
F 2 "ReSplit66:SW_Cherry_MX1A_1.00u_PCB_BothSides" H 4650 1600 50  0001 C CNN
F 3 "" H 4650 1600 50  0001 C CNN
	1    4650 1400
	1    0    0    -1  
$EndComp
Connection ~ 4450 1400
Text Label 4100 1800 0    60   ~ 0
row0
Text Label 3250 2050 2    50   ~ 0
col5
Text Label 3250 1950 2    50   ~ 0
col6
Text Label 3250 2350 2    50   ~ 0
col2
Text Label 3250 2250 2    50   ~ 0
col3
Text Label 3250 2150 2    50   ~ 0
col4
Text Label 3250 3150 2    50   ~ 0
row4
Text Label 3250 3400 2    50   ~ 0
led0
Text Label 3250 3500 2    50   ~ 0
led1
Text Label 3250 3600 2    50   ~ 0
led2
Text Label 3250 3050 2    50   ~ 0
row3
Text Label 3250 2950 2    50   ~ 0
row2
Text Label 3250 2850 2    50   ~ 0
row1
Text Label 3250 2450 2    50   ~ 0
col1
Text Label 3250 2750 2    50   ~ 0
row0
Text Label 3250 2550 2    50   ~ 0
col0
Wire Wire Line
	2800 1650 2800 1200
Wire Wire Line
	2800 1200 2650 1200
Wire Wire Line
	2650 1100 2900 1100
Wire Wire Line
	2900 1100 2900 1750
$Sheet
S 1500 1000 1150 300 
U 5DDB8648
F0 "Usb Connection" 50
F1 "usbconn.sch" 50
F2 "mcuD+" B R 2650 1200 50 
F3 "mcuD-" B R 2650 1100 50 
$EndSheet
$Sheet
S 600  1550 700  300 
U 5E0F49C0
F0 "Board Link" 50
F1 "boardlink.sch" 50
F2 "SCL" B R 1300 1650 50 
F3 "SDA" B R 1300 1750 50 
$EndSheet
$Sheet
S 600  2100 700  600 
U 5E1338CE
F0 "Alim" 50
F1 "alim.sch" 50
$EndSheet
Wire Wire Line
	1300 1650 1500 1650
Wire Wire Line
	1500 1750 1300 1750
Wire Wire Line
	2650 1950 3250 1950
Wire Wire Line
	2650 2150 3250 2150
Wire Wire Line
	2650 2050 3250 2050
Wire Wire Line
	2650 2350 3250 2350
Wire Wire Line
	2650 2250 3250 2250
Wire Wire Line
	2650 1650 2800 1650
Wire Wire Line
	2900 1750 2650 1750
$Sheet
S 1500 1550 1150 2150
U 5E07FA78
F0 "CPU" 50
F1 "cpu.sch" 50
F2 "sda" B L 1500 1750 50 
F3 "col0" O R 2650 2550 50 
F4 "col1" O R 2650 2450 50 
F5 "col2" O R 2650 2350 50 
F6 "col3" O R 2650 2250 50 
F7 "col4" O R 2650 2150 50 
F8 "col5" O R 2650 2050 50 
F9 "col6" O R 2650 1950 50 
F10 "row0" I R 2650 2750 50 
F11 "row1" I R 2650 2850 50 
F12 "row2" I R 2650 2950 50 
F13 "row3" I R 2650 3050 50 
F14 "row4" I R 2650 3150 50 
F15 "led0" O R 2650 3400 50 
F16 "led1" O R 2650 3500 50 
F17 "led2" O R 2650 3600 50 
F18 "scl" B L 1500 1650 50 
F19 "usbD+" B R 2650 1650 50 
F20 "usbD-" B R 2650 1750 50 
$EndSheet
Wire Wire Line
	2650 3050 3250 3050
Wire Wire Line
	2650 3150 3250 3150
Wire Wire Line
	2650 3400 3250 3400
Wire Wire Line
	2650 3500 3250 3500
Wire Wire Line
	2650 3600 3250 3600
Wire Wire Line
	2650 2450 3250 2450
Wire Wire Line
	2650 2550 3250 2550
Wire Wire Line
	3250 2750 2650 2750
Wire Wire Line
	3250 2850 2650 2850
Wire Wire Line
	2650 2950 3250 2950
Wire Wire Line
	4300 5100 4300 5250
Wire Wire Line
	4300 5100 5450 5100
Wire Wire Line
	4300 6600 5450 6600
Text Label 3850 6250 0    50   ~ 0
led0
Wire Wire Line
	3850 6250 4000 6250
$Comp
L Device:R R80
U 1 1 5E0F4E4F
P 4300 5400
F 0 "R80" H 4370 5446 50  0000 L CNN
F 1 "520" H 4370 5355 50  0000 L CNN
F 2 "Resistor_SMD:R_0603_1608Metric" V 4230 5400 50  0001 C CNN
F 3 "~" H 4300 5400 50  0001 C CNN
	1    4300 5400
	1    0    0    -1  
$EndComp
$Comp
L Device:LED D80
U 1 1 5E1C85CA
P 4300 5800
F 0 "D80" V 4339 5682 50  0000 R CNN
F 1 "GREEN" V 4248 5682 50  0000 R CNN
F 2 "LED_THT:LED_D3.0mm" H 4300 5800 50  0001 C CNN
F 3 "~" H 4300 5800 50  0001 C CNN
	1    4300 5800
	0    -1   -1   0   
$EndComp
Wire Wire Line
	4300 5550 4300 5650
Wire Wire Line
	4300 6450 4300 6600
Text Notes 600  7650 0    75   ~ 0
Keyboard matrix adapted to support TypeFauvix layout without first and last line.\nThis is a symetric derivative of TypeMatrix orthogonal layout for BÉPO.\nSee https://bepo.fr/wiki/TypeFauvix\n
Text Notes 600  7000 0    75   ~ 0
Possible options:\n- Small USB HUB board below keyboard board\n- Oled SPI or I2C display\n- RGB underglow using MOSI (now supported by QMK on ARM platform)\n
Wire Wire Line
	6600 5950 6600 6050
Wire Wire Line
	5450 5950 5450 6050
Wire Wire Line
	4300 5950 4300 6050
$Comp
L Mechanical:MountingHole MK10
U 1 1 5ED597AA
P 9950 6150
F 0 "MK10" H 9950 6350 50  0000 C BNN
F 1 "Mounting_Hole" H 9950 6275 50  0000 C CNN
F 2 "MountingHole:MountingHole_2.2mm_M2" H 9950 6150 50  0001 C CNN
F 3 "" H 9950 6150 50  0001 C CNN
	1    9950 6150
	1    0    0    -1  
$EndComp
$Comp
L Mechanical:MountingHole MK11
U 1 1 5EDA01B6
P 10550 6150
F 0 "MK11" H 10550 6350 50  0000 C BNN
F 1 "Mounting_Hole" H 10550 6275 50  0000 C CNN
F 2 "MountingHole:MountingHole_2.2mm_M2" H 10550 6150 50  0001 C CNN
F 3 "" H 10550 6150 50  0001 C CNN
	1    10550 6150
	1    0    0    -1  
$EndComp
$Comp
L Device:Q_NMOS_GSD Q80
U 1 1 60F3813A
P 4200 6250
F 0 "Q80" H 4405 6296 50  0000 L CNN
F 1 "DMN63D8L" H 4405 6205 50  0000 L CNN
F 2 "Package_TO_SOT_SMD:SOT-23" H 4400 6350 50  0001 C CNN
F 3 "~" H 4200 6250 50  0001 C CNN
	1    4200 6250
	1    0    0    -1  
$EndComp
$Comp
L Device:Q_NMOS_GSD Q81
U 1 1 60F39059
P 5350 6250
F 0 "Q81" H 5555 6296 50  0000 L CNN
F 1 "DNM63D8L" H 5555 6205 50  0000 L CNN
F 2 "Package_TO_SOT_SMD:SOT-23" H 5550 6350 50  0001 C CNN
F 3 "~" H 5350 6250 50  0001 C CNN
	1    5350 6250
	1    0    0    -1  
$EndComp
$Comp
L Device:Q_NMOS_GSD Q82
U 1 1 60F3A035
P 6500 6250
F 0 "Q82" H 6705 6296 50  0000 L CNN
F 1 "DNM63D8L" H 6705 6205 50  0000 L CNN
F 2 "Package_TO_SOT_SMD:SOT-23" H 6700 6350 50  0001 C CNN
F 3 "~" H 6500 6250 50  0001 C CNN
	1    6500 6250
	1    0    0    -1  
$EndComp
$EndSCHEMATC
