(module LED_SK6805_PLCC4_2.4x2.7mm_P1.3mm_BothSide (layer F.Cu) (tedit 5FE9E7C1)
  (descr https://cdn-shop.adafruit.com/product-files/3484/3484_Datasheet.pdf)
  (tags "LED RGB NeoPixel Nano")
  (attr smd)
  (fp_text reference REF** (at 0 -2.2) (layer F.SilkS)
    (effects (font (size 1 1) (thickness 0.15)))
  )
  (fp_text value LED_SK6805_PLCC4_2.4x2.7mm_P1.3mm_BothSide (at 0 2.7) (layer F.Fab)
    (effects (font (size 1 1) (thickness 0.15)))
  )
  (fp_text user 1 (at -2.15 0.65) (layer B.SilkS)
    (effects (font (size 0.75 0.75) (thickness 0.12)) (justify mirror))
  )
  (fp_text user %R (at 0 0) (layer F.Fab)
    (effects (font (size 0.4 0.4) (thickness 0.08)))
  )
  (fp_text user 1 (at -2.15 -0.65) (layer F.SilkS)
    (effects (font (size 0.75 0.75) (thickness 0.12)))
  )
  (fp_circle (center 0 0) (end 0 -1) (layer F.Fab) (width 0.1))
  (fp_line (start -1.9 1.4) (end -1.9 0.65) (layer F.SilkS) (width 0.12))
  (fp_line (start -1.9 1.4) (end 1.9 1.4) (layer F.SilkS) (width 0.12))
  (fp_line (start -1.9 -1.4) (end 1.9 -1.4) (layer F.SilkS) (width 0.12))
  (fp_line (start 1.35 -1.2) (end -1.35 -1.2) (layer F.Fab) (width 0.1))
  (fp_line (start 1.35 1.2) (end 1.35 -1.2) (layer F.Fab) (width 0.1))
  (fp_line (start -1.35 1.2) (end 1.35 1.2) (layer F.Fab) (width 0.1))
  (fp_line (start -1.35 -1.2) (end -1.35 1.2) (layer F.Fab) (width 0.1))
  (fp_line (start -1.35 0.6) (end -0.75 1.2) (layer F.Fab) (width 0.1))
  (fp_line (start -1.75 -1.45) (end -1.75 1.45) (layer F.CrtYd) (width 0.05))
  (fp_line (start -1.75 1.45) (end 1.75 1.45) (layer F.CrtYd) (width 0.05))
  (fp_line (start 1.75 1.45) (end 1.75 -1.45) (layer F.CrtYd) (width 0.05))
  (fp_line (start 1.75 -1.45) (end -1.75 -1.45) (layer F.CrtYd) (width 0.05))
  (fp_line (start -1.9 1.4) (end 1.9 1.4) (layer B.SilkS) (width 0.12))
  (fp_line (start -1.9 -1.4) (end 1.9 -1.4) (layer B.SilkS) (width 0.12))
  (fp_line (start -1.9 -1.4) (end -1.9 -0.65) (layer B.SilkS) (width 0.12))
  (pad 3 smd rect (at 1 -0.65) (size 1 0.6) (layers B.Cu B.Paste B.Mask))
  (pad 4 smd rect (at 1 0.65) (size 1 0.6) (layers B.Cu B.Paste B.Mask))
  (pad 2 smd rect (at -1 -0.65) (size 1 0.6) (layers B.Cu B.Paste B.Mask))
  (pad 1 smd rect (at -1 0.65) (size 1 0.6) (layers B.Cu B.Paste B.Mask))
  (pad 1 smd rect (at -1 -0.65) (size 1 0.6) (layers F.Cu F.Paste F.Mask))
  (pad 2 smd rect (at -1 0.65) (size 1 0.6) (layers F.Cu F.Paste F.Mask))
  (pad 4 smd rect (at 1 -0.65) (size 1 0.6) (layers F.Cu F.Paste F.Mask))
  (pad 3 smd rect (at 1 0.65) (size 1 0.6) (layers F.Cu F.Paste F.Mask))
  (model ${KISYS3DMOD}/LED_SMD.3dshapes/LED_SK6805_PLCC4_2.4x2.7mm_P1.3mm.wrl
    (at (xyz 0 0 0))
    (scale (xyz 1 1 1))
    (rotate (xyz 0 0 0))
  )
)
