(module SW_Cherry_MX1A_1.00u_PCB_BothSides (layer F.Cu) (tedit 5ECA4CB2)
  (descr "Cherry MX keyswitch, MX1A, 1.00u, PCB mount, http://cherryamericas.com/wp-content/uploads/2014/12/mx_cat.pdf")
  (tags "cherry mx keyswitch MX1A 1.00u PCB")
  (fp_text reference REF** (at 0 -7.874) (layer F.SilkS)
    (effects (font (size 1 1) (thickness 0.15)))
  )
  (fp_text value SW_Cherry_MX1A_1.00u_PCB_BothSides (at 0 7.874) (layer F.Fab)
    (effects (font (size 1 1) (thickness 0.15)))
  )
  (fp_line (start -7 -7) (end -7 -4) (layer B.SilkS) (width 0.12))
  (fp_line (start -4 -7) (end -7 -7) (layer B.SilkS) (width 0.12))
  (fp_line (start -7 7) (end -7 4) (layer B.SilkS) (width 0.12))
  (fp_line (start -4 7) (end -7 7) (layer B.SilkS) (width 0.12))
  (fp_line (start 7 7) (end 4 7) (layer B.SilkS) (width 0.12))
  (fp_line (start 7 4) (end 7 7) (layer B.SilkS) (width 0.12))
  (fp_line (start 7 -7) (end 7 -4) (layer B.SilkS) (width 0.12))
  (fp_line (start 4 -7) (end 7 -7) (layer B.SilkS) (width 0.12))
  (fp_line (start -7 -7) (end -7 -4) (layer F.SilkS) (width 0.12))
  (fp_line (start -4 -7) (end -7 -7) (layer F.SilkS) (width 0.12))
  (fp_line (start -7 7) (end -7 4) (layer F.SilkS) (width 0.12))
  (fp_line (start -4 7) (end -7 7) (layer F.SilkS) (width 0.12))
  (fp_line (start 7 7) (end 4 7) (layer F.SilkS) (width 0.12))
  (fp_line (start 7 4) (end 7 7) (layer F.SilkS) (width 0.12))
  (fp_line (start 7 -7) (end 7 -4) (layer F.SilkS) (width 0.12))
  (fp_line (start 4 -7) (end 7 -7) (layer F.SilkS) (width 0.12))
  (fp_text user %R (at 0 -7.874) (layer B.SilkS)
    (effects (font (size 1 1) (thickness 0.15)) (justify mirror))
  )
  (fp_text user %R (at 0 -7.874) (layer F.Fab)
    (effects (font (size 1 1) (thickness 0.15)))
  )
  (fp_line (start -6.35 -6.35) (end 6.35 -6.35) (layer F.Fab) (width 0.15))
  (fp_line (start 6.35 -6.35) (end 6.35 6.35) (layer F.Fab) (width 0.15))
  (fp_line (start 6.35 6.35) (end -6.35 6.35) (layer F.Fab) (width 0.15))
  (fp_line (start -6.35 6.35) (end -6.35 -6.35) (layer F.Fab) (width 0.15))
  (fp_line (start -6.6 6.6) (end -6.6 -6.6) (layer F.CrtYd) (width 0.05))
  (fp_line (start 6.6 -6.6) (end 6.6 6.6) (layer F.CrtYd) (width 0.05))
  (fp_line (start -6.6 -6.6) (end 6.6 -6.6) (layer F.CrtYd) (width 0.05))
  (fp_line (start -9.525 -9.525) (end 9.525 -9.525) (layer Dwgs.User) (width 0.15))
  (fp_line (start 9.525 -9.525) (end 9.525 9.525) (layer Dwgs.User) (width 0.15))
  (fp_line (start 9.525 9.525) (end -9.525 9.525) (layer Dwgs.User) (width 0.15))
  (fp_line (start -9.525 9.525) (end -9.525 -9.525) (layer Dwgs.User) (width 0.15))
  (fp_line (start -6.6 6.6) (end 6.6 6.6) (layer F.CrtYd) (width 0.05))
  (pad 2 thru_hole circle (at 2.54 -5.08) (size 2.2 2.2) (drill 1.5) (layers *.Cu *.Mask))
  (pad 1 thru_hole circle (at -3.81 -2.54) (size 2.2 2.2) (drill 1.5) (layers *.Cu *.Mask))
  (pad "" np_thru_hole circle (at 0 0) (size 4 4) (drill 4) (layers *.Cu *.Mask))
  (pad "" np_thru_hole circle (at -5.08 0) (size 1.7 1.7) (drill 1.7) (layers *.Cu *.Mask))
  (pad "" np_thru_hole circle (at 5.08 0) (size 1.7 1.7) (drill 1.7) (layers *.Cu *.Mask))
  (pad 1 thru_hole circle (at -2.54 -5.08) (size 2.2 2.2) (drill 1.5) (layers *.Cu *.Mask))
  (pad 2 thru_hole circle (at 3.81 -2.54) (size 2.2 2.2) (drill 1.5) (layers *.Cu *.Mask))
  (pad "" np_thru_hole oval (at 0 5.08) (size 6 4) (drill oval 6 4) (layers *.Cu *.Mask))
  (model ${KIPRJMOD}/3dshapes/asm_mx_asm_PLATE.stp
    (offset (xyz 0.3 0.3 5.5))
    (scale (xyz 1 1 1))
    (rotate (xyz -180 0 90))
  )
  (model ${KIPRJMOD}/3dshapes/DSA_1u.step
    (offset (xyz 0 0 11.75))
    (scale (xyz 1 1 1))
    (rotate (xyz -90 0 0))
  )
)
