(module Tact_Switch_Side_Boss_B3U-3000P-B_BothSides_HandSolder (layer F.Cu) (tedit 5EB41850)
  (solder_paste_ratio -0.1)
  (fp_text reference REF** (at -2.25 0 90) (layer F.SilkS)
    (effects (font (size 1 1) (thickness 0.15)))
  )
  (fp_text value Tact_Switch_Side_Boss_B3U-3000P-B_BothSides_HandSolder (at 3 0 90) (layer F.Fab)
    (effects (font (size 1 1) (thickness 0.15)))
  )
  (fp_text user %R (at -2.25 0 90) (layer B.SilkS)
    (effects (font (size 1 1) (thickness 0.15)) (justify mirror))
  )
  (fp_line (start 1.55 -0.85) (end 1.55 0.85) (layer F.SilkS) (width 0.15))
  (fp_line (start 1.25 0.85) (end 1.25 -0.85) (layer F.SilkS) (width 0.15))
  (fp_line (start 1.55 -0.85) (end 1.25 -0.85) (layer F.SilkS) (width 0.15))
  (fp_line (start 1.95 -0.45) (end 1.55 -0.85) (layer F.SilkS) (width 0.15))
  (fp_line (start 1.95 0.45) (end 1.95 -0.45) (layer F.SilkS) (width 0.15))
  (fp_line (start 1.55 0.85) (end 1.95 0.45) (layer F.SilkS) (width 0.15))
  (fp_line (start 1.25 0.85) (end 1.55 0.85) (layer F.SilkS) (width 0.15))
  (fp_line (start 1.25 1.5) (end 1.25 0.85) (layer F.SilkS) (width 0.15))
  (fp_line (start -1.45 -2.2) (end 2.15 -2.2) (layer F.CrtYd) (width 0.05))
  (fp_line (start -1.45 2.2) (end -1.45 -2.2) (layer F.CrtYd) (width 0.05))
  (fp_line (start 2.15 2.2) (end -1.45 2.2) (layer F.CrtYd) (width 0.05))
  (fp_line (start 2.15 -2.2) (end 2.15 2.2) (layer F.CrtYd) (width 0.05))
  (fp_line (start -1.25 1.65) (end -0.95 1.65) (layer F.SilkS) (width 0.15))
  (fp_line (start -1.25 -1.6) (end -0.95 -1.6) (layer F.SilkS) (width 0.15))
  (fp_line (start 1.25 1.5) (end 0.95 1.5) (layer F.SilkS) (width 0.15))
  (fp_line (start 1.25 -1.5) (end 0.95 -1.5) (layer F.SilkS) (width 0.15))
  (fp_line (start -1.25 -1.6) (end -1.25 1.65) (layer F.SilkS) (width 0.15))
  (fp_line (start 1.25 -1.5) (end 1.25 -0.85) (layer F.SilkS) (width 0.15))
  (pad 1 smd rect (at 0 -2.2 270) (size 1.8 1.7) (layers F.Cu F.Paste F.Mask))
  (pad 2 smd rect (at 0 2.2 270) (size 1.8 1.7) (layers F.Cu F.Paste F.Mask))
  (pad "" np_thru_hole circle (at 0 0 270) (size 0.75 0.75) (drill 0.75) (layers *.Cu))
  (pad 1 smd rect (at 0 -2.2 270) (size 1.8 1.7) (layers B.Cu B.Paste B.Mask))
  (pad 2 smd rect (at 0 2.2 270) (size 1.8 1.7) (layers B.Cu B.Paste B.Mask))
  (model "${KIPRJMOD}/3dshapes/Reset Switch-b3u_B3U-3000P(M)-B.step"
    (at (xyz 0 0 0))
    (scale (xyz 1 1 1))
    (rotate (xyz -90 0 -90))
  )
)
