G04 #@! TF.GenerationSoftware,KiCad,Pcbnew,5.1.8-db9833491~88~ubuntu20.04.1*
G04 #@! TF.CreationDate,2020-12-05T14:54:35+01:00*
G04 #@! TF.ProjectId,resplit66,72657370-6c69-4743-9636-2e6b69636164,1*
G04 #@! TF.SameCoordinates,Original*
G04 #@! TF.FileFunction,Paste,Top*
G04 #@! TF.FilePolarity,Positive*
%FSLAX46Y46*%
G04 Gerber Fmt 4.6, Leading zero omitted, Abs format (unit mm)*
G04 Created by KiCad (PCBNEW 5.1.8-db9833491~88~ubuntu20.04.1) date 2020-12-05 14:54:35*
%MOMM*%
%LPD*%
G01*
G04 APERTURE LIST*
%ADD10R,1.900000X1.900000*%
%ADD11R,1.350000X0.400000*%
%ADD12R,0.800000X0.900000*%
%ADD13R,1.000000X0.700000*%
%ADD14R,0.300000X0.700000*%
%ADD15R,1.060000X0.650000*%
%ADD16R,1.200000X0.900000*%
%ADD17R,1.360000X1.440000*%
%ADD18R,0.900000X1.200000*%
%ADD19C,0.127000*%
G04 APERTURE END LIST*
D10*
X191900000Y-54464000D03*
X191900000Y-46364000D03*
X191900000Y-49214000D03*
X191900000Y-51614000D03*
D11*
X189225000Y-49114000D03*
X189225000Y-49764000D03*
X189225000Y-50414000D03*
X189225000Y-51064000D03*
X189225000Y-51714000D03*
D12*
X69652000Y-58526000D03*
X68702000Y-56526000D03*
X70602000Y-56526000D03*
D13*
X72625000Y-46240000D03*
D14*
X71775000Y-46240000D03*
X71275000Y-46240000D03*
X70775000Y-46240000D03*
X70275000Y-46240000D03*
X69775000Y-46240000D03*
X69275000Y-46240000D03*
X68775000Y-46240000D03*
X68275000Y-46240000D03*
X67775000Y-46240000D03*
X67275000Y-46240000D03*
D13*
X66425000Y-46240000D03*
D14*
X67025000Y-47540000D03*
X68525000Y-47540000D03*
X68025000Y-47540000D03*
X67525000Y-47540000D03*
X66525000Y-47540000D03*
X69025000Y-47540000D03*
X70025000Y-47540000D03*
X70525000Y-47540000D03*
X71025000Y-47540000D03*
X71525000Y-47540000D03*
X72025000Y-47540000D03*
X72525000Y-47540000D03*
D15*
X182852000Y-49398000D03*
X182852000Y-50348000D03*
X182852000Y-48448000D03*
X185052000Y-48448000D03*
X185052000Y-49398000D03*
X185052000Y-50348000D03*
X74435000Y-53589000D03*
X74435000Y-52639000D03*
X74435000Y-54539000D03*
X72235000Y-54539000D03*
X72235000Y-53589000D03*
X72235000Y-52639000D03*
G36*
G01*
X65875000Y-57976000D02*
X66825000Y-57976000D01*
G75*
G02*
X67075000Y-58226000I0J-250000D01*
G01*
X67075000Y-58726000D01*
G75*
G02*
X66825000Y-58976000I-250000J0D01*
G01*
X65875000Y-58976000D01*
G75*
G02*
X65625000Y-58726000I0J250000D01*
G01*
X65625000Y-58226000D01*
G75*
G02*
X65875000Y-57976000I250000J0D01*
G01*
G37*
G36*
G01*
X65875000Y-56076000D02*
X66825000Y-56076000D01*
G75*
G02*
X67075000Y-56326000I0J-250000D01*
G01*
X67075000Y-56826000D01*
G75*
G02*
X66825000Y-57076000I-250000J0D01*
G01*
X65875000Y-57076000D01*
G75*
G02*
X65625000Y-56826000I0J250000D01*
G01*
X65625000Y-56326000D01*
G75*
G02*
X65875000Y-56076000I250000J0D01*
G01*
G37*
G36*
G01*
X82652516Y-49608736D02*
X81715600Y-48671820D01*
G75*
G02*
X81715600Y-48565754I53033J53033D01*
G01*
X81821666Y-48459688D01*
G75*
G02*
X81927732Y-48459688I53033J-53033D01*
G01*
X82864648Y-49396604D01*
G75*
G02*
X82864648Y-49502670I-53033J-53033D01*
G01*
X82758582Y-49608736D01*
G75*
G02*
X82652516Y-49608736I-53033J53033D01*
G01*
G37*
G36*
G01*
X83006070Y-49255182D02*
X82069154Y-48318266D01*
G75*
G02*
X82069154Y-48212200I53033J53033D01*
G01*
X82175220Y-48106134D01*
G75*
G02*
X82281286Y-48106134I53033J-53033D01*
G01*
X83218202Y-49043050D01*
G75*
G02*
X83218202Y-49149116I-53033J-53033D01*
G01*
X83112136Y-49255182D01*
G75*
G02*
X83006070Y-49255182I-53033J53033D01*
G01*
G37*
G36*
G01*
X83359623Y-48901629D02*
X82422707Y-47964713D01*
G75*
G02*
X82422707Y-47858647I53033J53033D01*
G01*
X82528773Y-47752581D01*
G75*
G02*
X82634839Y-47752581I53033J-53033D01*
G01*
X83571755Y-48689497D01*
G75*
G02*
X83571755Y-48795563I-53033J-53033D01*
G01*
X83465689Y-48901629D01*
G75*
G02*
X83359623Y-48901629I-53033J53033D01*
G01*
G37*
G36*
G01*
X83713177Y-48548075D02*
X82776261Y-47611159D01*
G75*
G02*
X82776261Y-47505093I53033J53033D01*
G01*
X82882327Y-47399027D01*
G75*
G02*
X82988393Y-47399027I53033J-53033D01*
G01*
X83925309Y-48335943D01*
G75*
G02*
X83925309Y-48442009I-53033J-53033D01*
G01*
X83819243Y-48548075D01*
G75*
G02*
X83713177Y-48548075I-53033J53033D01*
G01*
G37*
G36*
G01*
X84066730Y-48194522D02*
X83129814Y-47257606D01*
G75*
G02*
X83129814Y-47151540I53033J53033D01*
G01*
X83235880Y-47045474D01*
G75*
G02*
X83341946Y-47045474I53033J-53033D01*
G01*
X84278862Y-47982390D01*
G75*
G02*
X84278862Y-48088456I-53033J-53033D01*
G01*
X84172796Y-48194522D01*
G75*
G02*
X84066730Y-48194522I-53033J53033D01*
G01*
G37*
G36*
G01*
X84420283Y-47840969D02*
X83483367Y-46904053D01*
G75*
G02*
X83483367Y-46797987I53033J53033D01*
G01*
X83589433Y-46691921D01*
G75*
G02*
X83695499Y-46691921I53033J-53033D01*
G01*
X84632415Y-47628837D01*
G75*
G02*
X84632415Y-47734903I-53033J-53033D01*
G01*
X84526349Y-47840969D01*
G75*
G02*
X84420283Y-47840969I-53033J53033D01*
G01*
G37*
G36*
G01*
X84773837Y-47487415D02*
X83836921Y-46550499D01*
G75*
G02*
X83836921Y-46444433I53033J53033D01*
G01*
X83942987Y-46338367D01*
G75*
G02*
X84049053Y-46338367I53033J-53033D01*
G01*
X84985969Y-47275283D01*
G75*
G02*
X84985969Y-47381349I-53033J-53033D01*
G01*
X84879903Y-47487415D01*
G75*
G02*
X84773837Y-47487415I-53033J53033D01*
G01*
G37*
G36*
G01*
X85127390Y-47133862D02*
X84190474Y-46196946D01*
G75*
G02*
X84190474Y-46090880I53033J53033D01*
G01*
X84296540Y-45984814D01*
G75*
G02*
X84402606Y-45984814I53033J-53033D01*
G01*
X85339522Y-46921730D01*
G75*
G02*
X85339522Y-47027796I-53033J-53033D01*
G01*
X85233456Y-47133862D01*
G75*
G02*
X85127390Y-47133862I-53033J53033D01*
G01*
G37*
G36*
G01*
X85480943Y-46780309D02*
X84544027Y-45843393D01*
G75*
G02*
X84544027Y-45737327I53033J53033D01*
G01*
X84650093Y-45631261D01*
G75*
G02*
X84756159Y-45631261I53033J-53033D01*
G01*
X85693075Y-46568177D01*
G75*
G02*
X85693075Y-46674243I-53033J-53033D01*
G01*
X85587009Y-46780309D01*
G75*
G02*
X85480943Y-46780309I-53033J53033D01*
G01*
G37*
G36*
G01*
X85834497Y-46426755D02*
X84897581Y-45489839D01*
G75*
G02*
X84897581Y-45383773I53033J53033D01*
G01*
X85003647Y-45277707D01*
G75*
G02*
X85109713Y-45277707I53033J-53033D01*
G01*
X86046629Y-46214623D01*
G75*
G02*
X86046629Y-46320689I-53033J-53033D01*
G01*
X85940563Y-46426755D01*
G75*
G02*
X85834497Y-46426755I-53033J53033D01*
G01*
G37*
G36*
G01*
X86188050Y-46073202D02*
X85251134Y-45136286D01*
G75*
G02*
X85251134Y-45030220I53033J53033D01*
G01*
X85357200Y-44924154D01*
G75*
G02*
X85463266Y-44924154I53033J-53033D01*
G01*
X86400182Y-45861070D01*
G75*
G02*
X86400182Y-45967136I-53033J-53033D01*
G01*
X86294116Y-46073202D01*
G75*
G02*
X86188050Y-46073202I-53033J53033D01*
G01*
G37*
G36*
G01*
X86541604Y-45719648D02*
X85604688Y-44782732D01*
G75*
G02*
X85604688Y-44676666I53033J53033D01*
G01*
X85710754Y-44570600D01*
G75*
G02*
X85816820Y-44570600I53033J-53033D01*
G01*
X86753736Y-45507516D01*
G75*
G02*
X86753736Y-45613582I-53033J-53033D01*
G01*
X86647670Y-45719648D01*
G75*
G02*
X86541604Y-45719648I-53033J53033D01*
G01*
G37*
G36*
G01*
X87708330Y-45719648D02*
X87602264Y-45613582D01*
G75*
G02*
X87602264Y-45507516I53033J53033D01*
G01*
X88539180Y-44570600D01*
G75*
G02*
X88645246Y-44570600I53033J-53033D01*
G01*
X88751312Y-44676666D01*
G75*
G02*
X88751312Y-44782732I-53033J-53033D01*
G01*
X87814396Y-45719648D01*
G75*
G02*
X87708330Y-45719648I-53033J53033D01*
G01*
G37*
G36*
G01*
X88061884Y-46073202D02*
X87955818Y-45967136D01*
G75*
G02*
X87955818Y-45861070I53033J53033D01*
G01*
X88892734Y-44924154D01*
G75*
G02*
X88998800Y-44924154I53033J-53033D01*
G01*
X89104866Y-45030220D01*
G75*
G02*
X89104866Y-45136286I-53033J-53033D01*
G01*
X88167950Y-46073202D01*
G75*
G02*
X88061884Y-46073202I-53033J53033D01*
G01*
G37*
G36*
G01*
X88415437Y-46426755D02*
X88309371Y-46320689D01*
G75*
G02*
X88309371Y-46214623I53033J53033D01*
G01*
X89246287Y-45277707D01*
G75*
G02*
X89352353Y-45277707I53033J-53033D01*
G01*
X89458419Y-45383773D01*
G75*
G02*
X89458419Y-45489839I-53033J-53033D01*
G01*
X88521503Y-46426755D01*
G75*
G02*
X88415437Y-46426755I-53033J53033D01*
G01*
G37*
G36*
G01*
X88768991Y-46780309D02*
X88662925Y-46674243D01*
G75*
G02*
X88662925Y-46568177I53033J53033D01*
G01*
X89599841Y-45631261D01*
G75*
G02*
X89705907Y-45631261I53033J-53033D01*
G01*
X89811973Y-45737327D01*
G75*
G02*
X89811973Y-45843393I-53033J-53033D01*
G01*
X88875057Y-46780309D01*
G75*
G02*
X88768991Y-46780309I-53033J53033D01*
G01*
G37*
G36*
G01*
X89122544Y-47133862D02*
X89016478Y-47027796D01*
G75*
G02*
X89016478Y-46921730I53033J53033D01*
G01*
X89953394Y-45984814D01*
G75*
G02*
X90059460Y-45984814I53033J-53033D01*
G01*
X90165526Y-46090880D01*
G75*
G02*
X90165526Y-46196946I-53033J-53033D01*
G01*
X89228610Y-47133862D01*
G75*
G02*
X89122544Y-47133862I-53033J53033D01*
G01*
G37*
G36*
G01*
X89476097Y-47487415D02*
X89370031Y-47381349D01*
G75*
G02*
X89370031Y-47275283I53033J53033D01*
G01*
X90306947Y-46338367D01*
G75*
G02*
X90413013Y-46338367I53033J-53033D01*
G01*
X90519079Y-46444433D01*
G75*
G02*
X90519079Y-46550499I-53033J-53033D01*
G01*
X89582163Y-47487415D01*
G75*
G02*
X89476097Y-47487415I-53033J53033D01*
G01*
G37*
G36*
G01*
X89829651Y-47840969D02*
X89723585Y-47734903D01*
G75*
G02*
X89723585Y-47628837I53033J53033D01*
G01*
X90660501Y-46691921D01*
G75*
G02*
X90766567Y-46691921I53033J-53033D01*
G01*
X90872633Y-46797987D01*
G75*
G02*
X90872633Y-46904053I-53033J-53033D01*
G01*
X89935717Y-47840969D01*
G75*
G02*
X89829651Y-47840969I-53033J53033D01*
G01*
G37*
G36*
G01*
X90183204Y-48194522D02*
X90077138Y-48088456D01*
G75*
G02*
X90077138Y-47982390I53033J53033D01*
G01*
X91014054Y-47045474D01*
G75*
G02*
X91120120Y-47045474I53033J-53033D01*
G01*
X91226186Y-47151540D01*
G75*
G02*
X91226186Y-47257606I-53033J-53033D01*
G01*
X90289270Y-48194522D01*
G75*
G02*
X90183204Y-48194522I-53033J53033D01*
G01*
G37*
G36*
G01*
X90536757Y-48548075D02*
X90430691Y-48442009D01*
G75*
G02*
X90430691Y-48335943I53033J53033D01*
G01*
X91367607Y-47399027D01*
G75*
G02*
X91473673Y-47399027I53033J-53033D01*
G01*
X91579739Y-47505093D01*
G75*
G02*
X91579739Y-47611159I-53033J-53033D01*
G01*
X90642823Y-48548075D01*
G75*
G02*
X90536757Y-48548075I-53033J53033D01*
G01*
G37*
G36*
G01*
X90890311Y-48901629D02*
X90784245Y-48795563D01*
G75*
G02*
X90784245Y-48689497I53033J53033D01*
G01*
X91721161Y-47752581D01*
G75*
G02*
X91827227Y-47752581I53033J-53033D01*
G01*
X91933293Y-47858647D01*
G75*
G02*
X91933293Y-47964713I-53033J-53033D01*
G01*
X90996377Y-48901629D01*
G75*
G02*
X90890311Y-48901629I-53033J53033D01*
G01*
G37*
G36*
G01*
X91243864Y-49255182D02*
X91137798Y-49149116D01*
G75*
G02*
X91137798Y-49043050I53033J53033D01*
G01*
X92074714Y-48106134D01*
G75*
G02*
X92180780Y-48106134I53033J-53033D01*
G01*
X92286846Y-48212200D01*
G75*
G02*
X92286846Y-48318266I-53033J-53033D01*
G01*
X91349930Y-49255182D01*
G75*
G02*
X91243864Y-49255182I-53033J53033D01*
G01*
G37*
G36*
G01*
X91597418Y-49608736D02*
X91491352Y-49502670D01*
G75*
G02*
X91491352Y-49396604I53033J53033D01*
G01*
X92428268Y-48459688D01*
G75*
G02*
X92534334Y-48459688I53033J-53033D01*
G01*
X92640400Y-48565754D01*
G75*
G02*
X92640400Y-48671820I-53033J-53033D01*
G01*
X91703484Y-49608736D01*
G75*
G02*
X91597418Y-49608736I-53033J53033D01*
G01*
G37*
G36*
G01*
X92428268Y-51606312D02*
X91491352Y-50669396D01*
G75*
G02*
X91491352Y-50563330I53033J53033D01*
G01*
X91597418Y-50457264D01*
G75*
G02*
X91703484Y-50457264I53033J-53033D01*
G01*
X92640400Y-51394180D01*
G75*
G02*
X92640400Y-51500246I-53033J-53033D01*
G01*
X92534334Y-51606312D01*
G75*
G02*
X92428268Y-51606312I-53033J53033D01*
G01*
G37*
G36*
G01*
X92074714Y-51959866D02*
X91137798Y-51022950D01*
G75*
G02*
X91137798Y-50916884I53033J53033D01*
G01*
X91243864Y-50810818D01*
G75*
G02*
X91349930Y-50810818I53033J-53033D01*
G01*
X92286846Y-51747734D01*
G75*
G02*
X92286846Y-51853800I-53033J-53033D01*
G01*
X92180780Y-51959866D01*
G75*
G02*
X92074714Y-51959866I-53033J53033D01*
G01*
G37*
G36*
G01*
X91721161Y-52313419D02*
X90784245Y-51376503D01*
G75*
G02*
X90784245Y-51270437I53033J53033D01*
G01*
X90890311Y-51164371D01*
G75*
G02*
X90996377Y-51164371I53033J-53033D01*
G01*
X91933293Y-52101287D01*
G75*
G02*
X91933293Y-52207353I-53033J-53033D01*
G01*
X91827227Y-52313419D01*
G75*
G02*
X91721161Y-52313419I-53033J53033D01*
G01*
G37*
G36*
G01*
X91367607Y-52666973D02*
X90430691Y-51730057D01*
G75*
G02*
X90430691Y-51623991I53033J53033D01*
G01*
X90536757Y-51517925D01*
G75*
G02*
X90642823Y-51517925I53033J-53033D01*
G01*
X91579739Y-52454841D01*
G75*
G02*
X91579739Y-52560907I-53033J-53033D01*
G01*
X91473673Y-52666973D01*
G75*
G02*
X91367607Y-52666973I-53033J53033D01*
G01*
G37*
G36*
G01*
X91014054Y-53020526D02*
X90077138Y-52083610D01*
G75*
G02*
X90077138Y-51977544I53033J53033D01*
G01*
X90183204Y-51871478D01*
G75*
G02*
X90289270Y-51871478I53033J-53033D01*
G01*
X91226186Y-52808394D01*
G75*
G02*
X91226186Y-52914460I-53033J-53033D01*
G01*
X91120120Y-53020526D01*
G75*
G02*
X91014054Y-53020526I-53033J53033D01*
G01*
G37*
G36*
G01*
X90660501Y-53374079D02*
X89723585Y-52437163D01*
G75*
G02*
X89723585Y-52331097I53033J53033D01*
G01*
X89829651Y-52225031D01*
G75*
G02*
X89935717Y-52225031I53033J-53033D01*
G01*
X90872633Y-53161947D01*
G75*
G02*
X90872633Y-53268013I-53033J-53033D01*
G01*
X90766567Y-53374079D01*
G75*
G02*
X90660501Y-53374079I-53033J53033D01*
G01*
G37*
G36*
G01*
X90306947Y-53727633D02*
X89370031Y-52790717D01*
G75*
G02*
X89370031Y-52684651I53033J53033D01*
G01*
X89476097Y-52578585D01*
G75*
G02*
X89582163Y-52578585I53033J-53033D01*
G01*
X90519079Y-53515501D01*
G75*
G02*
X90519079Y-53621567I-53033J-53033D01*
G01*
X90413013Y-53727633D01*
G75*
G02*
X90306947Y-53727633I-53033J53033D01*
G01*
G37*
G36*
G01*
X89953394Y-54081186D02*
X89016478Y-53144270D01*
G75*
G02*
X89016478Y-53038204I53033J53033D01*
G01*
X89122544Y-52932138D01*
G75*
G02*
X89228610Y-52932138I53033J-53033D01*
G01*
X90165526Y-53869054D01*
G75*
G02*
X90165526Y-53975120I-53033J-53033D01*
G01*
X90059460Y-54081186D01*
G75*
G02*
X89953394Y-54081186I-53033J53033D01*
G01*
G37*
G36*
G01*
X89599841Y-54434739D02*
X88662925Y-53497823D01*
G75*
G02*
X88662925Y-53391757I53033J53033D01*
G01*
X88768991Y-53285691D01*
G75*
G02*
X88875057Y-53285691I53033J-53033D01*
G01*
X89811973Y-54222607D01*
G75*
G02*
X89811973Y-54328673I-53033J-53033D01*
G01*
X89705907Y-54434739D01*
G75*
G02*
X89599841Y-54434739I-53033J53033D01*
G01*
G37*
G36*
G01*
X89246287Y-54788293D02*
X88309371Y-53851377D01*
G75*
G02*
X88309371Y-53745311I53033J53033D01*
G01*
X88415437Y-53639245D01*
G75*
G02*
X88521503Y-53639245I53033J-53033D01*
G01*
X89458419Y-54576161D01*
G75*
G02*
X89458419Y-54682227I-53033J-53033D01*
G01*
X89352353Y-54788293D01*
G75*
G02*
X89246287Y-54788293I-53033J53033D01*
G01*
G37*
G36*
G01*
X88892734Y-55141846D02*
X87955818Y-54204930D01*
G75*
G02*
X87955818Y-54098864I53033J53033D01*
G01*
X88061884Y-53992798D01*
G75*
G02*
X88167950Y-53992798I53033J-53033D01*
G01*
X89104866Y-54929714D01*
G75*
G02*
X89104866Y-55035780I-53033J-53033D01*
G01*
X88998800Y-55141846D01*
G75*
G02*
X88892734Y-55141846I-53033J53033D01*
G01*
G37*
G36*
G01*
X88539180Y-55495400D02*
X87602264Y-54558484D01*
G75*
G02*
X87602264Y-54452418I53033J53033D01*
G01*
X87708330Y-54346352D01*
G75*
G02*
X87814396Y-54346352I53033J-53033D01*
G01*
X88751312Y-55283268D01*
G75*
G02*
X88751312Y-55389334I-53033J-53033D01*
G01*
X88645246Y-55495400D01*
G75*
G02*
X88539180Y-55495400I-53033J53033D01*
G01*
G37*
G36*
G01*
X85710754Y-55495400D02*
X85604688Y-55389334D01*
G75*
G02*
X85604688Y-55283268I53033J53033D01*
G01*
X86541604Y-54346352D01*
G75*
G02*
X86647670Y-54346352I53033J-53033D01*
G01*
X86753736Y-54452418D01*
G75*
G02*
X86753736Y-54558484I-53033J-53033D01*
G01*
X85816820Y-55495400D01*
G75*
G02*
X85710754Y-55495400I-53033J53033D01*
G01*
G37*
G36*
G01*
X85357200Y-55141846D02*
X85251134Y-55035780D01*
G75*
G02*
X85251134Y-54929714I53033J53033D01*
G01*
X86188050Y-53992798D01*
G75*
G02*
X86294116Y-53992798I53033J-53033D01*
G01*
X86400182Y-54098864D01*
G75*
G02*
X86400182Y-54204930I-53033J-53033D01*
G01*
X85463266Y-55141846D01*
G75*
G02*
X85357200Y-55141846I-53033J53033D01*
G01*
G37*
G36*
G01*
X85003647Y-54788293D02*
X84897581Y-54682227D01*
G75*
G02*
X84897581Y-54576161I53033J53033D01*
G01*
X85834497Y-53639245D01*
G75*
G02*
X85940563Y-53639245I53033J-53033D01*
G01*
X86046629Y-53745311D01*
G75*
G02*
X86046629Y-53851377I-53033J-53033D01*
G01*
X85109713Y-54788293D01*
G75*
G02*
X85003647Y-54788293I-53033J53033D01*
G01*
G37*
G36*
G01*
X84650093Y-54434739D02*
X84544027Y-54328673D01*
G75*
G02*
X84544027Y-54222607I53033J53033D01*
G01*
X85480943Y-53285691D01*
G75*
G02*
X85587009Y-53285691I53033J-53033D01*
G01*
X85693075Y-53391757D01*
G75*
G02*
X85693075Y-53497823I-53033J-53033D01*
G01*
X84756159Y-54434739D01*
G75*
G02*
X84650093Y-54434739I-53033J53033D01*
G01*
G37*
G36*
G01*
X84296540Y-54081186D02*
X84190474Y-53975120D01*
G75*
G02*
X84190474Y-53869054I53033J53033D01*
G01*
X85127390Y-52932138D01*
G75*
G02*
X85233456Y-52932138I53033J-53033D01*
G01*
X85339522Y-53038204D01*
G75*
G02*
X85339522Y-53144270I-53033J-53033D01*
G01*
X84402606Y-54081186D01*
G75*
G02*
X84296540Y-54081186I-53033J53033D01*
G01*
G37*
G36*
G01*
X83942987Y-53727633D02*
X83836921Y-53621567D01*
G75*
G02*
X83836921Y-53515501I53033J53033D01*
G01*
X84773837Y-52578585D01*
G75*
G02*
X84879903Y-52578585I53033J-53033D01*
G01*
X84985969Y-52684651D01*
G75*
G02*
X84985969Y-52790717I-53033J-53033D01*
G01*
X84049053Y-53727633D01*
G75*
G02*
X83942987Y-53727633I-53033J53033D01*
G01*
G37*
G36*
G01*
X83589433Y-53374079D02*
X83483367Y-53268013D01*
G75*
G02*
X83483367Y-53161947I53033J53033D01*
G01*
X84420283Y-52225031D01*
G75*
G02*
X84526349Y-52225031I53033J-53033D01*
G01*
X84632415Y-52331097D01*
G75*
G02*
X84632415Y-52437163I-53033J-53033D01*
G01*
X83695499Y-53374079D01*
G75*
G02*
X83589433Y-53374079I-53033J53033D01*
G01*
G37*
G36*
G01*
X83235880Y-53020526D02*
X83129814Y-52914460D01*
G75*
G02*
X83129814Y-52808394I53033J53033D01*
G01*
X84066730Y-51871478D01*
G75*
G02*
X84172796Y-51871478I53033J-53033D01*
G01*
X84278862Y-51977544D01*
G75*
G02*
X84278862Y-52083610I-53033J-53033D01*
G01*
X83341946Y-53020526D01*
G75*
G02*
X83235880Y-53020526I-53033J53033D01*
G01*
G37*
G36*
G01*
X82882327Y-52666973D02*
X82776261Y-52560907D01*
G75*
G02*
X82776261Y-52454841I53033J53033D01*
G01*
X83713177Y-51517925D01*
G75*
G02*
X83819243Y-51517925I53033J-53033D01*
G01*
X83925309Y-51623991D01*
G75*
G02*
X83925309Y-51730057I-53033J-53033D01*
G01*
X82988393Y-52666973D01*
G75*
G02*
X82882327Y-52666973I-53033J53033D01*
G01*
G37*
G36*
G01*
X82528773Y-52313419D02*
X82422707Y-52207353D01*
G75*
G02*
X82422707Y-52101287I53033J53033D01*
G01*
X83359623Y-51164371D01*
G75*
G02*
X83465689Y-51164371I53033J-53033D01*
G01*
X83571755Y-51270437D01*
G75*
G02*
X83571755Y-51376503I-53033J-53033D01*
G01*
X82634839Y-52313419D01*
G75*
G02*
X82528773Y-52313419I-53033J53033D01*
G01*
G37*
G36*
G01*
X82175220Y-51959866D02*
X82069154Y-51853800D01*
G75*
G02*
X82069154Y-51747734I53033J53033D01*
G01*
X83006070Y-50810818D01*
G75*
G02*
X83112136Y-50810818I53033J-53033D01*
G01*
X83218202Y-50916884D01*
G75*
G02*
X83218202Y-51022950I-53033J-53033D01*
G01*
X82281286Y-51959866D01*
G75*
G02*
X82175220Y-51959866I-53033J53033D01*
G01*
G37*
G36*
G01*
X81821666Y-51606312D02*
X81715600Y-51500246D01*
G75*
G02*
X81715600Y-51394180I53033J53033D01*
G01*
X82652516Y-50457264D01*
G75*
G02*
X82758582Y-50457264I53033J-53033D01*
G01*
X82864648Y-50563330D01*
G75*
G02*
X82864648Y-50669396I-53033J-53033D01*
G01*
X81927732Y-51606312D01*
G75*
G02*
X81821666Y-51606312I-53033J53033D01*
G01*
G37*
G36*
G01*
X84582352Y-58368450D02*
X84935906Y-58722004D01*
G75*
G02*
X84935906Y-59040202I-159099J-159099D01*
G01*
X84617708Y-59358400D01*
G75*
G02*
X84299510Y-59358400I-159099J159099D01*
G01*
X83945956Y-59004846D01*
G75*
G02*
X83945956Y-58686648I159099J159099D01*
G01*
X84264154Y-58368450D01*
G75*
G02*
X84582352Y-58368450I159099J-159099D01*
G01*
G37*
G36*
G01*
X85678368Y-57272434D02*
X86031922Y-57625988D01*
G75*
G02*
X86031922Y-57944186I-159099J-159099D01*
G01*
X85713724Y-58262384D01*
G75*
G02*
X85395526Y-58262384I-159099J159099D01*
G01*
X85041972Y-57908830D01*
G75*
G02*
X85041972Y-57590632I159099J159099D01*
G01*
X85360170Y-57272434D01*
G75*
G02*
X85678368Y-57272434I159099J-159099D01*
G01*
G37*
D16*
X115879998Y-134074250D03*
X115879998Y-130774250D03*
X77780000Y-125057250D03*
X77780000Y-121757250D03*
X96830000Y-125057250D03*
X96830000Y-121757250D03*
G36*
G01*
X183948000Y-43231000D02*
X183448000Y-43231000D01*
G75*
G02*
X183223000Y-43006000I0J225000D01*
G01*
X183223000Y-42556000D01*
G75*
G02*
X183448000Y-42331000I225000J0D01*
G01*
X183948000Y-42331000D01*
G75*
G02*
X184173000Y-42556000I0J-225000D01*
G01*
X184173000Y-43006000D01*
G75*
G02*
X183948000Y-43231000I-225000J0D01*
G01*
G37*
G36*
G01*
X183948000Y-44781000D02*
X183448000Y-44781000D01*
G75*
G02*
X183223000Y-44556000I0J225000D01*
G01*
X183223000Y-44106000D01*
G75*
G02*
X183448000Y-43881000I225000J0D01*
G01*
X183948000Y-43881000D01*
G75*
G02*
X184173000Y-44106000I0J-225000D01*
G01*
X184173000Y-44556000D01*
G75*
G02*
X183948000Y-44781000I-225000J0D01*
G01*
G37*
G36*
G01*
X182424000Y-43231000D02*
X181924000Y-43231000D01*
G75*
G02*
X181699000Y-43006000I0J225000D01*
G01*
X181699000Y-42556000D01*
G75*
G02*
X181924000Y-42331000I225000J0D01*
G01*
X182424000Y-42331000D01*
G75*
G02*
X182649000Y-42556000I0J-225000D01*
G01*
X182649000Y-43006000D01*
G75*
G02*
X182424000Y-43231000I-225000J0D01*
G01*
G37*
G36*
G01*
X182424000Y-44781000D02*
X181924000Y-44781000D01*
G75*
G02*
X181699000Y-44556000I0J225000D01*
G01*
X181699000Y-44106000D01*
G75*
G02*
X181924000Y-43881000I225000J0D01*
G01*
X182424000Y-43881000D01*
G75*
G02*
X182649000Y-44106000I0J-225000D01*
G01*
X182649000Y-44556000D01*
G75*
G02*
X182424000Y-44781000I-225000J0D01*
G01*
G37*
X134930002Y-90005250D03*
X134930002Y-86705250D03*
X77780000Y-144107250D03*
X77780000Y-140807250D03*
X134930002Y-51905250D03*
X134930002Y-48605250D03*
X115879998Y-115024250D03*
X115879998Y-111724250D03*
X173030000Y-78956250D03*
X173030000Y-75656250D03*
X96830000Y-106007250D03*
X96830000Y-102707250D03*
X173030000Y-117056250D03*
X173030000Y-113756250D03*
X134930002Y-109055250D03*
X134930002Y-105755250D03*
X153980000Y-78956250D03*
X153980000Y-75656250D03*
X115879998Y-95974250D03*
X115879998Y-92674250D03*
G36*
G01*
X86741000Y-43171000D02*
X86741000Y-42671000D01*
G75*
G02*
X86966000Y-42446000I225000J0D01*
G01*
X87416000Y-42446000D01*
G75*
G02*
X87641000Y-42671000I0J-225000D01*
G01*
X87641000Y-43171000D01*
G75*
G02*
X87416000Y-43396000I-225000J0D01*
G01*
X86966000Y-43396000D01*
G75*
G02*
X86741000Y-43171000I0J225000D01*
G01*
G37*
G36*
G01*
X85191000Y-43171000D02*
X85191000Y-42671000D01*
G75*
G02*
X85416000Y-42446000I225000J0D01*
G01*
X85866000Y-42446000D01*
G75*
G02*
X86091000Y-42671000I0J-225000D01*
G01*
X86091000Y-43171000D01*
G75*
G02*
X85866000Y-43396000I-225000J0D01*
G01*
X85416000Y-43396000D01*
G75*
G02*
X85191000Y-43171000I0J225000D01*
G01*
G37*
G36*
G01*
X185472000Y-43231000D02*
X184972000Y-43231000D01*
G75*
G02*
X184747000Y-43006000I0J225000D01*
G01*
X184747000Y-42556000D01*
G75*
G02*
X184972000Y-42331000I225000J0D01*
G01*
X185472000Y-42331000D01*
G75*
G02*
X185697000Y-42556000I0J-225000D01*
G01*
X185697000Y-43006000D01*
G75*
G02*
X185472000Y-43231000I-225000J0D01*
G01*
G37*
G36*
G01*
X185472000Y-44781000D02*
X184972000Y-44781000D01*
G75*
G02*
X184747000Y-44556000I0J225000D01*
G01*
X184747000Y-44106000D01*
G75*
G02*
X184972000Y-43881000I225000J0D01*
G01*
X185472000Y-43881000D01*
G75*
G02*
X185697000Y-44106000I0J-225000D01*
G01*
X185697000Y-44556000D01*
G75*
G02*
X185472000Y-44781000I-225000J0D01*
G01*
G37*
G36*
G01*
X82846975Y-56657934D02*
X82458066Y-56269025D01*
G75*
G02*
X82458066Y-55986183I141421J141421D01*
G01*
X82740909Y-55703340D01*
G75*
G02*
X83023751Y-55703340I141421J-141421D01*
G01*
X83412660Y-56092249D01*
G75*
G02*
X83412660Y-56375091I-141421J-141421D01*
G01*
X83129817Y-56657934D01*
G75*
G02*
X82846975Y-56657934I-141421J141421D01*
G01*
G37*
G36*
G01*
X81680249Y-57824660D02*
X81291340Y-57435751D01*
G75*
G02*
X81291340Y-57152909I141421J141421D01*
G01*
X81574183Y-56870066D01*
G75*
G02*
X81857025Y-56870066I141421J-141421D01*
G01*
X82245934Y-57258975D01*
G75*
G02*
X82245934Y-57541817I-141421J-141421D01*
G01*
X81963091Y-57824660D01*
G75*
G02*
X81680249Y-57824660I-141421J141421D01*
G01*
G37*
X77780000Y-106007250D03*
X77780000Y-102707250D03*
X158679000Y-136106250D03*
X158679000Y-132806250D03*
D17*
X61270000Y-59472000D03*
X61270000Y-55072000D03*
G36*
G01*
X166955000Y-47322000D02*
X166405000Y-47322000D01*
G75*
G02*
X166205000Y-47122000I0J200000D01*
G01*
X166205000Y-46722000D01*
G75*
G02*
X166405000Y-46522000I200000J0D01*
G01*
X166955000Y-46522000D01*
G75*
G02*
X167155000Y-46722000I0J-200000D01*
G01*
X167155000Y-47122000D01*
G75*
G02*
X166955000Y-47322000I-200000J0D01*
G01*
G37*
G36*
G01*
X166955000Y-48972000D02*
X166405000Y-48972000D01*
G75*
G02*
X166205000Y-48772000I0J200000D01*
G01*
X166205000Y-48372000D01*
G75*
G02*
X166405000Y-48172000I200000J0D01*
G01*
X166955000Y-48172000D01*
G75*
G02*
X167155000Y-48372000I0J-200000D01*
G01*
X167155000Y-48772000D01*
G75*
G02*
X166955000Y-48972000I-200000J0D01*
G01*
G37*
D16*
X187254000Y-136106250D03*
X187254000Y-132806250D03*
X134930002Y-70955250D03*
X134930002Y-67655250D03*
X115879998Y-57874250D03*
X115879998Y-54574250D03*
D18*
X186364000Y-78576250D03*
X183064000Y-78576250D03*
D19*
G36*
X79510548Y-52700115D02*
G01*
X80288365Y-51922298D01*
X81207604Y-52841537D01*
X80429787Y-53619354D01*
X79510548Y-52700115D01*
G37*
G36*
X80995472Y-54185039D02*
G01*
X81773289Y-53407222D01*
X82692528Y-54326461D01*
X81914711Y-55104278D01*
X80995472Y-54185039D01*
G37*
G36*
X79828746Y-55351765D02*
G01*
X80606563Y-54573948D01*
X81525802Y-55493187D01*
X80747985Y-56271004D01*
X79828746Y-55351765D01*
G37*
G36*
X78343822Y-53866841D02*
G01*
X79121639Y-53089024D01*
X80040878Y-54008263D01*
X79263061Y-54786080D01*
X78343822Y-53866841D01*
G37*
G36*
G01*
X61607000Y-61442000D02*
X61607000Y-61992000D01*
G75*
G02*
X61407000Y-62192000I-200000J0D01*
G01*
X61007000Y-62192000D01*
G75*
G02*
X60807000Y-61992000I0J200000D01*
G01*
X60807000Y-61442000D01*
G75*
G02*
X61007000Y-61242000I200000J0D01*
G01*
X61407000Y-61242000D01*
G75*
G02*
X61607000Y-61442000I0J-200000D01*
G01*
G37*
G36*
G01*
X63257000Y-61442000D02*
X63257000Y-61992000D01*
G75*
G02*
X63057000Y-62192000I-200000J0D01*
G01*
X62657000Y-62192000D01*
G75*
G02*
X62457000Y-61992000I0J200000D01*
G01*
X62457000Y-61442000D01*
G75*
G02*
X62657000Y-61242000I200000J0D01*
G01*
X63057000Y-61242000D01*
G75*
G02*
X63257000Y-61442000I0J-200000D01*
G01*
G37*
D16*
X77780000Y-86957250D03*
X77780000Y-83657250D03*
X77780000Y-67907250D03*
X77780000Y-64607250D03*
D18*
X186364000Y-107151250D03*
X183064000Y-107151250D03*
G36*
G01*
X93962033Y-51519087D02*
X94315587Y-51165533D01*
G75*
G02*
X94633785Y-51165533I159099J-159099D01*
G01*
X94951983Y-51483731D01*
G75*
G02*
X94951983Y-51801929I-159099J-159099D01*
G01*
X94598429Y-52155483D01*
G75*
G02*
X94280231Y-52155483I-159099J159099D01*
G01*
X93962033Y-51837285D01*
G75*
G02*
X93962033Y-51519087I159099J159099D01*
G01*
G37*
G36*
G01*
X92866017Y-50423071D02*
X93219571Y-50069517D01*
G75*
G02*
X93537769Y-50069517I159099J-159099D01*
G01*
X93855967Y-50387715D01*
G75*
G02*
X93855967Y-50705913I-159099J-159099D01*
G01*
X93502413Y-51059467D01*
G75*
G02*
X93184215Y-51059467I-159099J159099D01*
G01*
X92866017Y-50741269D01*
G75*
G02*
X92866017Y-50423071I159099J159099D01*
G01*
G37*
D16*
X134930002Y-128105250D03*
X134930002Y-124805250D03*
X96830000Y-86957250D03*
X96830000Y-83657250D03*
X153980000Y-98006250D03*
X153980000Y-94706250D03*
G36*
G01*
X66600000Y-54941000D02*
X66100000Y-54941000D01*
G75*
G02*
X65875000Y-54716000I0J225000D01*
G01*
X65875000Y-54266000D01*
G75*
G02*
X66100000Y-54041000I225000J0D01*
G01*
X66600000Y-54041000D01*
G75*
G02*
X66825000Y-54266000I0J-225000D01*
G01*
X66825000Y-54716000D01*
G75*
G02*
X66600000Y-54941000I-225000J0D01*
G01*
G37*
G36*
G01*
X66600000Y-53391000D02*
X66100000Y-53391000D01*
G75*
G02*
X65875000Y-53166000I0J225000D01*
G01*
X65875000Y-52716000D01*
G75*
G02*
X66100000Y-52491000I225000J0D01*
G01*
X66600000Y-52491000D01*
G75*
G02*
X66825000Y-52716000I0J-225000D01*
G01*
X66825000Y-53166000D01*
G75*
G02*
X66600000Y-53391000I-225000J0D01*
G01*
G37*
X115881268Y-76924250D03*
X115881268Y-73624250D03*
G36*
G01*
X78869967Y-55754163D02*
X78516413Y-56107717D01*
G75*
G02*
X78198215Y-56107717I-159099J159099D01*
G01*
X77880017Y-55789519D01*
G75*
G02*
X77880017Y-55471321I159099J159099D01*
G01*
X78233571Y-55117767D01*
G75*
G02*
X78551769Y-55117767I159099J-159099D01*
G01*
X78869967Y-55435965D01*
G75*
G02*
X78869967Y-55754163I-159099J-159099D01*
G01*
G37*
G36*
G01*
X79965983Y-56850179D02*
X79612429Y-57203733D01*
G75*
G02*
X79294231Y-57203733I-159099J159099D01*
G01*
X78976033Y-56885535D01*
G75*
G02*
X78976033Y-56567337I159099J159099D01*
G01*
X79329587Y-56213783D01*
G75*
G02*
X79647785Y-56213783I159099J-159099D01*
G01*
X79965983Y-56531981D01*
G75*
G02*
X79965983Y-56850179I-159099J-159099D01*
G01*
G37*
X173030000Y-98006250D03*
X173030000Y-94706250D03*
X153980000Y-117056250D03*
X153980000Y-113756250D03*
D12*
X174300000Y-46867650D03*
X175250000Y-48867650D03*
X173350000Y-48867650D03*
D16*
X175570000Y-59906250D03*
X175570000Y-56606250D03*
D12*
X164140000Y-46867650D03*
X165090000Y-48867650D03*
X163190000Y-48867650D03*
D16*
X173030000Y-59906250D03*
X173030000Y-56606250D03*
G36*
G01*
X156795000Y-47322000D02*
X156245000Y-47322000D01*
G75*
G02*
X156045000Y-47122000I0J200000D01*
G01*
X156045000Y-46722000D01*
G75*
G02*
X156245000Y-46522000I200000J0D01*
G01*
X156795000Y-46522000D01*
G75*
G02*
X156995000Y-46722000I0J-200000D01*
G01*
X156995000Y-47122000D01*
G75*
G02*
X156795000Y-47322000I-200000J0D01*
G01*
G37*
G36*
G01*
X156795000Y-48972000D02*
X156245000Y-48972000D01*
G75*
G02*
X156045000Y-48772000I0J200000D01*
G01*
X156045000Y-48372000D01*
G75*
G02*
X156245000Y-48172000I200000J0D01*
G01*
X156795000Y-48172000D01*
G75*
G02*
X156995000Y-48372000I0J-200000D01*
G01*
X156995000Y-48772000D01*
G75*
G02*
X156795000Y-48972000I-200000J0D01*
G01*
G37*
X96830000Y-67907250D03*
X96830000Y-64607250D03*
D12*
X153980000Y-46867650D03*
X154930000Y-48867650D03*
X153030000Y-48867650D03*
G36*
G01*
X82664000Y-42573000D02*
X82664000Y-43523000D01*
G75*
G02*
X82414000Y-43773000I-250000J0D01*
G01*
X81914000Y-43773000D01*
G75*
G02*
X81664000Y-43523000I0J250000D01*
G01*
X81664000Y-42573000D01*
G75*
G02*
X81914000Y-42323000I250000J0D01*
G01*
X82414000Y-42323000D01*
G75*
G02*
X82664000Y-42573000I0J-250000D01*
G01*
G37*
G36*
G01*
X84564000Y-42573000D02*
X84564000Y-43523000D01*
G75*
G02*
X84314000Y-43773000I-250000J0D01*
G01*
X83814000Y-43773000D01*
G75*
G02*
X83564000Y-43523000I0J250000D01*
G01*
X83564000Y-42573000D01*
G75*
G02*
X83814000Y-42323000I250000J0D01*
G01*
X84314000Y-42323000D01*
G75*
G02*
X84564000Y-42573000I0J-250000D01*
G01*
G37*
G36*
G01*
X80040413Y-50086033D02*
X80393967Y-50439587D01*
G75*
G02*
X80393967Y-50757785I-159099J-159099D01*
G01*
X80075769Y-51075983D01*
G75*
G02*
X79757571Y-51075983I-159099J159099D01*
G01*
X79404017Y-50722429D01*
G75*
G02*
X79404017Y-50404231I159099J159099D01*
G01*
X79722215Y-50086033D01*
G75*
G02*
X80040413Y-50086033I159099J-159099D01*
G01*
G37*
G36*
G01*
X81136429Y-48990017D02*
X81489983Y-49343571D01*
G75*
G02*
X81489983Y-49661769I-159099J-159099D01*
G01*
X81171785Y-49979967D01*
G75*
G02*
X80853587Y-49979967I-159099J159099D01*
G01*
X80500033Y-49626413D01*
G75*
G02*
X80500033Y-49308215I159099J159099D01*
G01*
X80818231Y-48990017D01*
G75*
G02*
X81136429Y-48990017I159099J-159099D01*
G01*
G37*
G36*
G01*
X72450000Y-58105000D02*
X72950000Y-58105000D01*
G75*
G02*
X73175000Y-58330000I0J-225000D01*
G01*
X73175000Y-58780000D01*
G75*
G02*
X72950000Y-59005000I-225000J0D01*
G01*
X72450000Y-59005000D01*
G75*
G02*
X72225000Y-58780000I0J225000D01*
G01*
X72225000Y-58330000D01*
G75*
G02*
X72450000Y-58105000I225000J0D01*
G01*
G37*
G36*
G01*
X72450000Y-56555000D02*
X72950000Y-56555000D01*
G75*
G02*
X73175000Y-56780000I0J-225000D01*
G01*
X73175000Y-57230000D01*
G75*
G02*
X72950000Y-57455000I-225000J0D01*
G01*
X72450000Y-57455000D01*
G75*
G02*
X72225000Y-57230000I0J225000D01*
G01*
X72225000Y-56780000D01*
G75*
G02*
X72450000Y-56555000I225000J0D01*
G01*
G37*
D16*
X153980000Y-59906250D03*
X153980000Y-56606250D03*
X96830000Y-144107250D03*
X96830000Y-140807250D03*
G36*
G01*
X85676505Y-59465047D02*
X86030059Y-59818601D01*
G75*
G02*
X86030059Y-60136799I-159099J-159099D01*
G01*
X85711861Y-60454997D01*
G75*
G02*
X85393663Y-60454997I-159099J159099D01*
G01*
X85040109Y-60101443D01*
G75*
G02*
X85040109Y-59783245I159099J159099D01*
G01*
X85358307Y-59465047D01*
G75*
G02*
X85676505Y-59465047I159099J-159099D01*
G01*
G37*
G36*
G01*
X86772521Y-58369031D02*
X87126075Y-58722585D01*
G75*
G02*
X87126075Y-59040783I-159099J-159099D01*
G01*
X86807877Y-59358981D01*
G75*
G02*
X86489679Y-59358981I-159099J159099D01*
G01*
X86136125Y-59005427D01*
G75*
G02*
X86136125Y-58687229I159099J159099D01*
G01*
X86454323Y-58369031D01*
G75*
G02*
X86772521Y-58369031I159099J-159099D01*
G01*
G37*
G36*
G01*
X177115000Y-47322000D02*
X176565000Y-47322000D01*
G75*
G02*
X176365000Y-47122000I0J200000D01*
G01*
X176365000Y-46722000D01*
G75*
G02*
X176565000Y-46522000I200000J0D01*
G01*
X177115000Y-46522000D01*
G75*
G02*
X177315000Y-46722000I0J-200000D01*
G01*
X177315000Y-47122000D01*
G75*
G02*
X177115000Y-47322000I-200000J0D01*
G01*
G37*
G36*
G01*
X177115000Y-48972000D02*
X176565000Y-48972000D01*
G75*
G02*
X176365000Y-48772000I0J200000D01*
G01*
X176365000Y-48372000D01*
G75*
G02*
X176565000Y-48172000I200000J0D01*
G01*
X177115000Y-48172000D01*
G75*
G02*
X177315000Y-48372000I0J-200000D01*
G01*
X177315000Y-48772000D01*
G75*
G02*
X177115000Y-48972000I-200000J0D01*
G01*
G37*
G36*
G01*
X183146000Y-51790000D02*
X183146000Y-52340000D01*
G75*
G02*
X182946000Y-52540000I-200000J0D01*
G01*
X182546000Y-52540000D01*
G75*
G02*
X182346000Y-52340000I0J200000D01*
G01*
X182346000Y-51790000D01*
G75*
G02*
X182546000Y-51590000I200000J0D01*
G01*
X182946000Y-51590000D01*
G75*
G02*
X183146000Y-51790000I0J-200000D01*
G01*
G37*
G36*
G01*
X184796000Y-51790000D02*
X184796000Y-52340000D01*
G75*
G02*
X184596000Y-52540000I-200000J0D01*
G01*
X184196000Y-52540000D01*
G75*
G02*
X183996000Y-52340000I0J200000D01*
G01*
X183996000Y-51790000D01*
G75*
G02*
X184196000Y-51590000I200000J0D01*
G01*
X184596000Y-51590000D01*
G75*
G02*
X184796000Y-51790000I0J-200000D01*
G01*
G37*
G36*
G01*
X183146000Y-46456000D02*
X183146000Y-47006000D01*
G75*
G02*
X182946000Y-47206000I-200000J0D01*
G01*
X182546000Y-47206000D01*
G75*
G02*
X182346000Y-47006000I0J200000D01*
G01*
X182346000Y-46456000D01*
G75*
G02*
X182546000Y-46256000I200000J0D01*
G01*
X182946000Y-46256000D01*
G75*
G02*
X183146000Y-46456000I0J-200000D01*
G01*
G37*
G36*
G01*
X184796000Y-46456000D02*
X184796000Y-47006000D01*
G75*
G02*
X184596000Y-47206000I-200000J0D01*
G01*
X184196000Y-47206000D01*
G75*
G02*
X183996000Y-47006000I0J200000D01*
G01*
X183996000Y-46456000D01*
G75*
G02*
X184196000Y-46256000I200000J0D01*
G01*
X184596000Y-46256000D01*
G75*
G02*
X184796000Y-46456000I0J-200000D01*
G01*
G37*
M02*
