EESchema Schematic File Version 4
EELAYER 30 0
EELAYER END
$Descr A4 11693 8268
encoding utf-8
Sheet 2 2
Title ""
Date ""
Rev ""
Comp ""
Comment1 ""
Comment2 ""
Comment3 ""
Comment4 ""
$EndDescr
$Comp
L Mechanical:MountingHole MK?
U 1 1 601F8DBA
P 1100 4350
AR Path="/601F8DBA" Ref="MK?"  Part="1" 
AR Path="/6019F73E/601F8DBA" Ref="MK8"  Part="1" 
F 0 "MK8" H 1100 4550 50  0000 C BNN
F 1 "Mounting_Hole" H 1100 4475 50  0000 C CNN
F 2 "MountingHole:MountingHole_2.2mm_M2" H 1100 4350 50  0001 C CNN
F 3 "" H 1100 4350 50  0001 C CNN
	1    1100 4350
	1    0    0    -1  
$EndComp
$Comp
L Mechanical:MountingHole MK?
U 1 1 601F8DC0
P 1100 4750
AR Path="/601F8DC0" Ref="MK?"  Part="1" 
AR Path="/6019F73E/601F8DC0" Ref="MK9"  Part="1" 
F 0 "MK9" H 1100 4950 50  0000 C BNN
F 1 "Mounting_Hole" H 1100 4875 50  0000 C CNN
F 2 "MountingHole:MountingHole_2.2mm_M2" H 1100 4750 50  0001 C CNN
F 3 "" H 1100 4750 50  0001 C CNN
	1    1100 4750
	1    0    0    -1  
$EndComp
$Comp
L Mechanical:MountingHole MK?
U 1 1 601F8DC6
P 1100 5600
AR Path="/601F8DC6" Ref="MK?"  Part="1" 
AR Path="/6019F73E/601F8DC6" Ref="MK11"  Part="1" 
F 0 "MK11" H 1100 5800 50  0000 C BNN
F 1 "Mounting_Hole" H 1100 5725 50  0000 C CNN
F 2 "MountingHole:MountingHole_2.2mm_M2" H 1100 5600 50  0001 C CNN
F 3 "" H 1100 5600 50  0001 C CNN
	1    1100 5600
	1    0    0    -1  
$EndComp
$Comp
L Mechanical:MountingHole MK?
U 1 1 601F8DCC
P 1100 3550
AR Path="/601F8DCC" Ref="MK?"  Part="1" 
AR Path="/6019F73E/601F8DCC" Ref="MK6"  Part="1" 
F 0 "MK6" H 1100 3750 50  0000 C BNN
F 1 "Mounting_Hole" H 1100 3675 50  0000 C CNN
F 2 "MountingHole:MountingHole_2.2mm_M2" H 1100 3550 50  0001 C CNN
F 3 "" H 1100 3550 50  0001 C CNN
	1    1100 3550
	1    0    0    -1  
$EndComp
$Comp
L Mechanical:MountingHole MK?
U 1 1 601F8DD8
P 1100 2700
AR Path="/601F8DD8" Ref="MK?"  Part="1" 
AR Path="/6019F73E/601F8DD8" Ref="MK4"  Part="1" 
F 0 "MK4" H 1100 2900 50  0000 C BNN
F 1 "Mounting_Hole" H 1100 2825 50  0000 C CNN
F 2 "MountingHole:MountingHole_2.2mm_M2" H 1100 2700 50  0001 C CNN
F 3 "" H 1100 2700 50  0001 C CNN
	1    1100 2700
	1    0    0    -1  
$EndComp
$Comp
L Mechanical:MountingHole MK?
U 1 1 601F8DDE
P 1100 3950
AR Path="/601F8DDE" Ref="MK?"  Part="1" 
AR Path="/6019F73E/601F8DDE" Ref="MK7"  Part="1" 
F 0 "MK7" H 1100 4150 50  0000 C BNN
F 1 "Mounting_Hole" H 1100 4075 50  0000 C CNN
F 2 "MountingHole:MountingHole_2.2mm_M2" H 1100 3950 50  0001 C CNN
F 3 "" H 1100 3950 50  0001 C CNN
	1    1100 3950
	1    0    0    -1  
$EndComp
$Comp
L Mechanical:MountingHole MK?
U 1 1 601F8DE4
P 1100 5150
AR Path="/601F8DE4" Ref="MK?"  Part="1" 
AR Path="/6019F73E/601F8DE4" Ref="MK10"  Part="1" 
F 0 "MK10" H 1100 5350 50  0000 C BNN
F 1 "Mounting_Hole" H 1100 5275 50  0000 C CNN
F 2 "MountingHole:MountingHole_2.2mm_M2" H 1100 5150 50  0001 C CNN
F 3 "" H 1100 5150 50  0001 C CNN
	1    1100 5150
	1    0    0    -1  
$EndComp
$Comp
L Mechanical:MountingHole MK?
U 1 1 601F8DEA
P 1100 3100
AR Path="/601F8DEA" Ref="MK?"  Part="1" 
AR Path="/6019F73E/601F8DEA" Ref="MK5"  Part="1" 
F 0 "MK5" H 1100 3300 50  0000 C BNN
F 1 "Mounting_Hole" H 1100 3225 50  0000 C CNN
F 2 "MountingHole:MountingHole_2.2mm_M2" H 1100 3100 50  0001 C CNN
F 3 "" H 1100 3100 50  0001 C CNN
	1    1100 3100
	1    0    0    -1  
$EndComp
$Comp
L Switch:SW_Push SW0
U 1 1 6022309C
P 3000 2500
F 0 "SW0" H 3000 2785 50  0000 C CNN
F 1 "SW_Push" H 3000 2694 50  0000 C CNN
F 2 "resplit66:SW_Cherry_MX1A_1.00u_Holes" H 3000 2700 50  0001 C CNN
F 3 "~" H 3000 2700 50  0001 C CNN
	1    3000 2500
	1    0    0    -1  
$EndComp
NoConn ~ 2800 2500
NoConn ~ 3200 2500
$Comp
L Switch:SW_Push SW1
U 1 1 60225ECB
P 4000 2500
F 0 "SW1" H 4000 2785 50  0000 C CNN
F 1 "SW_Push" H 4000 2694 50  0000 C CNN
F 2 "resplit66:SW_Cherry_MX1A_1.00u_Holes" H 4000 2700 50  0001 C CNN
F 3 "~" H 4000 2700 50  0001 C CNN
	1    4000 2500
	1    0    0    -1  
$EndComp
NoConn ~ 3800 2500
NoConn ~ 4200 2500
$Comp
L Switch:SW_Push SW2
U 1 1 602264F3
P 5000 2500
F 0 "SW2" H 5000 2785 50  0000 C CNN
F 1 "SW_Push" H 5000 2694 50  0000 C CNN
F 2 "resplit66:SW_Cherry_MX1A_1.00u_Holes" H 5000 2700 50  0001 C CNN
F 3 "~" H 5000 2700 50  0001 C CNN
	1    5000 2500
	1    0    0    -1  
$EndComp
NoConn ~ 4800 2500
NoConn ~ 5200 2500
$Comp
L Switch:SW_Push SW3
U 1 1 60226972
P 6000 2500
F 0 "SW3" H 6000 2785 50  0000 C CNN
F 1 "SW_Push" H 6000 2694 50  0000 C CNN
F 2 "resplit66:SW_Cherry_MX1A_1.00u_Holes" H 6000 2700 50  0001 C CNN
F 3 "~" H 6000 2700 50  0001 C CNN
	1    6000 2500
	1    0    0    -1  
$EndComp
NoConn ~ 5800 2500
NoConn ~ 6200 2500
$Comp
L Switch:SW_Push SW4
U 1 1 60226C31
P 7000 2500
F 0 "SW4" H 7000 2785 50  0000 C CNN
F 1 "SW_Push" H 7000 2694 50  0000 C CNN
F 2 "resplit66:SW_Cherry_MX1A_1.00u_Holes" H 7000 2700 50  0001 C CNN
F 3 "~" H 7000 2700 50  0001 C CNN
	1    7000 2500
	1    0    0    -1  
$EndComp
NoConn ~ 6800 2500
NoConn ~ 7200 2500
$Comp
L Switch:SW_Push SW5
U 1 1 60227198
P 8000 2500
F 0 "SW5" H 8000 2785 50  0000 C CNN
F 1 "SW_Push" H 8000 2694 50  0000 C CNN
F 2 "resplit66:SW_Cherry_MX1A_1.00u_Holes" H 8000 2700 50  0001 C CNN
F 3 "~" H 8000 2700 50  0001 C CNN
	1    8000 2500
	1    0    0    -1  
$EndComp
NoConn ~ 7800 2500
NoConn ~ 8200 2500
$Comp
L Switch:SW_Push SW6
U 1 1 6022776B
P 9000 2500
F 0 "SW6" H 9000 2785 50  0000 C CNN
F 1 "SW_Push" H 9000 2694 50  0000 C CNN
F 2 "resplit66:SW_Cherry_MX1A_1.00u_Holes" H 9000 2700 50  0001 C CNN
F 3 "~" H 9000 2700 50  0001 C CNN
	1    9000 2500
	1    0    0    -1  
$EndComp
NoConn ~ 8800 2500
NoConn ~ 9200 2500
$Comp
L Switch:SW_Push SW37
U 1 1 6022B265
P 8000 4900
F 0 "SW37" H 8000 5185 50  0000 C CNN
F 1 "SW_Push" H 8000 5094 50  0000 C CNN
F 2 "resplit66:SW_Cherry_MX1A_1.00u_Holes" H 8000 5100 50  0001 C CNN
F 3 "~" H 8000 5100 50  0001 C CNN
	1    8000 4900
	1    0    0    -1  
$EndComp
NoConn ~ 7800 4900
NoConn ~ 8200 4900
$Comp
L Switch:SW_Push SW8
U 1 1 6022B26D
P 3000 3100
F 0 "SW8" H 3000 3385 50  0000 C CNN
F 1 "SW_Push" H 3000 3294 50  0000 C CNN
F 2 "resplit66:SW_Cherry_MX1A_1.00u_Holes" H 3000 3300 50  0001 C CNN
F 3 "~" H 3000 3300 50  0001 C CNN
	1    3000 3100
	1    0    0    -1  
$EndComp
NoConn ~ 2800 3100
NoConn ~ 3200 3100
$Comp
L Switch:SW_Push SW9
U 1 1 6022B275
P 4000 3100
F 0 "SW9" H 4000 3385 50  0000 C CNN
F 1 "SW_Push" H 4000 3294 50  0000 C CNN
F 2 "resplit66:SW_Cherry_MX1A_1.00u_Holes" H 4000 3300 50  0001 C CNN
F 3 "~" H 4000 3300 50  0001 C CNN
	1    4000 3100
	1    0    0    -1  
$EndComp
NoConn ~ 3800 3100
NoConn ~ 4200 3100
$Comp
L Switch:SW_Push SW10
U 1 1 6022B27D
P 5000 3100
F 0 "SW10" H 5000 3385 50  0000 C CNN
F 1 "SW_Push" H 5000 3294 50  0000 C CNN
F 2 "resplit66:SW_Cherry_MX1A_1.00u_Holes" H 5000 3300 50  0001 C CNN
F 3 "~" H 5000 3300 50  0001 C CNN
	1    5000 3100
	1    0    0    -1  
$EndComp
NoConn ~ 4800 3100
NoConn ~ 5200 3100
$Comp
L Switch:SW_Push SW11
U 1 1 6022B285
P 6000 3100
F 0 "SW11" H 6000 3385 50  0000 C CNN
F 1 "SW_Push" H 6000 3294 50  0000 C CNN
F 2 "resplit66:SW_Cherry_MX1A_1.00u_Holes" H 6000 3300 50  0001 C CNN
F 3 "~" H 6000 3300 50  0001 C CNN
	1    6000 3100
	1    0    0    -1  
$EndComp
NoConn ~ 5800 3100
NoConn ~ 6200 3100
$Comp
L Switch:SW_Push SW12
U 1 1 6022B28D
P 7000 3100
F 0 "SW12" H 7000 3385 50  0000 C CNN
F 1 "SW_Push" H 7000 3294 50  0000 C CNN
F 2 "resplit66:SW_Cherry_MX1A_1.00u_Holes" H 7000 3300 50  0001 C CNN
F 3 "~" H 7000 3300 50  0001 C CNN
	1    7000 3100
	1    0    0    -1  
$EndComp
NoConn ~ 6800 3100
NoConn ~ 7200 3100
$Comp
L Switch:SW_Push SW13
U 1 1 6022B295
P 8000 3100
F 0 "SW13" H 8000 3385 50  0000 C CNN
F 1 "SW_Push" H 8000 3294 50  0000 C CNN
F 2 "resplit66:SW_Cherry_MX1A_1.00u_Holes" H 8000 3300 50  0001 C CNN
F 3 "~" H 8000 3300 50  0001 C CNN
	1    8000 3100
	1    0    0    -1  
$EndComp
NoConn ~ 7800 3100
NoConn ~ 8200 3100
$Comp
L Switch:SW_Push SW14
U 1 1 6022E53C
P 9000 3100
F 0 "SW14" H 9000 3385 50  0000 C CNN
F 1 "SW_Push" H 9000 3294 50  0000 C CNN
F 2 "resplit66:SW_Cherry_MX1A_1.00u_Holes" H 9000 3300 50  0001 C CNN
F 3 "~" H 9000 3300 50  0001 C CNN
	1    9000 3100
	1    0    0    -1  
$EndComp
NoConn ~ 8800 3100
NoConn ~ 9200 3100
$Comp
L Switch:SW_Push SW36
U 1 1 6022E544
P 7000 4900
F 0 "SW36" H 7000 5185 50  0000 C CNN
F 1 "SW_Push" H 7000 5094 50  0000 C CNN
F 2 "resplit66:SW_Cherry_MX1A_1.00u_Holes" H 7000 5100 50  0001 C CNN
F 3 "~" H 7000 5100 50  0001 C CNN
	1    7000 4900
	1    0    0    -1  
$EndComp
NoConn ~ 6800 4900
NoConn ~ 7200 4900
$Comp
L Switch:SW_Push SW16
U 1 1 6022E54C
P 3000 3700
F 0 "SW16" H 3000 3985 50  0000 C CNN
F 1 "SW_Push" H 3000 3894 50  0000 C CNN
F 2 "resplit66:SW_Cherry_MX1A_1.00u_Holes" H 3000 3900 50  0001 C CNN
F 3 "~" H 3000 3900 50  0001 C CNN
	1    3000 3700
	1    0    0    -1  
$EndComp
NoConn ~ 2800 3700
NoConn ~ 3200 3700
$Comp
L Switch:SW_Push SW17
U 1 1 6022E554
P 4000 3700
F 0 "SW17" H 4000 3985 50  0000 C CNN
F 1 "SW_Push" H 4000 3894 50  0000 C CNN
F 2 "resplit66:SW_Cherry_MX1A_1.00u_Holes" H 4000 3900 50  0001 C CNN
F 3 "~" H 4000 3900 50  0001 C CNN
	1    4000 3700
	1    0    0    -1  
$EndComp
NoConn ~ 3800 3700
NoConn ~ 4200 3700
$Comp
L Switch:SW_Push SW18
U 1 1 6022E55C
P 5000 3700
F 0 "SW18" H 5000 3985 50  0000 C CNN
F 1 "SW_Push" H 5000 3894 50  0000 C CNN
F 2 "resplit66:SW_Cherry_MX1A_1.00u_Holes" H 5000 3900 50  0001 C CNN
F 3 "~" H 5000 3900 50  0001 C CNN
	1    5000 3700
	1    0    0    -1  
$EndComp
NoConn ~ 4800 3700
NoConn ~ 5200 3700
$Comp
L Switch:SW_Push SW19
U 1 1 6022E564
P 6000 3700
F 0 "SW19" H 6000 3985 50  0000 C CNN
F 1 "SW_Push" H 6000 3894 50  0000 C CNN
F 2 "resplit66:SW_Cherry_MX1A_1.00u_Holes" H 6000 3900 50  0001 C CNN
F 3 "~" H 6000 3900 50  0001 C CNN
	1    6000 3700
	1    0    0    -1  
$EndComp
NoConn ~ 5800 3700
NoConn ~ 6200 3700
$Comp
L Switch:SW_Push SW20
U 1 1 60232083
P 7000 3700
F 0 "SW20" H 7000 3985 50  0000 C CNN
F 1 "SW_Push" H 7000 3894 50  0000 C CNN
F 2 "resplit66:SW_Cherry_MX1A_1.00u_Holes" H 7000 3900 50  0001 C CNN
F 3 "~" H 7000 3900 50  0001 C CNN
	1    7000 3700
	1    0    0    -1  
$EndComp
NoConn ~ 6800 3700
NoConn ~ 7200 3700
$Comp
L Switch:SW_Push SW21
U 1 1 6023208B
P 8000 3700
F 0 "SW21" H 8000 3985 50  0000 C CNN
F 1 "SW_Push" H 8000 3894 50  0000 C CNN
F 2 "resplit66:SW_Cherry_MX1A_1.00u_Holes" H 8000 3900 50  0001 C CNN
F 3 "~" H 8000 3900 50  0001 C CNN
	1    8000 3700
	1    0    0    -1  
$EndComp
NoConn ~ 7800 3700
NoConn ~ 8200 3700
$Comp
L Switch:SW_Push SW35
U 1 1 60232093
P 6000 4900
F 0 "SW35" H 6000 5185 50  0000 C CNN
F 1 "SW_Push" H 6000 5094 50  0000 C CNN
F 2 "resplit66:SW_Cherry_MX1A_1.00u_Holes" H 6000 5100 50  0001 C CNN
F 3 "~" H 6000 5100 50  0001 C CNN
	1    6000 4900
	1    0    0    -1  
$EndComp
NoConn ~ 5800 4900
NoConn ~ 6200 4900
$Comp
L Switch:SW_Push SW34
U 1 1 6023209B
P 5000 4900
F 0 "SW34" H 5000 5185 50  0000 C CNN
F 1 "SW_Push" H 5000 5094 50  0000 C CNN
F 2 "resplit66:SW_Cherry_MX1A_1.00u_Holes" H 5000 5100 50  0001 C CNN
F 3 "~" H 5000 5100 50  0001 C CNN
	1    5000 4900
	1    0    0    -1  
$EndComp
NoConn ~ 4800 4900
NoConn ~ 5200 4900
$Comp
L Switch:SW_Push SW24
U 1 1 602320A3
P 3000 4300
F 0 "SW24" H 3000 4585 50  0000 C CNN
F 1 "SW_Push" H 3000 4494 50  0000 C CNN
F 2 "resplit66:SW_Cherry_MX1A_1.00u_Holes" H 3000 4500 50  0001 C CNN
F 3 "~" H 3000 4500 50  0001 C CNN
	1    3000 4300
	1    0    0    -1  
$EndComp
NoConn ~ 2800 4300
NoConn ~ 3200 4300
$Comp
L Switch:SW_Push SW25
U 1 1 602320AB
P 4000 4300
F 0 "SW25" H 4000 4585 50  0000 C CNN
F 1 "SW_Push" H 4000 4494 50  0000 C CNN
F 2 "resplit66:SW_Cherry_MX1A_1.00u_Holes" H 4000 4500 50  0001 C CNN
F 3 "~" H 4000 4500 50  0001 C CNN
	1    4000 4300
	1    0    0    -1  
$EndComp
NoConn ~ 3800 4300
NoConn ~ 4200 4300
$Comp
L Switch:SW_Push SW26
U 1 1 602320B3
P 5000 4300
F 0 "SW26" H 5000 4585 50  0000 C CNN
F 1 "SW_Push" H 5000 4494 50  0000 C CNN
F 2 "resplit66:SW_Cherry_MX1A_1.00u_Holes" H 5000 4500 50  0001 C CNN
F 3 "~" H 5000 4500 50  0001 C CNN
	1    5000 4300
	1    0    0    -1  
$EndComp
NoConn ~ 4800 4300
NoConn ~ 5200 4300
$Comp
L Switch:SW_Push SW27
U 1 1 60236165
P 6000 4300
F 0 "SW27" H 6000 4585 50  0000 C CNN
F 1 "SW_Push" H 6000 4494 50  0000 C CNN
F 2 "resplit66:SW_Cherry_MX1A_1.00u_Holes" H 6000 4500 50  0001 C CNN
F 3 "~" H 6000 4500 50  0001 C CNN
	1    6000 4300
	1    0    0    -1  
$EndComp
NoConn ~ 5800 4300
NoConn ~ 6200 4300
$Comp
L Switch:SW_Push SW28
U 1 1 6023616D
P 7000 4300
F 0 "SW28" H 7000 4585 50  0000 C CNN
F 1 "SW_Push" H 7000 4494 50  0000 C CNN
F 2 "resplit66:SW_Cherry_MX1A_1.00u_Holes" H 7000 4500 50  0001 C CNN
F 3 "~" H 7000 4500 50  0001 C CNN
	1    7000 4300
	1    0    0    -1  
$EndComp
NoConn ~ 6800 4300
NoConn ~ 7200 4300
$Comp
L Switch:SW_Push SW29
U 1 1 60236175
P 8000 4300
F 0 "SW29" H 8000 4585 50  0000 C CNN
F 1 "SW_Push" H 8000 4494 50  0000 C CNN
F 2 "resplit66:SW_Cherry_MX1A_1.00u_Holes" H 8000 4500 50  0001 C CNN
F 3 "~" H 8000 4500 50  0001 C CNN
	1    8000 4300
	1    0    0    -1  
$EndComp
NoConn ~ 7800 4300
NoConn ~ 8200 4300
$Comp
L Switch:SW_Push SW30
U 1 1 6023617D
P 9000 4300
F 0 "SW30" H 9000 4585 50  0000 C CNN
F 1 "SW_Push" H 9000 4494 50  0000 C CNN
F 2 "resplit66:SW_Cherry_MX1A_1.00u_Holes" H 9000 4500 50  0001 C CNN
F 3 "~" H 9000 4500 50  0001 C CNN
	1    9000 4300
	1    0    0    -1  
$EndComp
NoConn ~ 8800 4300
NoConn ~ 9200 4300
$Comp
L Switch:SW_Push SW33
U 1 1 60236185
P 4000 4900
F 0 "SW33" H 4000 5185 50  0000 C CNN
F 1 "SW_Push" H 4000 5094 50  0000 C CNN
F 2 "resplit66:SW_Cherry_MX1A_1.00u_Holes" H 4000 5100 50  0001 C CNN
F 3 "~" H 4000 5100 50  0001 C CNN
	1    4000 4900
	1    0    0    -1  
$EndComp
NoConn ~ 3800 4900
NoConn ~ 4200 4900
$Comp
L Switch:SW_Push SW32
U 1 1 6023618D
P 3000 4900
F 0 "SW32" H 3000 5185 50  0000 C CNN
F 1 "SW_Push" H 3000 5094 50  0000 C CNN
F 2 "resplit66:SW_Cherry_MX1A_1.00u_Holes" H 3000 5100 50  0001 C CNN
F 3 "~" H 3000 5100 50  0001 C CNN
	1    3000 4900
	1    0    0    -1  
$EndComp
NoConn ~ 2800 4900
NoConn ~ 3200 4900
$EndSCHEMATC
